1	638	0	(!CONFIG_HUSH_SAVEHISTORY) | (!CONFIG_FEATURE_EDITING) | (!CONFIG_HUSH_JOB) | (!CONFIG_HUSH) | (CONFIG_HUSH_INTERACTIVE)
2	448	0	(!CONFIG_FEATURE_EDITING_SAVE_ON_EXIT) | (!CONFIG_HUSH_INTERACTIVE) | (!CONFIG_HUSH) | (CONFIG_FEATURE_EDITING)
3	520	0	(!CONFIG_GETENFORCE) | (CONFIG_SELINUX)
4	646	0	(!CONFIG_HUSH_LOCAL) | (!CONFIG_HUSH) | (CONFIG_HUSH_FUNCTIONS)
5	460	0	(!CONFIG_TRACEROUTE6) | (!CONFIG_TRACEROUTE) | (CONFIG_FEATURE_IPV6) | (CONFIG_FEATURE_TRACEROUTE_VERBOSE)
6	531	0	(!CONFIG_FEATURE_UPTIME_UTMP_SUPPORT) | (!CONFIG_UPTIME) | (CONFIG_FEATURE_UTMP)
7	502	0	(!CONFIG_TRACEROUTE6) | (!CONFIG_TRACEROUTE) | (CONFIG_FEATURE_IPV6)
8	541	0	(CONFIG_FEATURE_RUNCON_LONG_OPTIONS & !CONFIG_FEATURE_GETOPT_LONG & !CONFIG_LONG_OPTS) | (!CONFIG_RUNCON) | (CONFIG_SELINUX)
9	509	0	(!CONFIG_FEATURE_EDITING_VI) | (!CONFIG_ASH) | (CONFIG_FEATURE_EDITING)
10	555	0	(!CONFIG_RUNLEVEL) | (CONFIG_FEATURE_UTMP)
11	582	0	(!CONFIG_FEATURE_HTTPD_CONFIG_WITH_SCRIPT_INTERPR) | (!CONFIG_HTTPD) | (CONFIG_FEATURE_HTTPD_CGI)
12	732	0	(!CONFIG_HUSH_LOCAL) | (!CONFIG_HUSH) | (CONFIG_NOMMU) | (CONFIG_HUSH_FUNCTIONS)
13	565	0	(!CONFIG_FEATURE_BRCTL_SHOW) | (!CONFIG_BRCTL) | (CONFIG_IOCTL_HEX2STR_ERROR) | (CONFIG_FEATURE_BRCTL_FANCY)
14	943	0	(!CONFIG_FEATURE_FDISK_ADVANCED) | (!CONFIG_FEATURE_SUN_LABEL) | (!CONFIG_FDISK) | (CONFIG_FEATURE_FDISK_WRITABLE)
15	415	0	(!CONFIG_FEATURE_SUN_LABEL) | (!CONFIG_FDISK) | (CONFIG_FEATURE_FDISK_WRITABLE)
16	498	0	(!CONFIG_FEATURE_FANCY_PING) | (!CONFIG_PING6) | (CONFIG_FEATURE_IPV6)
17	554	0	(!CONFIG_FEATURE_TRACEROUTE_VERBOSE) | (!CONFIG_TRACEROUTE6) | (!CONFIG_TRACEROUTE) | (CONFIG_FEATURE_IPV6)
18	507	0	(!CONFIG_FEATURE_TOP_SMP_CPU) | (!CONFIG_TOP) | (CONFIG_FEATURE_TOP_CPU_USAGE_PERCENTAGE)
19	535	0	(!CONFIG_FEATURE_EDITING_SAVE_ON_EXIT) | (!CONFIG_ASH) | (CONFIG_FEATURE_EDITING)
20	546	0	(!CONFIG_FEATURE_GETOPT_LONG & !CONFIG_LONG_OPTS) | (!CONFIG_FEATURE_CHCON_LONG_OPTIONS) | (!CONFIG_CHCON) | (CONFIG_SELINUX)
21	902	0	(!CONFIG_SETSEBOOL) | (CONFIG_SELINUX)
22	861	0	(!CONFIG_USERS & !CONFIG_WHO) | (CONFIG_FEATURE_UTMP)
23	866	0	(!CONFIG_FEATURE_WTMP) | (!CONFIG_HALT) | (CONFIG_FEATURE_UTMP)
24	449	0	(!CONFIG_SESTATUS) | (CONFIG_SELINUX)
25	523	0	(!CONFIG_WALL) | (CONFIG_FEATURE_UTMP)
26	516	0	(!CONFIG_MATCHPATHCON) | (CONFIG_SELINUX)
27	530	0	(!CONFIG_FEATURE_SGI_LABEL) | (!CONFIG_FDISK) | (CONFIG_FEATURE_FDISK_WRITABLE)
28	524	0	(!CONFIG_FEATURE_LAST_SMALL) | (CONFIG_FEATURE_UTMP)
29	524	0	(!CONFIG_SELINUXENABLED) | (CONFIG_SELINUX)
30	462	0	(!CONFIG_RESTORECON & !CONFIG_SETFILES) | (!CONFIG_FEATURE_SETFILES_CHECK_OPTION) | (CONFIG_SELINUX)
31	518	0	(!CONFIG_GETSEBOOL) | (CONFIG_SELINUX)
32	830	0	(!CONFIG_IOCTL_HEX2STR_ERROR) | (!CONFIG_FEATURE_BRCTL_SHOW) | (!CONFIG_BRCTL) | (CONFIG_FEATURE_BRCTL_FANCY)
33	434	0	(!CONFIG_RESTORECON & !CONFIG_SETFILES) | (CONFIG_SELINUX)
34	924	0	(!CONFIG_FEATURE_TELNETD_INETD_WAIT) | (!CONFIG_TELNETD) | (CONFIG_FEATURE_TELNETD_STANDALONE)
35	475	0	(!CONFIG_FEATURE_BRCTL_SHOW) | (!CONFIG_BRCTL) | (CONFIG_FEATURE_BRCTL_FANCY)
36	514	0	(!CONFIG_FEATURE_HTTPD_CONFIG_WITH_SCRIPT_INTERPR) | (!CONFIG_HTTPD) | (CONFIG_FEATURE_HTTPD_CGI) | (CONFIG_FEATURE_HTTPD_PROXY)
37	497	0	(!CONFIG_FEATURE_TAR_SELINUX) | (CONFIG_SELINUX)
38	591	0	(CONFIG_FEATURE_CHCON_LONG_OPTIONS & !CONFIG_FEATURE_GETOPT_LONG & !CONFIG_LONG_OPTS) | (!CONFIG_CHCON) | (CONFIG_SELINUX)
39	493	0	(!CONFIG_FEATURE_TAR_TO_COMMAND) | (!CONFIG_TAR) | (CONFIG_FEATURE_TAR_LONG_OPTIONS)
40	458	0	(!CONFIG_FEATURE_TAR_SELINUX) | (CONFIG_TAR) | (CONFIG_DPKG) | (CONFIG_DPKG_DEB)
41	571	0	(!CONFIG_FEATURE_LAST_FANCY) | (CONFIG_FEATURE_UTMP)
42	885	0	(!CONFIG_FEATURE_FDISK_ADVANCED) | (!CONFIG_FDISK) | (CONFIG_FEATURE_FDISK_WRITABLE)
43	713	0	(!CONFIG_FEATURE_TOP_CPU_GLOBAL_PERCENTS) | (!CONFIG_TOP) | (CONFIG_FEATURE_TOP_SMP_CPU) | (CONFIG_FEATURE_TOP_CPU_USAGE_PERCENTAGE)
44	1941	0	(!CONFIG_FEATURE_SH_HISTFILESIZE) | (!CONFIG_HUSH_SAVEHISTORY) | (!CONFIG_FEATURE_EDITING) | (!CONFIG_HUSH_JOB) | (!CONFIG_HUSH) | (CONFIG_HUSH_INTERACTIVE)
45	681	0	(!CONFIG_FEATURE_FIND_CONTEXT) | (!CONFIG_FIND) | (CONFIG_SELINUX)
46	417	0	(!CONFIG_FEATURE_TAR_TO_COMMAND) | (CONFIG_TAR) | (CONFIG_DPKG) | (CONFIG_DPKG_DEB)
47	619	0	(!CONFIG_HUSH_LOCAL) | (!CONFIG_NOMMU) | (!CONFIG_HUSH) | (CONFIG_HUSH_FUNCTIONS)
48	1365	0	(!CONFIG_HUSH_INTERACTIVE) | (!CONFIG_HUSH_SAVEHISTORY) | (!CONFIG_FEATURE_EDITING) | (!CONFIG_HUSH_JOB) | (!CONFIG_HUSH) | (CONFIG_FEATURE_EDITING_SAVEHISTORY)
49	557	0	(!CONFIG_FEATURE_SUID_CONFIG) | (CONFIG_FEATURE_SUID)
50	1261	0	(!CONFIG_LOAD_POLICY) | (CONFIG_SELINUX)
51	826	0	(!CONFIG_SETENFORCE) | (CONFIG_SELINUX)
52	1088	0	(!CONFIG_FEATURE_OSF_LABEL) | (!CONFIG_FDISK) | (CONFIG_FEATURE_FDISK_WRITABLE)
53	912	0	(!CONFIG_USE_BB_PWD_GRP) | (!CONFIG_USE_BB_SHADOW) | (CONFIG_FEATURE_SHADOWPASSWDS)
54	1462	0	(!CONFIG_FEATURE_EDITING_SAVE_ON_EXIT) | (!CONFIG_FEATURE_EDITING) | (CONFIG_FEATURE_EDITING_SAVEHISTORY)
