1	4518	0	 !CONFIG_TAR | CONFIG_LONG_OPTS | CONFIG_FEATURE_GETOPT_LONG | !CONFIG_FEATURE_TAR_LONG_OPTIONS
2	423	0	CONFIG_LONG_OPTS | CONFIG_FEATURE_GETOPT_LONG | ~CONFIG_FEATURE_FTPGETPUT_LONG_OPTIONS | ~CONFIG_FTPGET & ~CONFIG_FTPPUT
3	166	0	CONFIG_LONG_OPTS | ~CONFIG_FEATURE_LS_COLOR | CONFIG_FEATURE_GETOPT_LONG | ~CONFIG_LS & ~CONFIG_FTPD
4	59	0	 !CONFIG_RMDIR | CONFIG_LONG_OPTS | CONFIG_FEATURE_GETOPT_LONG | !CONFIG_FEATURE_RMDIR_LONG_OPTIONS
5	1134	0	CONFIG_LONG_OPTS | ~CONFIG_START_STOP_DAEMON | CONFIG_FEATURE_GETOPT_LONG | ~CONFIG_FEATURE_START_STOP_DAEMON_LONG_OPTIONS
6	55	0	CONFIG_LONG_OPTS | ~CONFIG_RUN_PARTS | CONFIG_FEATURE_GETOPT_LONG | ~CONFIG_FEATURE_RUN_PARTS_LONG_OPTIONS
7	40	0	 !CONFIG_RUNCON | CONFIG_LONG_OPTS | CONFIG_FEATURE_GETOPT_LONG | !CONFIG_FEATURE_RUNCON_LONG_OPTIONS
8	57	0	 !CONFIG_DIFF | CONFIG_LONG_OPTS | CONFIG_FEATURE_GETOPT_LONG | !CONFIG_FEATURE_DIFF_LONG_OPTIONS
9	328	0	 !CONFIG_ADDGROUP | CONFIG_LONG_OPTS | CONFIG_FEATURE_GETOPT_LONG | !CONFIG_FEATURE_ADDGROUP_LONG_OPTIONS
10	189	0	CONFIG_LONG_OPTS | CONFIG_FEATURE_GETOPT_LONG | ~CONFIG_EXPAND & ~CONFIG_UNEXPAND | ~CONFIG_FEATURE_EXPAND_LONG_OPTIONS & ~CONFIG_FEATURE_UNEXPAND_LONG_OPTIONS
11	51	0	 !CONFIG_CHCON | CONFIG_LONG_OPTS | CONFIG_FEATURE_GETOPT_LONG | !CONFIG_FEATURE_CHCON_LONG_OPTIONS
12	74	0	 !CONFIG_MKDIR | CONFIG_LONG_OPTS | CONFIG_FEATURE_GETOPT_LONG | !CONFIG_FEATURE_MKDIR_LONG_OPTIONS
13	85	0	CONFIG_LONG_OPTS | ~CONFIG_SETCONSOLE | CONFIG_FEATURE_GETOPT_LONG | ~CONFIG_FEATURE_SETCONSOLE_LONG_OPTIONS
14	68	0	 !CONFIG_GZIP | CONFIG_LONG_OPTS | CONFIG_FEATURE_GETOPT_LONG | !CONFIG_FEATURE_GZIP_LONG_OPTIONS
15	72	0	 !CONFIG_INSTALL | CONFIG_LONG_OPTS | CONFIG_FEATURE_GETOPT_LONG | !CONFIG_FEATURE_INSTALL_LONG_OPTIONS
16	87	0	 !CONFIG_HWCLOCK | CONFIG_LONG_OPTS | CONFIG_FEATURE_GETOPT_LONG | !CONFIG_FEATURE_HWCLOCK_LONG_OPTIONS
17	80	0	 !CONFIG_IPCALC | CONFIG_LONG_OPTS | CONFIG_FEATURE_GETOPT_LONG | !CONFIG_FEATURE_IPCALC_LONG_OPTIONS
18	47	0	 !CONFIG_CP | CONFIG_LONG_OPTS | CONFIG_FEATURE_GETOPT_LONG | !CONFIG_FEATURE_CP_LONG_OPTIONS
19	53	0	CONFIG_LONG_OPTS | CONFIG_FEATURE_GETOPT_LONG | ~CONFIG_FEATURE_CHOWN_LONG_OPTIONS | ~CONFIG_CHGRP & ~CONFIG_CHOWN & ~CONFIG_ADDUSER & ~CONFIG_ADDGROUP
20	97	0	 !CONFIG_WGET | CONFIG_LONG_OPTS | CONFIG_FEATURE_GETOPT_LONG | !CONFIG_FEATURE_WGET_LONG_OPTIONS
21	57	0	 !CONFIG_MV | CONFIG_LONG_OPTS | CONFIG_FEATURE_GETOPT_LONG | !CONFIG_FEATURE_MV_LONG_OPTIONS
22	68	0	 !CONFIG_ADDUSER | CONFIG_LONG_OPTS | CONFIG_FEATURE_GETOPT_LONG | !CONFIG_FEATURE_ADDUSER_LONG_OPTIONS
23	49	0	 !CONFIG_ENV | CONFIG_LONG_OPTS | CONFIG_FEATURE_GETOPT_LONG | !CONFIG_FEATURE_ENV_LONG_OPTIONS
