1	361	0	(!CONFIG_FEATURE_TAR_LONG_OPTIONS | !CONFIG_TAR | CONFIG_FEATURE_GETOPT_LONG | CONFIG_LONG_OPTS)
2	394	0	(!CONFIG_FEATURE_FTPGETPUT_LONG_OPTIONS | (!CONFIG_FTPGET & !CONFIG_FTPPUT) | CONFIG_FEATURE_GETOPT_LONG | CONFIG_LONG_OPTS)
3	319	0	(!CONFIG_FEATURE_LS_COLOR | (!CONFIG_FTPD & !CONFIG_LS) | CONFIG_FEATURE_GETOPT_LONG | CONFIG_LONG_OPTS)
4	252	0	(!CONFIG_FEATURE_RMDIR_LONG_OPTIONS | !CONFIG_RMDIR | CONFIG_FEATURE_GETOPT_LONG | CONFIG_LONG_OPTS)
5	474	0	(!CONFIG_FEATURE_START_STOP_DAEMON_LONG_OPTIONS | !CONFIG_START_STOP_DAEMON | CONFIG_FEATURE_GETOPT_LONG | CONFIG_LONG_OPTS)
6	265	0	(!CONFIG_FEATURE_RUN_PARTS_LONG_OPTIONS | !CONFIG_RUN_PARTS | CONFIG_FEATURE_GETOPT_LONG | CONFIG_LONG_OPTS)
7	296	0	(!CONFIG_FEATURE_RUNCON_LONG_OPTIONS | !CONFIG_RUNCON | CONFIG_FEATURE_GETOPT_LONG | CONFIG_LONG_OPTS)
8	255	0	(!CONFIG_DIFF | !CONFIG_FEATURE_DIFF_LONG_OPTIONS | CONFIG_FEATURE_GETOPT_LONG | CONFIG_LONG_OPTS)
9	281	0	(!CONFIG_ADDGROUP | !CONFIG_FEATURE_ADDGROUP_LONG_OPTIONS | CONFIG_FEATURE_GETOPT_LONG | CONFIG_LONG_OPTS)
10	271	0	((!CONFIG_EXPAND & !CONFIG_UNEXPAND) | ((!CONFIG_FEATURE_EXPAND_LONG_OPTIONS | CONFIG_FEATURE_GETOPT_LONG) & (!CONFIG_FEATURE_UNEXPAND_LONG_OPTIONS | CONFIG_FEATURE_EXPAND_LONG_OPTIONS | CONFIG_FEATURE_GETOPT_LONG)) | CONFIG_LONG_OPTS)
11	232	0	(!CONFIG_CHCON | !CONFIG_FEATURE_CHCON_LONG_OPTIONS | CONFIG_FEATURE_GETOPT_LONG | CONFIG_LONG_OPTS)
12	454	0	(!CONFIG_FEATURE_MKDIR_LONG_OPTIONS | !CONFIG_MKDIR | CONFIG_FEATURE_GETOPT_LONG | CONFIG_LONG_OPTS)
13	388	0	(!CONFIG_FEATURE_SETCONSOLE_LONG_OPTIONS | !CONFIG_SETCONSOLE | CONFIG_FEATURE_GETOPT_LONG | CONFIG_LONG_OPTS)
14	522	0	(!CONFIG_FEATURE_GZIP_LONG_OPTIONS | !CONFIG_GZIP | CONFIG_FEATURE_GETOPT_LONG | CONFIG_LONG_OPTS)
15	506	0	(!CONFIG_FEATURE_INSTALL_LONG_OPTIONS | !CONFIG_INSTALL | CONFIG_FEATURE_GETOPT_LONG | CONFIG_LONG_OPTS)
16	461	0	(!CONFIG_FEATURE_HWCLOCK_LONG_OPTIONS | !CONFIG_HWCLOCK | CONFIG_FEATURE_GETOPT_LONG | CONFIG_LONG_OPTS)
17	260	0	(!CONFIG_FEATURE_IPCALC_LONG_OPTIONS | !CONFIG_IPCALC | CONFIG_FEATURE_GETOPT_LONG | CONFIG_LONG_OPTS)
18	256	0	(!CONFIG_CP | !CONFIG_FEATURE_CP_LONG_OPTIONS | CONFIG_FEATURE_GETOPT_LONG | CONFIG_LONG_OPTS)
19	306	0	(!CONFIG_FEATURE_CHOWN_LONG_OPTIONS | (!CONFIG_ADDGROUP & !CONFIG_ADDUSER & !CONFIG_CHGRP & !CONFIG_CHOWN) | CONFIG_FEATURE_GETOPT_LONG | CONFIG_LONG_OPTS)
20	351	0	(!CONFIG_FEATURE_WGET_LONG_OPTIONS | !CONFIG_WGET | CONFIG_FEATURE_GETOPT_LONG | CONFIG_LONG_OPTS)
21	295	0	(!CONFIG_FEATURE_MV_LONG_OPTIONS | !CONFIG_MV | CONFIG_FEATURE_GETOPT_LONG | CONFIG_LONG_OPTS)
22	424	0	(!CONFIG_ADDUSER | !CONFIG_FEATURE_ADDUSER_LONG_OPTIONS | CONFIG_FEATURE_GETOPT_LONG | CONFIG_LONG_OPTS)
23	271	0	(!CONFIG_ENV | !CONFIG_FEATURE_ENV_LONG_OPTIONS | CONFIG_FEATURE_GETOPT_LONG | CONFIG_LONG_OPTS)
