1	16	0	(!CONFIG_FEATURE_TAR_LONG_OPTIONS | (CONFIG_FEATURE_GETOPT_LONG | (CONFIG_LONG_OPTS | !CONFIG_TAR)))
2	13	0	(CONFIG_FEATURE_GETOPT_LONG | (!CONFIG_FEATURE_FTPGETPUT_LONG_OPTIONS | (CONFIG_LONG_OPTS | !(CONFIG_FTPGET | CONFIG_FTPPUT))))
3	13	0	(!CONFIG_FEATURE_LS_COLOR | (CONFIG_FEATURE_GETOPT_LONG | (CONFIG_LONG_OPTS | !(CONFIG_LS | CONFIG_FTPD))))
4	11	0	(!CONFIG_FEATURE_RMDIR_LONG_OPTIONS | (CONFIG_FEATURE_GETOPT_LONG | (CONFIG_LONG_OPTS | !CONFIG_RMDIR)))
5	13	0	(!CONFIG_FEATURE_START_STOP_DAEMON_LONG_OPTIONS | (CONFIG_FEATURE_GETOPT_LONG | (CONFIG_LONG_OPTS | !CONFIG_START_STOP_DAEMON)))
6	11	0	(!CONFIG_FEATURE_RUN_PARTS_LONG_OPTIONS | (CONFIG_FEATURE_GETOPT_LONG | (CONFIG_LONG_OPTS | !CONFIG_RUN_PARTS)))
7	12	0	(CONFIG_FEATURE_GETOPT_LONG | (!CONFIG_FEATURE_RUNCON_LONG_OPTIONS | (CONFIG_LONG_OPTS | !CONFIG_RUNCON)))
8	10	0	(!CONFIG_FEATURE_DIFF_LONG_OPTIONS | (CONFIG_FEATURE_GETOPT_LONG | (CONFIG_LONG_OPTS | !CONFIG_DIFF)))
9	13	0	(!CONFIG_FEATURE_ADDGROUP_LONG_OPTIONS | (CONFIG_FEATURE_GETOPT_LONG | (CONFIG_LONG_OPTS | !CONFIG_ADDGROUP)))
10	13	0	(CONFIG_LONG_OPTS | !(!((!CONFIG_FEATURE_UNEXPAND_LONG_OPTIONS | (CONFIG_FEATURE_GETOPT_LONG | CONFIG_FEATURE_EXPAND_LONG_OPTIONS)) & (!CONFIG_FEATURE_EXPAND_LONG_OPTIONS | CONFIG_FEATURE_GETOPT_LONG)) & (CONFIG_EXPAND | CONFIG_UNEXPAND)))
11	16	0	(CONFIG_FEATURE_GETOPT_LONG | (!CONFIG_FEATURE_CHCON_LONG_OPTIONS | (CONFIG_LONG_OPTS | !CONFIG_CHCON)))
12	13	0	(!CONFIG_FEATURE_MKDIR_LONG_OPTIONS | (CONFIG_FEATURE_GETOPT_LONG | (CONFIG_LONG_OPTS | !CONFIG_MKDIR)))
13	11	0	(!CONFIG_FEATURE_SETCONSOLE_LONG_OPTIONS | (CONFIG_FEATURE_GETOPT_LONG | (CONFIG_LONG_OPTS | !CONFIG_SETCONSOLE)))
14	10	0	(!CONFIG_FEATURE_GZIP_LONG_OPTIONS | (CONFIG_FEATURE_GETOPT_LONG | (CONFIG_LONG_OPTS | !CONFIG_GZIP)))
15	12	0	(!CONFIG_FEATURE_INSTALL_LONG_OPTIONS | (CONFIG_FEATURE_GETOPT_LONG | (CONFIG_LONG_OPTS | !CONFIG_INSTALL)))
16	13	0	(CONFIG_FEATURE_GETOPT_LONG | (!CONFIG_FEATURE_HWCLOCK_LONG_OPTIONS | (CONFIG_LONG_OPTS | !CONFIG_HWCLOCK)))
17	12	0	(CONFIG_FEATURE_GETOPT_LONG | (!CONFIG_FEATURE_IPCALC_LONG_OPTIONS | (CONFIG_LONG_OPTS | !CONFIG_IPCALC)))
18	13	0	(!CONFIG_FEATURE_CP_LONG_OPTIONS | (CONFIG_FEATURE_GETOPT_LONG | (CONFIG_LONG_OPTS | !CONFIG_CP)))
19	12	0	(!CONFIG_FEATURE_CHOWN_LONG_OPTIONS | (CONFIG_FEATURE_GETOPT_LONG | (CONFIG_LONG_OPTS | !(CONFIG_ADDUSER | (CONFIG_ADDGROUP | (CONFIG_CHOWN | CONFIG_CHGRP))))))
20	12	0	(CONFIG_FEATURE_GETOPT_LONG | (!CONFIG_FEATURE_WGET_LONG_OPTIONS | (CONFIG_LONG_OPTS | !CONFIG_WGET)))
21	11	0	(!CONFIG_FEATURE_MV_LONG_OPTIONS | (CONFIG_FEATURE_GETOPT_LONG | (CONFIG_LONG_OPTS | !CONFIG_MV)))
22	12	0	(!CONFIG_FEATURE_ADDUSER_LONG_OPTIONS | (CONFIG_FEATURE_GETOPT_LONG | (CONFIG_LONG_OPTS | !CONFIG_ADDUSER)))
23	12	0	(!CONFIG_FEATURE_ENV_LONG_OPTIONS | (CONFIG_FEATURE_GETOPT_LONG | (CONFIG_LONG_OPTS | !CONFIG_ENV)))
