1	3275	0	 !CYGPKG_KERNEL | !CYGFUN_KERNEL_API_C | CYGSEM_KERNEL_SCHED_BITMAP | !CYGSEM_IO_FLASH_LEGACY_API | CYGSEM_KERNEL_SCHED_MLQUEUE
2	292	0	 !CYGPKG_NET | !CYGPKG_KERNEL | !CYGFUN_KERNEL_API_C | CYGSEM_KERNEL_SCHED_BITMAP | CYGSEM_KERNEL_SCHED_MLQUEUE | !CYGPKG_REDBOOT_I386_LINUX_EXEC
3	196	0	 !CYGPKG_PPP | !CYGPKG_KERNEL | CYGINT_ISO_DNS | !CYGFUN_KERNEL_API_C | CYGPKG_NET_CFLAGS_ADD | CYGPKG_NS_DNS_CFLAGS_ADD | CYGPKG_SNMPLIB_CFLAGS_ADD | CYGSEM_KERNEL_SCHED_BITMAP | CYGPKG_NET_SNTP_CFLAGS_ADD | CYGPKG_SNMPAGENT_CFLAGS_ADD | CYGSEM_KERNEL_SCHED_MLQUEUE | CYGPKG_NET_FTPCLIENT_CFLAGS_ADD | CYGPKG_IO_ETH_DRIVERS_CFLAGS_ADD | CYGPKG_NET_FREEBSD_STACK_CFLAGS_ADD | CYGPKG_DEVS_ETH_AMD_LANCEPCI_CFLAGS_ADD | CYGPKG_IO_FILEIO & CYGFUN_IO_FILEIO_SELECT
4	104	0	 !CYGFUN_KERNEL_API_C | CYGFUN_IO_FILEIO_SELECT | CYGSEM_KERNEL_SCHED_BITMAP | CYGSEM_KERNEL_SCHED_MLQUEUE | !CYGOPT_FS_JFFS2_COMPRESS_RUBIN
5	1052	0	 !CYGFUN_KERNEL_API_C | !CYGPKG_NET_FREEBSD_INET6 | CYGSEM_KERNEL_SCHED_BITMAP | CYGSEM_KERNEL_SCHED_MLQUEUE | !CYGPKG_NET_CFLAGS_ADD & !CYGPKG_NS_DNS_CFLAGS_ADD & !CYGPKG_SNMPLIB_CFLAGS_ADD & !CYGPKG_NET_SNTP_CFLAGS_ADD & !CYGPKG_SNMPAGENT_CFLAGS_ADD & !CYGPKG_NET_FTPCLIENT_CFLAGS_ADD & !CYGPKG_IO_ETH_DRIVERS_CFLAGS_ADD & !CYGPKG_NET_FREEBSD_STACK_CFLAGS_ADD & !CYGPKG_DEVS_ETH_AMD_LANCEPCI_CFLAGS_ADD
6	85	0	CYGPKG_NET_CFLAGS_ADD | CYGPKG_NS_DNS_CFLAGS_ADD | CYGPKG_SNMPLIB_CFLAGS_ADD | ~CYGPKG_NET_FREEBSD_SYSCTL | CYGPKG_NET_SNTP_CFLAGS_ADD | CYGPKG_SNMPAGENT_CFLAGS_ADD | CYGPKG_NET_FTPCLIENT_CFLAGS_ADD | CYGPKG_IO_ETH_DRIVERS_CFLAGS_ADD | CYGPKG_NET_FREEBSD_STACK_CFLAGS_ADD | CYGPKG_DEVS_ETH_AMD_LANCEPCI_CFLAGS_ADD
7	11016	1	(!CYGPKG_PPP | ((CYGPKG_NET_CFLAGS_ADD | ((CYGPKG_NET_FREEBSD_STACK_CFLAGS_ADD | ((CYGPKG_SNMPAGENT_CFLAGS_ADD | ((CYGPKG_SNMPLIB_CFLAGS_ADD | ((CYGPKG_NET_FTPCLIENT_CFLAGS_ADD | ((CYGPKG_NS_DNS_CFLAGS_ADD | ((CYGPKG_NET_SNTP_CFLAGS_ADD | ((!CYGPKG_DEVS_ETH_AMD_LANCEPCI_CFLAGS_ADD | CYGINT_ISO_DNS | CYGPKG_IO_ETH_DRIVERS_CFLAGS_ADD | CYGINT_ISO_NETDB_PROTO | CYGSEM_KERNEL_SCHED_MLQUEUE | !CYGFUN_KERNEL_API_C | CYGSEM_KERNEL_SCHED_BITMAP | !CYGINT_ISO_NETDB_SERV) & (CYGINT_ISO_DNS | !CYGPKG_IO_ETH_DRIVERS_CFLAGS_ADD | CYGINT_ISO_NETDB_PROTO | CYGSEM_KERNEL_SCHED_MLQUEUE | !CYGFUN_KERNEL_API_C | CYGSEM_KERNEL_SCHED_BITMAP | !CYGINT_ISO_NETDB_SERV))) & (!CYGPKG_NET_SNTP_CFLAGS_ADD | CYGINT_ISO_DNS | CYGINT_ISO_NETDB_PROTO | CYGSEM_KERNEL_SCHED_MLQUEUE | !CYGFUN_KERNEL_API_C | CYGSEM_KERNEL_SCHED_BITMAP | !CYGINT_ISO_NETDB_SERV))) & (CYGINT_ISO_DNS | !CYGPKG_NS_DNS_CFLAGS_ADD | CYGINT_ISO_NETDB_PROTO | CYGSEM_KERNEL_SCHED_MLQUEUE | !CYGFUN_KERNEL_API_C | CYGSEM_KERNEL_SCHED_BITMAP | !CYGINT_ISO_NETDB_SERV))) & (CYGINT_ISO_DNS | CYGINT_ISO_NETDB_PROTO | CYGSEM_KERNEL_SCHED_MLQUEUE | !CYGPKG_NET_FTPCLIENT_CFLAGS_ADD | !CYGFUN_KERNEL_API_C | CYGSEM_KERNEL_SCHED_BITMAP | !CYGINT_ISO_NETDB_SERV))) & (CYGINT_ISO_DNS | CYGINT_ISO_NETDB_PROTO | CYGSEM_KERNEL_SCHED_MLQUEUE | !CYGFUN_KERNEL_API_C | CYGSEM_KERNEL_SCHED_BITMAP | !CYGINT_ISO_NETDB_SERV | !CYGPKG_SNMPLIB_CFLAGS_ADD))) & (CYGINT_ISO_DNS | !CYGPKG_SNMPAGENT_CFLAGS_ADD | CYGINT_ISO_NETDB_PROTO | CYGSEM_KERNEL_SCHED_MLQUEUE | !CYGFUN_KERNEL_API_C | CYGSEM_KERNEL_SCHED_BITMAP | !CYGINT_ISO_NETDB_SERV))) & (CYGINT_ISO_DNS | CYGINT_ISO_NETDB_PROTO | CYGSEM_KERNEL_SCHED_MLQUEUE | !CYGFUN_KERNEL_API_C | !CYGPKG_NET_FREEBSD_STACK_CFLAGS_ADD | CYGSEM_KERNEL_SCHED_BITMAP | !CYGINT_ISO_NETDB_SERV))) & (CYGINT_ISO_DNS | !CYGPKG_NET_CFLAGS_ADD | CYGINT_ISO_NETDB_PROTO | CYGSEM_KERNEL_SCHED_MLQUEUE | !CYGFUN_KERNEL_API_C | CYGSEM_KERNEL_SCHED_BITMAP | !CYGINT_ISO_NETDB_SERV)))
8	3452	0	 !CYGPKG_KERNEL | !CYGPKG_PPP_CHAT | !CYGFUN_KERNEL_API_C | CYGSEM_KERNEL_SCHED_BITMAP | CYGSEM_KERNEL_SCHED_MLQUEUE
9	1381	0	 !CYGFUN_KERNEL_API_C | CYGFUN_IO_FILEIO_SELECT | !CYGPKG_NET_FREEBSD_STACK | CYGSEM_KERNEL_SCHED_BITMAP | CYGSEM_KERNEL_SCHED_MLQUEUE | !CYGPKG_NET_CFLAGS_ADD & !CYGPKG_NS_DNS_CFLAGS_ADD & !CYGPKG_SNMPLIB_CFLAGS_ADD & !CYGPKG_NET_SNTP_CFLAGS_ADD & !CYGPKG_SNMPAGENT_CFLAGS_ADD & !CYGPKG_NET_FTPCLIENT_CFLAGS_ADD & !CYGPKG_IO_ETH_DRIVERS_CFLAGS_ADD & !CYGPKG_NET_FREEBSD_STACK_CFLAGS_ADD & !CYGPKG_DEVS_ETH_AMD_LANCEPCI_CFLAGS_ADD
10	179	0	CYGPKG_NET_CFLAGS_ADD | CYGPKG_PPP_CFLAGS_ADD | CYGPKG_HTTPD_CFLAGS_ADD | CYGPKG_NS_DNS_CFLAGS_ADD | CYGPKG_SNMPLIB_CFLAGS_ADD | CYGPKG_FS_JFFS2_CFLAGS_ADD | CYGPKG_SNMPAGENT_CFLAGS_ADD | ~CYGOPT_FS_JFFS2_COMPRESS_ZLIB | CYGPKG_NET_FTPCLIENT_CFLAGS_ADD | CYGPKG_IO_ETH_DRIVERS_CFLAGS_ADD | CYGPKG_DEVS_ETH_AMD_LANCEPCI_CFLAGS_ADD | CYGFUN_KERNEL_API_C & ~CYGSEM_KERNEL_SCHED_BITMAP & ~CYGSEM_KERNEL_SCHED_MLQUEUE
11	11014	1	(!CYGPKG_SNMPLIB | ((CYGPKG_NET_CFLAGS_ADD | ((CYGPKG_NET_FREEBSD_STACK_CFLAGS_ADD | ((CYGPKG_SNMPAGENT_CFLAGS_ADD | ((CYGPKG_SNMPLIB_CFLAGS_ADD | ((CYGPKG_HTTPD_CFLAGS_ADD | ((CYGPKG_NET_FTPCLIENT_CFLAGS_ADD | ((CYGPKG_PPP_CFLAGS_ADD | ((CYGPKG_NS_DNS_CFLAGS_ADD | ((CYGPKG_NET_SNTP_CFLAGS_ADD | ((CYGPKG_IO_ETH_DRIVERS_CFLAGS_ADD | ((CYGSEM_KERNEL_SCHED_BITMAP | CYGSEM_KERNEL_SCHED_MLQUEUE | !CYGFUN_KERNEL_API_C | CYGPKG_DEVS_ETH_AMD_LANCEPCI_CFLAGS_ADD) & (!CYGPKG_DEVS_ETH_AMD_LANCEPCI_CFLAGS_ADD | CYGSEM_KERNEL_SCHED_MLQUEUE | !CYGFUN_KERNEL_API_C | CYGSEM_KERNEL_SCHED_BITMAP | CYGPKG_NET_FREEBSD_STACK))) & (!CYGPKG_IO_ETH_DRIVERS_CFLAGS_ADD | CYGSEM_KERNEL_SCHED_MLQUEUE | !CYGFUN_KERNEL_API_C | CYGSEM_KERNEL_SCHED_BITMAP | CYGPKG_NET_FREEBSD_STACK))) & (!CYGPKG_NET_SNTP_CFLAGS_ADD | ((CYGPKG_FS_JFFS2_CFLAGS_ADD | ((CYGPKG_IO_ETH_DRIVERS_CFLAGS_ADD | ((CYGSEM_KERNEL_SCHED_BITMAP | CYGSEM_KERNEL_SCHED_MLQUEUE | !CYGFUN_KERNEL_API_C | CYGPKG_DEVS_ETH_AMD_LANCEPCI_CFLAGS_ADD) & (!CYGPKG_DEVS_ETH_AMD_LANCEPCI_CFLAGS_ADD | CYGSEM_KERNEL_SCHED_MLQUEUE | !CYGFUN_KERNEL_API_C | CYGSEM_KERNEL_SCHED_BITMAP | CYGPKG_NET_FREEBSD_STACK))) & (!CYGPKG_IO_ETH_DRIVERS_CFLAGS_ADD | CYGSEM_KERNEL_SCHED_MLQUEUE | !CYGFUN_KERNEL_API_C | CYGSEM_KERNEL_SCHED_BITMAP | CYGPKG_NET_FREEBSD_STACK))) & (CYGSEM_KERNEL_SCHED_MLQUEUE | !CYGFUN_KERNEL_API_C | CYGSEM_KERNEL_SCHED_BITMAP | CYGPKG_NET_FREEBSD_STACK | !CYGPKG_FS_JFFS2_CFLAGS_ADD))))) & (!CYGPKG_NS_DNS_CFLAGS_ADD | CYGSEM_KERNEL_SCHED_MLQUEUE | !CYGFUN_KERNEL_API_C | CYGSEM_KERNEL_SCHED_BITMAP | CYGPKG_NET_FREEBSD_STACK))) & (!CYGPKG_PPP_CFLAGS_ADD | ((CYGPKG_NS_DNS_CFLAGS_ADD | ((CYGPKG_NET_SNTP_CFLAGS_ADD | ((CYGPKG_IO_ETH_DRIVERS_CFLAGS_ADD | ((CYGSEM_KERNEL_SCHED_BITMAP | CYGSEM_KERNEL_SCHED_MLQUEUE | !CYGFUN_KERNEL_API_C | CYGPKG_DEVS_ETH_AMD_LANCEPCI_CFLAGS_ADD) & (!CYGPKG_DEVS_ETH_AMD_LANCEPCI_CFLAGS_ADD | CYGSEM_KERNEL_SCHED_MLQUEUE | !CYGFUN_KERNEL_API_C | CYGSEM_KERNEL_SCHED_BITMAP | CYGPKG_NET_FREEBSD_STACK))) & (!CYGPKG_IO_ETH_DRIVERS_CFLAGS_ADD | CYGSEM_KERNEL_SCHED_MLQUEUE | !CYGFUN_KERNEL_API_C | CYGSEM_KERNEL_SCHED_BITMAP | CYGPKG_NET_FREEBSD_STACK))) & (!CYGPKG_NET_SNTP_CFLAGS_ADD | CYGSEM_KERNEL_SCHED_MLQUEUE | !CYGFUN_KERNEL_API_C | CYGSEM_KERNEL_SCHED_BITMAP | CYGPKG_NET_FREEBSD_STACK))) & (!CYGPKG_NS_DNS_CFLAGS_ADD | CYGSEM_KERNEL_SCHED_MLQUEUE | !CYGFUN_KERNEL_API_C | CYGSEM_KERNEL_SCHED_BITMAP | CYGPKG_NET_FREEBSD_STACK))))) & (CYGSEM_KERNEL_SCHED_MLQUEUE | !CYGPKG_NET_FTPCLIENT_CFLAGS_ADD | !CYGFUN_KERNEL_API_C | CYGSEM_KERNEL_SCHED_BITMAP | CYGPKG_NET_FREEBSD_STACK))) & (!CYGPKG_HTTPD_CFLAGS_ADD | ((CYGPKG_NET_FTPCLIENT_CFLAGS_ADD | ((CYGPKG_NS_DNS_CFLAGS_ADD | ((CYGPKG_NET_SNTP_CFLAGS_ADD | ((CYGPKG_IO_ETH_DRIVERS_CFLAGS_ADD | ((CYGSEM_KERNEL_SCHED_BITMAP | CYGSEM_KERNEL_SCHED_MLQUEUE | !CYGFUN_KERNEL_API_C | CYGPKG_DEVS_ETH_AMD_LANCEPCI_CFLAGS_ADD) & (!CYGPKG_DEVS_ETH_AMD_LANCEPCI_CFLAGS_ADD | CYGSEM_KERNEL_SCHED_MLQUEUE | !CYGFUN_KERNEL_API_C | CYGSEM_KERNEL_SCHED_BITMAP | CYGPKG_NET_FREEBSD_STACK))) & (!CYGPKG_IO_ETH_DRIVERS_CFLAGS_ADD | CYGSEM_KERNEL_SCHED_MLQUEUE | !CYGFUN_KERNEL_API_C | CYGSEM_KERNEL_SCHED_BITMAP | CYGPKG_NET_FREEBSD_STACK))) & (!CYGPKG_NET_SNTP_CFLAGS_ADD | CYGSEM_KERNEL_SCHED_MLQUEUE | !CYGFUN_KERNEL_API_C | CYGSEM_KERNEL_SCHED_BITMAP | CYGPKG_NET_FREEBSD_STACK))) & (!CYGPKG_NS_DNS_CFLAGS_ADD | CYGSEM_KERNEL_SCHED_MLQUEUE | !CYGFUN_KERNEL_API_C | CYGSEM_KERNEL_SCHED_BITMAP | CYGPKG_NET_FREEBSD_STACK))) & (CYGSEM_KERNEL_SCHED_MLQUEUE | !CYGPKG_NET_FTPCLIENT_CFLAGS_ADD | !CYGFUN_KERNEL_API_C | CYGSEM_KERNEL_SCHED_BITMAP | CYGPKG_NET_FREEBSD_STACK))))) & (CYGSEM_KERNEL_SCHED_MLQUEUE | !CYGFUN_KERNEL_API_C | CYGSEM_KERNEL_SCHED_BITMAP | CYGPKG_NET_FREEBSD_STACK | !CYGPKG_SNMPLIB_CFLAGS_ADD))) & (!CYGPKG_SNMPAGENT_CFLAGS_ADD | CYGSEM_KERNEL_SCHED_MLQUEUE | !CYGFUN_KERNEL_API_C | CYGSEM_KERNEL_SCHED_BITMAP | CYGPKG_NET_FREEBSD_STACK))) & (!CYGPKG_NET_FREEBSD_STACK_CFLAGS_ADD | ((CYGPKG_SNMPAGENT_CFLAGS_ADD | ((CYGPKG_SNMPLIB_CFLAGS_ADD | ((CYGPKG_HTTPD_CFLAGS_ADD | ((CYGPKG_NET_FTPCLIENT_CFLAGS_ADD | ((CYGPKG_PPP_CFLAGS_ADD | ((CYGPKG_NS_DNS_CFLAGS_ADD | ((CYGPKG_FS_JFFS2_CFLAGS_ADD | ((CYGPKG_IO_ETH_DRIVERS_CFLAGS_ADD | ((CYGSEM_KERNEL_SCHED_BITMAP | CYGSEM_KERNEL_SCHED_MLQUEUE | !CYGFUN_KERNEL_API_C | CYGPKG_DEVS_ETH_AMD_LANCEPCI_CFLAGS_ADD) & (!CYGPKG_DEVS_ETH_AMD_LANCEPCI_CFLAGS_ADD | CYGSEM_KERNEL_SCHED_MLQUEUE | !CYGFUN_KERNEL_API_C | CYGSEM_KERNEL_SCHED_BITMAP | CYGPKG_NET_FREEBSD_STACK))) & (!CYGPKG_IO_ETH_DRIVERS_CFLAGS_ADD | CYGSEM_KERNEL_SCHED_MLQUEUE | !CYGFUN_KERNEL_API_C | CYGSEM_KERNEL_SCHED_BITMAP | CYGPKG_NET_FREEBSD_STACK))) & (CYGSEM_KERNEL_SCHED_MLQUEUE | !CYGFUN_KERNEL_API_C | CYGSEM_KERNEL_SCHED_BITMAP | CYGPKG_NET_FREEBSD_STACK | !CYGPKG_FS_JFFS2_CFLAGS_ADD))) & (!CYGPKG_NS_DNS_CFLAGS_ADD | CYGSEM_KERNEL_SCHED_MLQUEUE | !CYGFUN_KERNEL_API_C | CYGSEM_KERNEL_SCHED_BITMAP | CYGPKG_NET_FREEBSD_STACK))) & (!CYGPKG_PPP_CFLAGS_ADD | CYGSEM_KERNEL_SCHED_MLQUEUE | !CYGFUN_KERNEL_API_C | CYGSEM_KERNEL_SCHED_BITMAP | CYGPKG_NET_FREEBSD_STACK))) & (CYGSEM_KERNEL_SCHED_MLQUEUE | !CYGPKG_NET_FTPCLIENT_CFLAGS_ADD | !CYGFUN_KERNEL_API_C | CYGSEM_KERNEL_SCHED_BITMAP | CYGPKG_NET_FREEBSD_STACK))) & (CYGSEM_KERNEL_SCHED_MLQUEUE | !CYGFUN_KERNEL_API_C | CYGSEM_KERNEL_SCHED_BITMAP | CYGPKG_NET_FREEBSD_STACK | !CYGPKG_HTTPD_CFLAGS_ADD))) & (CYGSEM_KERNEL_SCHED_MLQUEUE | !CYGFUN_KERNEL_API_C | CYGSEM_KERNEL_SCHED_BITMAP | CYGPKG_NET_FREEBSD_STACK | !CYGPKG_SNMPLIB_CFLAGS_ADD))) & (!CYGPKG_SNMPAGENT_CFLAGS_ADD | CYGSEM_KERNEL_SCHED_MLQUEUE | !CYGFUN_KERNEL_API_C | CYGSEM_KERNEL_SCHED_BITMAP | CYGPKG_NET_FREEBSD_STACK))))) & (!CYGPKG_NET_CFLAGS_ADD | CYGSEM_KERNEL_SCHED_MLQUEUE | !CYGFUN_KERNEL_API_C | CYGSEM_KERNEL_SCHED_BITMAP | CYGPKG_NET_FREEBSD_STACK)))
12	2803	0	 !CYGFUN_KERNEL_API_C | !CYGFUN_IO_FILEIO_SELECT | CYGSEM_KERNEL_SCHED_BITMAP | CYGSEM_KERNEL_SCHED_MLQUEUE | !CYGOPT_FS_JFFS2_COMPRESS_ZLIB
13	77	0	 !CYGPKG_FS_ROM | !CYGFUN_KERNEL_API_C | CYGFUN_IO_FILEIO_SELECT | CYGSEM_KERNEL_SCHED_BITMAP | CYGSEM_KERNEL_SCHED_MLQUEUE
14	182	0	 !CYGFUN_KERNEL_API_C | CYGSEM_KERNEL_SCHED_BITMAP | CYGSEM_KERNEL_SCHED_MLQUEUE | !PPP_BSDCOMP
15	815	0	 !CYGPKG_NET_FREEBSD_STACK | CYGPKG_NET_CFLAGS_ADD & CYGPKG_NET_DRIVER_FRAMEWORK | CYGPKG_NS_DNS_CFLAGS_ADD & CYGPKG_NET_DRIVER_FRAMEWORK | CYGPKG_SNMPLIB_CFLAGS_ADD & CYGPKG_NET_DRIVER_FRAMEWORK | CYGPKG_NET_SNTP_CFLAGS_ADD & CYGPKG_NET_DRIVER_FRAMEWORK | CYGPKG_SNMPAGENT_CFLAGS_ADD & CYGPKG_NET_DRIVER_FRAMEWORK | CYGPKG_NET_DRIVER_FRAMEWORK & CYGPKG_NET_FTPCLIENT_CFLAGS_ADD | CYGPKG_NET_DRIVER_FRAMEWORK & CYGPKG_IO_ETH_DRIVERS_CFLAGS_ADD | CYGPKG_NET_DRIVER_FRAMEWORK & CYGPKG_NET_FREEBSD_STACK_CFLAGS_ADD | CYGPKG_NET_DRIVER_FRAMEWORK & CYGPKG_DEVS_ETH_AMD_LANCEPCI_CFLAGS_ADD | CYGFUN_KERNEL_API_C & !CYGSEM_KERNEL_SCHED_BITMAP & !CYGSEM_KERNEL_SCHED_MLQUEUE
16	97	0	 !CYGPKG_PPP | CYGINT_ISO_DNS | !CYGPKG_IO_FILEIO | !CYGFUN_KERNEL_API_C | CYGPKG_NET_CFLAGS_ADD | !CYGFUN_IO_FILEIO_SELECT | CYGPKG_NS_DNS_CFLAGS_ADD | CYGPKG_SNMPLIB_CFLAGS_ADD | CYGSEM_KERNEL_SCHED_BITMAP | CYGPKG_NET_SNTP_CFLAGS_ADD | CYGPKG_SNMPAGENT_CFLAGS_ADD | CYGSEM_KERNEL_SCHED_MLQUEUE | CYGPKG_NET_FTPCLIENT_CFLAGS_ADD | CYGPKG_IO_ETH_DRIVERS_CFLAGS_ADD | CYGPKG_NET_FREEBSD_STACK_CFLAGS_ADD | CYGPKG_DEVS_ETH_AMD_LANCEPCI_CFLAGS_ADD
17	906	0	 !CYGFUN_KERNEL_API_C | !CYGPKG_NET_FREEBSD_STACK | CYGSEM_KERNEL_SCHED_BITMAP | CYGSEM_KERNEL_SCHED_MLQUEUE | !CYGPKG_NET_CFLAGS_ADD & !CYGPKG_NS_DNS_CFLAGS_ADD & !CYGPKG_SNMPLIB_CFLAGS_ADD & !CYGPKG_NET_SNTP_CFLAGS_ADD & !CYGPKG_SNMPAGENT_CFLAGS_ADD & !CYGPKG_NET_FTPCLIENT_CFLAGS_ADD & !CYGPKG_IO_ETH_DRIVERS_CFLAGS_ADD & !CYGPKG_NET_FREEBSD_STACK_CFLAGS_ADD & !CYGPKG_DEVS_ETH_AMD_LANCEPCI_CFLAGS_ADD
18	103	0	 !CYGPKG_FS_RAM | !CYGFUN_KERNEL_API_C | !CYGFUN_IO_FILEIO_SELECT | CYGSEM_KERNEL_SCHED_BITMAP | CYGSEM_KERNEL_SCHED_MLQUEUE
19	97	0	 !CYGPKG_NET_INET | !CYGFUN_KERNEL_API_C | CYGPKG_NET_CFLAGS_ADD | CYGPKG_PPP_CFLAGS_ADD | CYGPKG_HTTPD_CFLAGS_ADD | CYGPKG_NS_DNS_CFLAGS_ADD | CYGPKG_SNMPLIB_CFLAGS_ADD | CYGPKG_FS_JFFS2_CFLAGS_ADD | CYGSEM_KERNEL_SCHED_BITMAP | CYGPKG_SNMPAGENT_CFLAGS_ADD | CYGSEM_KERNEL_SCHED_MLQUEUE | CYGPKG_NET_FTPCLIENT_CFLAGS_ADD | CYGPKG_IO_ETH_DRIVERS_CFLAGS_ADD | CYGPKG_DEVS_ETH_AMD_LANCEPCI_CFLAGS_ADD | !CYGPKG_NET_SNTP_CFLAGS_ADD & !CYGPKG_NET_FREEBSD_STACK_CFLAGS_ADD
20	61	0	CYGPKG_NET_CFLAGS_ADD | ~CYGPKG_NET_FREEBSD_STACK | CYGPKG_NS_DNS_CFLAGS_ADD | CYGPKG_SNMPLIB_CFLAGS_ADD | CYGPKG_NET_SNTP_CFLAGS_ADD | CYGPKG_SNMPAGENT_CFLAGS_ADD | CYGPKG_NET_FTPCLIENT_CFLAGS_ADD | CYGPKG_IO_ETH_DRIVERS_CFLAGS_ADD | CYGPKG_NET_FREEBSD_STACK_CFLAGS_ADD | CYGPKG_DEVS_ETH_AMD_LANCEPCI_CFLAGS_ADD
21	34	0	 !CYGFUN_KERNEL_API_C | !CYGOPT_FS_JFFS2_WRITE | CYGFUN_IO_FILEIO_SELECT | CYGSEM_KERNEL_SCHED_BITMAP | CYGSEM_KERNEL_SCHED_MLQUEUE
22	141	0	 !CYGPKG_PPP | CYGPKG_KERNEL | CYGINT_ISO_DNS | !CYGFUN_KERNEL_API_C | CYGPKG_NET_CFLAGS_ADD | CYGPKG_NS_DNS_CFLAGS_ADD | CYGPKG_SNMPLIB_CFLAGS_ADD | CYGSEM_KERNEL_SCHED_BITMAP | CYGPKG_NET_SNTP_CFLAGS_ADD | CYGPKG_SNMPAGENT_CFLAGS_ADD | CYGSEM_KERNEL_SCHED_MLQUEUE | CYGPKG_NET_FTPCLIENT_CFLAGS_ADD | CYGPKG_IO_ETH_DRIVERS_CFLAGS_ADD | CYGPKG_NET_FREEBSD_STACK_CFLAGS_ADD | CYGPKG_DEVS_ETH_AMD_LANCEPCI_CFLAGS_ADD | CYGPKG_IO_FILEIO & CYGFUN_IO_FILEIO_SELECT | CYGFUN_IO_FILEIO_SELECT & CYGPKG_IO_SERIAL_SELECT_SUPPORT
23	53	0	 !CYGPKG_KERNEL | !CYGPKG_IO_FLASH | !CYGFUN_KERNEL_API_C | CYGSEM_KERNEL_SCHED_BITMAP | CYGSEM_KERNEL_SCHED_MLQUEUE
24	49	0	 !CYGPKG_NET | !CYGPKG_KERNEL | !CYGFUN_KERNEL_API_C | CYGSEM_KERNEL_SCHED_BITMAP | CYGSEM_KERNEL_SCHED_MLQUEUE | !CYGDBG_HAL_DEBUG_GDB_INCLUDE_STUBS
25	39	0	 !CYGPKG_SNMPAGENT | !CYGFUN_KERNEL_API_C | CYGSEM_KERNEL_SCHED_BITMAP | CYGSEM_KERNEL_SCHED_MLQUEUE
26	31	0	CYGPKG_IO_FILEIO | ~CYGFUN_KERNEL_API_C | ~CYGFUN_IO_FILEIO_SELECT | ~CYGPKG_NET_FREEBSD_STACK | CYGSEM_KERNEL_SCHED_BITMAP | CYGSEM_KERNEL_SCHED_MLQUEUE
27	42	0	 !CYGPKG_NET | !CYGPKG_KERNEL | !CYGFUN_KERNEL_API_C | !CYGPKG_HAL_I386_PC | CYGSEM_KERNEL_SCHED_BITMAP | CYGSEM_KERNEL_SCHED_MLQUEUE
28	101	0	 !CYGPKG_NET_FREEBSD_STACK | CYGFUN_KERNEL_API_C & CYGPKG_NET_CFLAGS_ADD & !CYGSEM_KERNEL_SCHED_BITMAP & !CYGSEM_KERNEL_SCHED_MLQUEUE | CYGFUN_KERNEL_API_C & CYGPKG_NS_DNS_CFLAGS_ADD & !CYGSEM_KERNEL_SCHED_BITMAP & !CYGSEM_KERNEL_SCHED_MLQUEUE | CYGFUN_KERNEL_API_C & CYGPKG_SNMPLIB_CFLAGS_ADD & !CYGSEM_KERNEL_SCHED_BITMAP & !CYGSEM_KERNEL_SCHED_MLQUEUE | CYGFUN_KERNEL_API_C & !CYGSEM_KERNEL_SCHED_BITMAP & CYGPKG_NET_SNTP_CFLAGS_ADD & !CYGSEM_KERNEL_SCHED_MLQUEUE | CYGFUN_KERNEL_API_C & !CYGSEM_KERNEL_SCHED_BITMAP & CYGPKG_SNMPAGENT_CFLAGS_ADD & !CYGSEM_KERNEL_SCHED_MLQUEUE | CYGFUN_KERNEL_API_C & !CYGSEM_KERNEL_SCHED_BITMAP & !CYGSEM_KERNEL_SCHED_MLQUEUE & CYGPKG_NET_FTPCLIENT_CFLAGS_ADD | CYGFUN_KERNEL_API_C & !CYGSEM_KERNEL_SCHED_BITMAP & !CYGSEM_KERNEL_SCHED_MLQUEUE & CYGPKG_IO_ETH_DRIVERS_CFLAGS_ADD | CYGFUN_KERNEL_API_C & !CYGSEM_KERNEL_SCHED_BITMAP & !CYGSEM_KERNEL_SCHED_MLQUEUE & CYGPKG_NET_FREEBSD_STACK_CFLAGS_ADD | CYGFUN_KERNEL_API_C & !CYGSEM_KERNEL_SCHED_BITMAP & !CYGSEM_KERNEL_SCHED_MLQUEUE & CYGPKG_DEVS_ETH_AMD_LANCEPCI_CFLAGS_ADD
29	189	0	 !CYGOPT_FS_JFFS2_COMPRESS_RUBIN | CYGFUN_KERNEL_API_C & !CYGSEM_KERNEL_SCHED_BITMAP & !CYGSEM_KERNEL_SCHED_MLQUEUE | !CYGPKG_NET_CFLAGS_ADD & !CYGPKG_PPP_CFLAGS_ADD & !CYGPKG_HTTPD_CFLAGS_ADD & !CYGPKG_NS_DNS_CFLAGS_ADD & !CYGPKG_SNMPLIB_CFLAGS_ADD & !CYGPKG_FS_JFFS2_CFLAGS_ADD & !CYGPKG_SNMPAGENT_CFLAGS_ADD & !CYGPKG_NET_FTPCLIENT_CFLAGS_ADD & !CYGPKG_IO_ETH_DRIVERS_CFLAGS_ADD & !CYGPKG_DEVS_ETH_AMD_LANCEPCI_CFLAGS_ADD
30	1232	0	 !CYGPKG_NET_INET | !CYGFUN_KERNEL_API_C | CYGSEM_KERNEL_SCHED_BITMAP | CYGSEM_KERNEL_SCHED_MLQUEUE | !CYGPKG_NET_CFLAGS_ADD & !CYGPKG_NS_DNS_CFLAGS_ADD & !CYGPKG_SNMPLIB_CFLAGS_ADD & !CYGPKG_NET_SNTP_CFLAGS_ADD & !CYGPKG_SNMPAGENT_CFLAGS_ADD & !CYGPKG_NET_FTPCLIENT_CFLAGS_ADD & !CYGPKG_IO_ETH_DRIVERS_CFLAGS_ADD & !CYGPKG_NET_FREEBSD_STACK_CFLAGS_ADD & !CYGPKG_DEVS_ETH_AMD_LANCEPCI_CFLAGS_ADD
31	37	0	CYGPKG_NET_CFLAGS_ADD | ~CYGPKG_NET_FREEBSD_STACK | CYGPKG_NS_DNS_CFLAGS_ADD | CYGPKG_SNMPLIB_CFLAGS_ADD | CYGPKG_NET_SNTP_CFLAGS_ADD | CYGPKG_SNMPAGENT_CFLAGS_ADD | CYGPKG_NET_FTPCLIENT_CFLAGS_ADD | CYGPKG_IO_ETH_DRIVERS_CFLAGS_ADD | CYGPKG_NET_FREEBSD_STACK_CFLAGS_ADD | CYGPKG_DEVS_ETH_AMD_LANCEPCI_CFLAGS_ADD | CYGPKG_IO_FILEIO & CYGFUN_KERNEL_API_C & CYGFUN_IO_FILEIO_SELECT & ~CYGSEM_KERNEL_SCHED_BITMAP & ~CYGSEM_KERNEL_SCHED_MLQUEUE
32	185	0	CYGPKG_KERNEL | ~CYGFUN_KERNEL_API_C | ~CYGFUN_IO_FILEIO_SELECT | CYGSEM_KERNEL_SCHED_BITMAP | CYGSEM_KERNEL_SCHED_MLQUEUE | ~CYGPKG_IO_SERIAL_GENERIC_16X5X | ~CYGPKG_IO_SERIAL_SELECT_SUPPORT
33	133	0	 !CYGPKG_KERNEL | !CYGFUN_KERNEL_API_C | !CYGPKG_IO_SERIAL_HALDIAG | CYGSEM_KERNEL_SCHED_BITMAP | CYGSEM_KERNEL_SCHED_MLQUEUE
34	121	0	 !CYGINT_ISO_DNS | !CYGPKG_NET_INET | !CYGFUN_KERNEL_API_C | CYGPKG_NET_CFLAGS_ADD | CYGPKG_NS_DNS_CFLAGS_ADD | CYGPKG_SNMPLIB_CFLAGS_ADD | CYGSEM_KERNEL_SCHED_BITMAP | CYGPKG_NET_SNTP_CFLAGS_ADD | CYGPKG_SNMPAGENT_CFLAGS_ADD | CYGSEM_KERNEL_SCHED_MLQUEUE | CYGPKG_NET_FTPCLIENT_CFLAGS_ADD | CYGPKG_IO_ETH_DRIVERS_CFLAGS_ADD | CYGPKG_NET_FREEBSD_STACK_CFLAGS_ADD | CYGPKG_DEVS_ETH_AMD_LANCEPCI_CFLAGS_ADD
35	915	0	 !CYGPKG_PPP_PAP | !CYGFUN_KERNEL_API_C | CYGSEM_KERNEL_SCHED_BITMAP | CYGSEM_KERNEL_SCHED_MLQUEUE | !CYGPKG_NET_CFLAGS_ADD & !CYGPKG_NS_DNS_CFLAGS_ADD & !CYGPKG_SNMPLIB_CFLAGS_ADD & !CYGPKG_NET_SNTP_CFLAGS_ADD & !CYGPKG_SNMPAGENT_CFLAGS_ADD & !CYGPKG_NET_FTPCLIENT_CFLAGS_ADD & !CYGPKG_IO_ETH_DRIVERS_CFLAGS_ADD & !CYGPKG_NET_FREEBSD_STACK_CFLAGS_ADD & !CYGPKG_DEVS_ETH_AMD_LANCEPCI_CFLAGS_ADD
36	761	0	 !CYGFUN_KERNEL_API_C | CYGSEM_KERNEL_SCHED_BITMAP | CYGSEM_KERNEL_SCHED_MLQUEUE | !CYGPKG_NET_CFLAGS_ADD & !CYGPKG_NS_DNS_CFLAGS_ADD & !CYGPKG_SNMPLIB_CFLAGS_ADD & !CYGPKG_NET_SNTP_CFLAGS_ADD & !CYGPKG_SNMPAGENT_CFLAGS_ADD & !CYGPKG_NET_FTPCLIENT_CFLAGS_ADD & !CYGPKG_IO_ETH_DRIVERS_CFLAGS_ADD & !CYGPKG_NET_FREEBSD_STACK_CFLAGS_ADD & !CYGPKG_DEVS_ETH_AMD_LANCEPCI_CFLAGS_ADD
37	846	0	 !CYGPKG_SNMPAGENT | !CYGFUN_KERNEL_API_C | CYGSEM_KERNEL_SCHED_BITMAP | CYGSEM_KERNEL_SCHED_MLQUEUE | !CYGPKG_NET_CFLAGS_ADD & !CYGPKG_NS_DNS_CFLAGS_ADD & !CYGPKG_SNMPLIB_CFLAGS_ADD & !CYGPKG_NET_SNTP_CFLAGS_ADD & !CYGPKG_SNMPAGENT_CFLAGS_ADD & !CYGPKG_NET_FTPCLIENT_CFLAGS_ADD & !CYGPKG_IO_ETH_DRIVERS_CFLAGS_ADD & !CYGPKG_NET_FREEBSD_STACK_CFLAGS_ADD & !CYGPKG_DEVS_ETH_AMD_LANCEPCI_CFLAGS_ADD
38	91	0	 !CYGFUN_KERNEL_API_C | !CYGPKG_HTTPD_MONITOR | CYGSEM_KERNEL_SCHED_BITMAP | CYGSEM_KERNEL_SCHED_MLQUEUE
39	115	0	 !CYGFUN_KERNEL_API_C | CYGSEM_KERNEL_SCHED_BITMAP | CYGSEM_KERNEL_SCHED_MLQUEUE | !CYGPKG_VNC_SERVER_BUILD_MOUSE_DRIVER
40	11009	1	(!CYGPKG_IO_ETH_DRIVERS_LWIP | ((CYGPKG_NET_CFLAGS_ADD | ((CYGPKG_NET_FREEBSD_STACK_CFLAGS_ADD | ((CYGPKG_SNMPAGENT_CFLAGS_ADD | ((CYGPKG_SNMPLIB_CFLAGS_ADD | ((CYGPKG_NET_FTPCLIENT_CFLAGS_ADD | ((CYGPKG_NS_DNS_CFLAGS_ADD | ((CYGPKG_NET_SNTP_CFLAGS_ADD | ((!CYGPKG_DEVS_ETH_AMD_LANCEPCI_CFLAGS_ADD | CYGPKG_IO_ETH_DRIVERS_CFLAGS_ADD | CYGSEM_KERNEL_SCHED_MLQUEUE | !CYGFUN_KERNEL_API_C | CYGSEM_KERNEL_SCHED_BITMAP | CYGPKG_KERNEL | !CYGPKG_NET) & (!CYGPKG_IO_ETH_DRIVERS_CFLAGS_ADD | CYGSEM_KERNEL_SCHED_MLQUEUE | !CYGFUN_KERNEL_API_C | CYGSEM_KERNEL_SCHED_BITMAP | CYGPKG_KERNEL | !CYGPKG_NET))) & (!CYGPKG_NET_SNTP_CFLAGS_ADD | CYGSEM_KERNEL_SCHED_MLQUEUE | !CYGFUN_KERNEL_API_C | CYGSEM_KERNEL_SCHED_BITMAP | CYGPKG_KERNEL | !CYGPKG_NET))) & (!CYGPKG_NS_DNS_CFLAGS_ADD | CYGSEM_KERNEL_SCHED_MLQUEUE | !CYGFUN_KERNEL_API_C | CYGSEM_KERNEL_SCHED_BITMAP | CYGPKG_KERNEL | !CYGPKG_NET))) & (CYGSEM_KERNEL_SCHED_MLQUEUE | !CYGPKG_NET_FTPCLIENT_CFLAGS_ADD | !CYGFUN_KERNEL_API_C | CYGSEM_KERNEL_SCHED_BITMAP | CYGPKG_KERNEL | !CYGPKG_NET))) & (CYGSEM_KERNEL_SCHED_MLQUEUE | !CYGFUN_KERNEL_API_C | CYGSEM_KERNEL_SCHED_BITMAP | CYGPKG_KERNEL | !CYGPKG_NET | !CYGPKG_SNMPLIB_CFLAGS_ADD))) & (!CYGPKG_SNMPAGENT_CFLAGS_ADD | CYGSEM_KERNEL_SCHED_MLQUEUE | !CYGFUN_KERNEL_API_C | CYGSEM_KERNEL_SCHED_BITMAP | CYGPKG_KERNEL | !CYGPKG_NET))) & (CYGSEM_KERNEL_SCHED_MLQUEUE | !CYGFUN_KERNEL_API_C | !CYGPKG_NET_FREEBSD_STACK_CFLAGS_ADD | CYGSEM_KERNEL_SCHED_BITMAP | CYGPKG_KERNEL | !CYGPKG_NET))) & (!CYGPKG_NET_CFLAGS_ADD | CYGSEM_KERNEL_SCHED_MLQUEUE | !CYGFUN_KERNEL_API_C | CYGSEM_KERNEL_SCHED_BITMAP | CYGPKG_KERNEL | !CYGPKG_NET)))
41	3562	0	CYGPKG_IO_FILEIO | ~CYGPKG_NET_FREEBSD_STACK | CYGFUN_KERNEL_API_C & ~CYGSEM_KERNEL_SCHED_BITMAP & ~CYGSEM_KERNEL_SCHED_MLQUEUE | ~CYGPKG_NET_CFLAGS_ADD & ~CYGPKG_NS_DNS_CFLAGS_ADD & ~CYGPKG_SNMPLIB_CFLAGS_ADD & ~CYGPKG_NET_SNTP_CFLAGS_ADD & ~CYGPKG_SNMPAGENT_CFLAGS_ADD & ~CYGPKG_NET_FTPCLIENT_CFLAGS_ADD & ~CYGPKG_IO_ETH_DRIVERS_CFLAGS_ADD & ~CYGPKG_NET_FREEBSD_STACK_CFLAGS_ADD & ~CYGPKG_DEVS_ETH_AMD_LANCEPCI_CFLAGS_ADD
42	75	0	 !CYGPKG_IO_FILEIO | !CYGFUN_KERNEL_API_C | !CYGPKG_IO_FILE_SUPPORT | !CYGFUN_IO_FILEIO_SELECT | CYGSEM_KERNEL_SCHED_BITMAP | CYGSEM_KERNEL_SCHED_MLQUEUE
43	103	0	CYGPKG_NET_CFLAGS_ADD | CYGPKG_NS_DNS_CFLAGS_ADD | CYGPKG_SNMPLIB_CFLAGS_ADD | CYGPKG_NET_SNTP_CFLAGS_ADD | CYGPKG_SNMPAGENT_CFLAGS_ADD | CYGPKG_NET_FTPCLIENT_CFLAGS_ADD | CYGPKG_IO_ETH_DRIVERS_CFLAGS_ADD | CYGPKG_NET_FREEBSD_STACK_CFLAGS_ADD | CYGPKG_DEVS_ETH_AMD_LANCEPCI_CFLAGS_ADD
44	68	0	 !CYGPKG_FS_RAM | !CYGFUN_KERNEL_API_C | CYGFUN_IO_FILEIO_SELECT | CYGSEM_KERNEL_SCHED_BITMAP | CYGSEM_KERNEL_SCHED_MLQUEUE
45	566	0	 !CYGPKG_KERNEL | !CYGPKG_IO_DISK | !CYGFUN_KERNEL_API_C | CYGSEM_KERNEL_SCHED_BITMAP | CYGSEM_KERNEL_SCHED_MLQUEUE
46	43	0	 !CYGPKG_SNMPAGENT | CYGPKG_NET_FREEBSD_STACK | CYGFUN_KERNEL_API_C & !CYGSEM_KERNEL_SCHED_BITMAP & !CYGSEM_KERNEL_SCHED_MLQUEUE
47	76	0	 !CYGPKG_FS_JFFS2 | CYGPKG_NET_CFLAGS_ADD | CYGPKG_PPP_CFLAGS_ADD | CYGPKG_HTTPD_CFLAGS_ADD | CYGPKG_NS_DNS_CFLAGS_ADD | CYGPKG_SNMPLIB_CFLAGS_ADD | CYGPKG_FS_JFFS2_CFLAGS_ADD | CYGPKG_SNMPAGENT_CFLAGS_ADD | CYGPKG_NET_FTPCLIENT_CFLAGS_ADD | CYGPKG_IO_ETH_DRIVERS_CFLAGS_ADD | CYGPKG_DEVS_ETH_AMD_LANCEPCI_CFLAGS_ADD | CYGFUN_KERNEL_API_C & !CYGSEM_KERNEL_SCHED_BITMAP & !CYGSEM_KERNEL_SCHED_MLQUEUE
48	56	0	 !CYGFUN_KERNEL_API_C | !CYGFUN_IO_FILEIO_SELECT | CYGSEM_KERNEL_SCHED_BITMAP | CYGSEM_KERNEL_SCHED_MLQUEUE | !CYGOPT_FS_JFFS2_COMPRESS_RUBIN
49	299	0	 !CYGPKG_FS_JFFS2 | CYGFUN_KERNEL_API_C & !CYGSEM_KERNEL_SCHED_BITMAP & !CYGSEM_KERNEL_SCHED_MLQUEUE | !CYGPKG_NET_CFLAGS_ADD & !CYGPKG_PPP_CFLAGS_ADD & !CYGPKG_HTTPD_CFLAGS_ADD & !CYGPKG_NS_DNS_CFLAGS_ADD & !CYGPKG_SNMPLIB_CFLAGS_ADD & !CYGPKG_FS_JFFS2_CFLAGS_ADD & !CYGPKG_SNMPAGENT_CFLAGS_ADD & !CYGPKG_NET_FTPCLIENT_CFLAGS_ADD & !CYGPKG_IO_ETH_DRIVERS_CFLAGS_ADD & !CYGPKG_DEVS_ETH_AMD_LANCEPCI_CFLAGS_ADD
50	60	0	CYGPKG_NET_CFLAGS_ADD | CYGPKG_PPP_CFLAGS_ADD | CYGPKG_HTTPD_CFLAGS_ADD | CYGPKG_NS_DNS_CFLAGS_ADD | CYGPKG_SNMPLIB_CFLAGS_ADD | CYGPKG_FS_JFFS2_CFLAGS_ADD | CYGPKG_SNMPAGENT_CFLAGS_ADD | ~CYGOPT_FS_JFFS2_COMPRESS_RTIME | CYGPKG_NET_FTPCLIENT_CFLAGS_ADD | CYGPKG_IO_ETH_DRIVERS_CFLAGS_ADD | CYGPKG_DEVS_ETH_AMD_LANCEPCI_CFLAGS_ADD | CYGFUN_KERNEL_API_C & ~CYGSEM_KERNEL_SCHED_BITMAP & ~CYGSEM_KERNEL_SCHED_MLQUEUE
51	971	0	 !CYGPKG_PPP | CYGINT_ISO_DNS | CYGINT_ISO_NETDB_SERV | CYGINT_ISO_NETDB_PROTO | !CYGPKG_NET_CFLAGS_ADD & !CYGPKG_NS_DNS_CFLAGS_ADD & !CYGPKG_SNMPLIB_CFLAGS_ADD & !CYGPKG_NET_SNTP_CFLAGS_ADD & !CYGPKG_SNMPAGENT_CFLAGS_ADD & !CYGPKG_NET_FTPCLIENT_CFLAGS_ADD & !CYGPKG_IO_ETH_DRIVERS_CFLAGS_ADD & !CYGPKG_NET_FREEBSD_STACK_CFLAGS_ADD & !CYGPKG_DEVS_ETH_AMD_LANCEPCI_CFLAGS_ADD
52	871	0	 !CYGFUN_KERNEL_API_C | !CYGPKG_IO_ETH_DRIVERS_NET | CYGSEM_KERNEL_SCHED_BITMAP | CYGSEM_KERNEL_SCHED_MLQUEUE | !CYGPKG_NET_CFLAGS_ADD & !CYGPKG_NS_DNS_CFLAGS_ADD & !CYGPKG_SNMPLIB_CFLAGS_ADD & !CYGPKG_NET_SNTP_CFLAGS_ADD & !CYGPKG_SNMPAGENT_CFLAGS_ADD & !CYGPKG_NET_FTPCLIENT_CFLAGS_ADD & !CYGPKG_IO_ETH_DRIVERS_CFLAGS_ADD & !CYGPKG_NET_FREEBSD_STACK_CFLAGS_ADD & !CYGPKG_DEVS_ETH_AMD_LANCEPCI_CFLAGS_ADD
53	39	0	 !CYGFUN_KERNEL_API_C | !CYGFUN_IO_FILEIO_SELECT | !CYGPKG_IO_SERIAL_TERMIOS | CYGSEM_KERNEL_SCHED_BITMAP | CYGSEM_KERNEL_SCHED_MLQUEUE
54	94	0	CYGPKG_NET_CFLAGS_ADD | ~CYGPKG_NET_FREEBSD_INET6 | CYGPKG_NS_DNS_CFLAGS_ADD | CYGPKG_SNMPLIB_CFLAGS_ADD | CYGPKG_NET_SNTP_CFLAGS_ADD | CYGPKG_SNMPAGENT_CFLAGS_ADD | CYGPKG_NET_FTPCLIENT_CFLAGS_ADD | CYGPKG_IO_ETH_DRIVERS_CFLAGS_ADD | CYGPKG_NET_FREEBSD_STACK_CFLAGS_ADD | CYGPKG_DEVS_ETH_AMD_LANCEPCI_CFLAGS_ADD
55	212	0	 !CYGOPT_FS_JFFS2_COMPRESS_RTIME | CYGFUN_KERNEL_API_C & !CYGSEM_KERNEL_SCHED_BITMAP & !CYGSEM_KERNEL_SCHED_MLQUEUE | !CYGPKG_NET_CFLAGS_ADD & !CYGPKG_PPP_CFLAGS_ADD & !CYGPKG_HTTPD_CFLAGS_ADD & !CYGPKG_NS_DNS_CFLAGS_ADD & !CYGPKG_SNMPLIB_CFLAGS_ADD & !CYGPKG_FS_JFFS2_CFLAGS_ADD & !CYGPKG_SNMPAGENT_CFLAGS_ADD & !CYGPKG_NET_FTPCLIENT_CFLAGS_ADD & !CYGPKG_IO_ETH_DRIVERS_CFLAGS_ADD & !CYGPKG_DEVS_ETH_AMD_LANCEPCI_CFLAGS_ADD
56	983	0	 !CYGFUN_KERNEL_API_C | !CYGPKG_NET_FREEBSD_SYSCTL | CYGSEM_KERNEL_SCHED_BITMAP | CYGSEM_KERNEL_SCHED_MLQUEUE | !CYGPKG_NET_CFLAGS_ADD & !CYGPKG_NS_DNS_CFLAGS_ADD & !CYGPKG_SNMPLIB_CFLAGS_ADD & !CYGPKG_NET_SNTP_CFLAGS_ADD & !CYGPKG_SNMPAGENT_CFLAGS_ADD & !CYGPKG_NET_FTPCLIENT_CFLAGS_ADD & !CYGPKG_IO_ETH_DRIVERS_CFLAGS_ADD & !CYGPKG_NET_FREEBSD_STACK_CFLAGS_ADD & !CYGPKG_DEVS_ETH_AMD_LANCEPCI_CFLAGS_ADD
57	85	0	CYGPKG_KERNEL | ~CYGPKG_IO_SERIAL | ~CYGFUN_KERNEL_API_C | ~CYGFUN_IO_FILEIO_SELECT | CYGSEM_KERNEL_SCHED_BITMAP | CYGSEM_KERNEL_SCHED_MLQUEUE | ~CYGPKG_IO_SERIAL_SELECT_SUPPORT
58	144	0	 !CYGPKG_NET_FREEBSD_STACK | CYGFUN_KERNEL_API_C & !CYGSEM_KERNEL_SCHED_BITMAP & !CYGSEM_KERNEL_SCHED_MLQUEUE | !CYGPKG_NET_CFLAGS_ADD & !CYGPKG_NS_DNS_CFLAGS_ADD & !CYGPKG_SNMPLIB_CFLAGS_ADD & !CYGPKG_NET_SNTP_CFLAGS_ADD & !CYGPKG_SNMPAGENT_CFLAGS_ADD & !CYGPKG_NET_FTPCLIENT_CFLAGS_ADD & !CYGPKG_IO_ETH_DRIVERS_CFLAGS_ADD & !CYGPKG_NET_FREEBSD_STACK_CFLAGS_ADD & !CYGPKG_DEVS_ETH_AMD_LANCEPCI_CFLAGS_ADD
59	45	0	 !CYGPKG_PPP | !CYGINT_ISO_DNS | !CYGFUN_KERNEL_API_C | CYGSEM_KERNEL_SCHED_BITMAP | CYGSEM_KERNEL_SCHED_MLQUEUE
60	279	0	 !CYGPKG_NET_FREEBSD_STACK | CYGPKG_IO_FILEIO & CYGPKG_NET_CFLAGS_ADD | CYGPKG_IO_FILEIO & CYGPKG_NS_DNS_CFLAGS_ADD | CYGPKG_IO_FILEIO & CYGPKG_SNMPLIB_CFLAGS_ADD | CYGPKG_IO_FILEIO & CYGPKG_NET_SNTP_CFLAGS_ADD | CYGPKG_IO_FILEIO & CYGPKG_SNMPAGENT_CFLAGS_ADD | CYGPKG_IO_FILEIO & CYGPKG_NET_FTPCLIENT_CFLAGS_ADD | CYGPKG_IO_FILEIO & CYGPKG_IO_ETH_DRIVERS_CFLAGS_ADD | CYGPKG_IO_FILEIO & CYGPKG_NET_FREEBSD_STACK_CFLAGS_ADD | CYGPKG_IO_FILEIO & CYGPKG_DEVS_ETH_AMD_LANCEPCI_CFLAGS_ADD | CYGFUN_KERNEL_API_C & CYGPKG_NET_CFLAGS_ADD & !CYGSEM_KERNEL_SCHED_BITMAP & !CYGSEM_KERNEL_SCHED_MLQUEUE | CYGFUN_KERNEL_API_C & CYGPKG_NS_DNS_CFLAGS_ADD & !CYGSEM_KERNEL_SCHED_BITMAP & !CYGSEM_KERNEL_SCHED_MLQUEUE | CYGFUN_KERNEL_API_C & CYGPKG_SNMPLIB_CFLAGS_ADD & !CYGSEM_KERNEL_SCHED_BITMAP & !CYGSEM_KERNEL_SCHED_MLQUEUE | CYGFUN_KERNEL_API_C & !CYGSEM_KERNEL_SCHED_BITMAP & CYGPKG_NET_SNTP_CFLAGS_ADD & !CYGSEM_KERNEL_SCHED_MLQUEUE | CYGFUN_KERNEL_API_C & !CYGSEM_KERNEL_SCHED_BITMAP & CYGPKG_SNMPAGENT_CFLAGS_ADD & !CYGSEM_KERNEL_SCHED_MLQUEUE | CYGFUN_KERNEL_API_C & !CYGSEM_KERNEL_SCHED_BITMAP & !CYGSEM_KERNEL_SCHED_MLQUEUE & CYGPKG_NET_FTPCLIENT_CFLAGS_ADD | CYGFUN_KERNEL_API_C & !CYGSEM_KERNEL_SCHED_BITMAP & !CYGSEM_KERNEL_SCHED_MLQUEUE & CYGPKG_IO_ETH_DRIVERS_CFLAGS_ADD | CYGFUN_KERNEL_API_C & !CYGSEM_KERNEL_SCHED_BITMAP & !CYGSEM_KERNEL_SCHED_MLQUEUE & CYGPKG_NET_FREEBSD_STACK_CFLAGS_ADD | CYGFUN_KERNEL_API_C & !CYGSEM_KERNEL_SCHED_BITMAP & !CYGSEM_KERNEL_SCHED_MLQUEUE & CYGPKG_DEVS_ETH_AMD_LANCEPCI_CFLAGS_ADD
61	50	0	 !CYGPKG_FS_JFFS2 | !CYGFUN_KERNEL_API_C | !CYGFUN_IO_FILEIO_SELECT | CYGSEM_KERNEL_SCHED_BITMAP | CYGSEM_KERNEL_SCHED_MLQUEUE
62	67	0	 !CYGPKG_IO_FILEIO | !CYGFUN_KERNEL_API_C | CYGPKG_NET_CFLAGS_ADD | !CYGFUN_IO_FILEIO_SELECT | !CYGPKG_NET_FREEBSD_STACK | CYGPKG_NS_DNS_CFLAGS_ADD | CYGPKG_SNMPLIB_CFLAGS_ADD | CYGSEM_KERNEL_SCHED_BITMAP | CYGPKG_NET_SNTP_CFLAGS_ADD | CYGPKG_SNMPAGENT_CFLAGS_ADD | CYGSEM_KERNEL_SCHED_MLQUEUE | CYGPKG_NET_FTPCLIENT_CFLAGS_ADD | CYGPKG_IO_ETH_DRIVERS_CFLAGS_ADD | CYGPKG_NET_FREEBSD_STACK_CFLAGS_ADD | CYGPKG_DEVS_ETH_AMD_LANCEPCI_CFLAGS_ADD
63	49	0	CYGPKG_KERNEL | ~CYGPKG_PPP_CHAT | ~CYGFUN_KERNEL_API_C | CYGSEM_KERNEL_SCHED_BITMAP | CYGSEM_KERNEL_SCHED_MLQUEUE | CYGFUN_IO_FILEIO_SELECT & CYGPKG_IO_SERIAL_SELECT_SUPPORT
64	62	0	 !CYGPKG_NET_TFTP | !CYGFUN_KERNEL_API_C | CYGSEM_KERNEL_SCHED_BITMAP | CYGSEM_KERNEL_SCHED_MLQUEUE
65	47	0	 !CYGFUN_KERNEL_API_C | !CYGFUN_IO_FILEIO_SELECT | !CYGOPT_FS_JFFS2_GCTHREAD | CYGSEM_KERNEL_SCHED_BITMAP | CYGSEM_KERNEL_SCHED_MLQUEUE
66	76	0	CYGPKG_NET | ~CYGPKG_KERNEL | ~CYGFUN_KERNEL_API_C | ~CYGPKG_IO_ETH_DRIVERS | CYGSEM_KERNEL_SCHED_BITMAP | CYGSEM_KERNEL_SCHED_MLQUEUE | ~CYGPKG_REDBOOT_I386_LINUX_EXEC
67	39	0	CYGPKG_NET_CFLAGS_ADD | ~CYGPKG_NET_FREEBSD_STACK | CYGPKG_NS_DNS_CFLAGS_ADD | CYGPKG_SNMPLIB_CFLAGS_ADD | CYGPKG_NET_SNTP_CFLAGS_ADD | CYGPKG_SNMPAGENT_CFLAGS_ADD | CYGPKG_NET_FTPCLIENT_CFLAGS_ADD | CYGPKG_IO_ETH_DRIVERS_CFLAGS_ADD | CYGPKG_NET_FREEBSD_STACK_CFLAGS_ADD | CYGPKG_DEVS_ETH_AMD_LANCEPCI_CFLAGS_ADD | CYGFUN_KERNEL_API_C & ~CYGSEM_KERNEL_SCHED_BITMAP & ~CYGSEM_KERNEL_SCHED_MLQUEUE
68	40	0	 !CYGFUN_KERNEL_API_C | CYGSEM_KERNEL_SCHED_BITMAP | CYGSEM_KERNEL_SCHED_MLQUEUE | !CYGPKG_VNC_SERVER_BUILD_KEYBOARD_DRIVER
69	93	0	 !CYGFUN_KERNEL_API_C | CYGSEM_KERNEL_SCHED_BITMAP | CYGSEM_KERNEL_SCHED_MLQUEUE
70	49	0	 !CYGPKG_NET | !CYGPKG_KERNEL | !CYGFUN_KERNEL_API_C | CYGSEM_KERNEL_SCHED_BITMAP | CYGSEM_KERNEL_SCHED_MLQUEUE | !CYGSEM_HAL_VIRTUAL_VECTOR_SUPPORT
71	51	0	CYGPKG_NET_CFLAGS_ADD | ~CYGPKG_NET_FREEBSD_IPSEC | CYGPKG_NS_DNS_CFLAGS_ADD | CYGPKG_SNMPLIB_CFLAGS_ADD | CYGPKG_NET_SNTP_CFLAGS_ADD | CYGPKG_SNMPAGENT_CFLAGS_ADD | CYGPKG_NET_FTPCLIENT_CFLAGS_ADD | CYGPKG_IO_ETH_DRIVERS_CFLAGS_ADD | CYGPKG_NET_FREEBSD_STACK_CFLAGS_ADD | CYGPKG_DEVS_ETH_AMD_LANCEPCI_CFLAGS_ADD
72	47	0	 !CYGPKG_IO | !CYGPKG_KERNEL | !CYGFUN_KERNEL_API_C | CYGSEM_KERNEL_SCHED_BITMAP | CYGSEM_KERNEL_SCHED_MLQUEUE
73	40	0	 !CYGFUN_KERNEL_API_C | !CYGOPT_FS_JFFS2_WRITE | !CYGFUN_IO_FILEIO_SELECT | CYGSEM_KERNEL_SCHED_BITMAP | CYGSEM_KERNEL_SCHED_MLQUEUE
74	63	0	 !CYGPKG_PPP | !CYGFUN_KERNEL_API_C | CYGSEM_KERNEL_SCHED_BITMAP | CYGSEM_KERNEL_SCHED_MLQUEUE
75	68	0	 !CYGPKG_IO_FILEIO | !CYGFUN_KERNEL_API_C | !CYGFUN_IO_FILEIO_SELECT | !CYGPKG_NET_FREEBSD_STACK | CYGSEM_KERNEL_SCHED_BITMAP | CYGSEM_KERNEL_SCHED_MLQUEUE
76	11013	1	(!CYGPKG_PPP | ((CYGPKG_NET_CFLAGS_ADD | ((CYGPKG_NET_FREEBSD_STACK_CFLAGS_ADD | ((CYGPKG_SNMPAGENT_CFLAGS_ADD | ((CYGPKG_SNMPLIB_CFLAGS_ADD | ((CYGPKG_NET_FTPCLIENT_CFLAGS_ADD | ((CYGPKG_NS_DNS_CFLAGS_ADD | ((CYGPKG_NET_SNTP_CFLAGS_ADD | ((!CYGPKG_DEVS_ETH_AMD_LANCEPCI_CFLAGS_ADD | CYGINT_ISO_DNS | CYGPKG_IO_ETH_DRIVERS_CFLAGS_ADD | CYGINT_ISO_NETDB_PROTO | CYGSEM_KERNEL_SCHED_MLQUEUE | CYGINT_ISO_NETDB_SERV | !CYGFUN_KERNEL_API_C | CYGSEM_KERNEL_SCHED_BITMAP) & (CYGINT_ISO_DNS | !CYGPKG_IO_ETH_DRIVERS_CFLAGS_ADD | CYGINT_ISO_NETDB_PROTO | CYGSEM_KERNEL_SCHED_MLQUEUE | CYGINT_ISO_NETDB_SERV | !CYGFUN_KERNEL_API_C | CYGSEM_KERNEL_SCHED_BITMAP))) & (!CYGPKG_NET_SNTP_CFLAGS_ADD | CYGINT_ISO_DNS | CYGINT_ISO_NETDB_PROTO | CYGSEM_KERNEL_SCHED_MLQUEUE | CYGINT_ISO_NETDB_SERV | !CYGFUN_KERNEL_API_C | CYGSEM_KERNEL_SCHED_BITMAP))) & (CYGINT_ISO_DNS | !CYGPKG_NS_DNS_CFLAGS_ADD | CYGINT_ISO_NETDB_PROTO | CYGSEM_KERNEL_SCHED_MLQUEUE | CYGINT_ISO_NETDB_SERV | !CYGFUN_KERNEL_API_C | CYGSEM_KERNEL_SCHED_BITMAP))) & (CYGINT_ISO_DNS | CYGINT_ISO_NETDB_PROTO | CYGSEM_KERNEL_SCHED_MLQUEUE | CYGINT_ISO_NETDB_SERV | !CYGPKG_NET_FTPCLIENT_CFLAGS_ADD | !CYGFUN_KERNEL_API_C | CYGSEM_KERNEL_SCHED_BITMAP))) & (CYGINT_ISO_DNS | CYGINT_ISO_NETDB_PROTO | CYGSEM_KERNEL_SCHED_MLQUEUE | CYGINT_ISO_NETDB_SERV | !CYGFUN_KERNEL_API_C | CYGSEM_KERNEL_SCHED_BITMAP | !CYGPKG_SNMPLIB_CFLAGS_ADD))) & (CYGINT_ISO_DNS | !CYGPKG_SNMPAGENT_CFLAGS_ADD | CYGINT_ISO_NETDB_PROTO | CYGSEM_KERNEL_SCHED_MLQUEUE | CYGINT_ISO_NETDB_SERV | !CYGFUN_KERNEL_API_C | CYGSEM_KERNEL_SCHED_BITMAP))) & (CYGINT_ISO_DNS | CYGINT_ISO_NETDB_PROTO | CYGSEM_KERNEL_SCHED_MLQUEUE | CYGINT_ISO_NETDB_SERV | !CYGFUN_KERNEL_API_C | !CYGPKG_NET_FREEBSD_STACK_CFLAGS_ADD | CYGSEM_KERNEL_SCHED_BITMAP))) & (CYGINT_ISO_DNS | !CYGPKG_NET_CFLAGS_ADD | CYGINT_ISO_NETDB_PROTO | CYGSEM_KERNEL_SCHED_MLQUEUE | CYGINT_ISO_NETDB_SERV | !CYGFUN_KERNEL_API_C | CYGSEM_KERNEL_SCHED_BITMAP)))
77	3002	0	 !CYGPKG_NET | !CYGPKG_KERNEL | !CYGFUN_KERNEL_API_C | CYGSEM_KERNEL_SCHED_BITMAP | CYGSEM_KERNEL_SCHED_MLQUEUE | !CYGPKG_HAL_I386 & !CYGSEM_HAL_VIRTUAL_VECTOR_SUPPORT
78	85	0	 !CYGPKG_SNMPAGENT | !CYGFUN_KERNEL_API_C | CYGPKG_NET_CFLAGS_ADD | CYGPKG_NS_DNS_CFLAGS_ADD | CYGPKG_SNMPLIB_CFLAGS_ADD | CYGSEM_KERNEL_SCHED_BITMAP | CYGPKG_NET_SNTP_CFLAGS_ADD | CYGPKG_SNMPAGENT_CFLAGS_ADD | CYGSEM_KERNEL_SCHED_MLQUEUE | CYGPKG_NET_FTPCLIENT_CFLAGS_ADD | CYGPKG_IO_ETH_DRIVERS_CFLAGS_ADD | CYGPKG_NET_FREEBSD_STACK_CFLAGS_ADD | CYGPKG_DEVS_ETH_AMD_LANCEPCI_CFLAGS_ADD
79	175	0	 !CYGOPT_FS_JFFS2_WRITE | CYGPKG_NET_CFLAGS_ADD | CYGPKG_PPP_CFLAGS_ADD | CYGPKG_HTTPD_CFLAGS_ADD | CYGPKG_NS_DNS_CFLAGS_ADD | CYGPKG_SNMPLIB_CFLAGS_ADD | CYGPKG_FS_JFFS2_CFLAGS_ADD | CYGPKG_SNMPAGENT_CFLAGS_ADD | CYGPKG_NET_FTPCLIENT_CFLAGS_ADD | CYGPKG_IO_ETH_DRIVERS_CFLAGS_ADD | CYGPKG_DEVS_ETH_AMD_LANCEPCI_CFLAGS_ADD | CYGFUN_KERNEL_API_C & !CYGSEM_KERNEL_SCHED_BITMAP & !CYGSEM_KERNEL_SCHED_MLQUEUE
80	475	0	CYGPKG_KERNEL | ~CYGPKG_PPP_CHAT | ~CYGFUN_KERNEL_API_C | ~CYGFUN_IO_FILEIO_SELECT | CYGSEM_KERNEL_SCHED_BITMAP | CYGSEM_KERNEL_SCHED_MLQUEUE | ~CYGPKG_IO_SERIAL_SELECT_SUPPORT
81	322	0	 !CYGOPT_FS_JFFS2_GCTHREAD | CYGFUN_KERNEL_API_C & !CYGSEM_KERNEL_SCHED_BITMAP & !CYGSEM_KERNEL_SCHED_MLQUEUE | !CYGPKG_NET_CFLAGS_ADD & !CYGPKG_PPP_CFLAGS_ADD & !CYGPKG_HTTPD_CFLAGS_ADD & !CYGPKG_NS_DNS_CFLAGS_ADD & !CYGPKG_SNMPLIB_CFLAGS_ADD & !CYGPKG_FS_JFFS2_CFLAGS_ADD & !CYGPKG_SNMPAGENT_CFLAGS_ADD & !CYGPKG_NET_FTPCLIENT_CFLAGS_ADD & !CYGPKG_IO_ETH_DRIVERS_CFLAGS_ADD & !CYGPKG_DEVS_ETH_AMD_LANCEPCI_CFLAGS_ADD
82	1947	0	CYGINT_ISO_DNS | ~CYGPKG_NS_DNS_BUILD | CYGINT_ISO_NETDB_SERV | CYGINT_ISO_NETDB_PROTO | CYGPKG_KERNEL & CYGFUN_KERNEL_API_C & ~CYGSEM_KERNEL_SCHED_BITMAP & ~CYGSEM_KERNEL_SCHED_MLQUEUE | ~CYGPKG_NET_CFLAGS_ADD & ~CYGPKG_NS_DNS_CFLAGS_ADD & ~CYGPKG_SNMPLIB_CFLAGS_ADD & ~CYGPKG_NET_SNTP_CFLAGS_ADD & ~CYGPKG_SNMPAGENT_CFLAGS_ADD & ~CYGPKG_NET_FTPCLIENT_CFLAGS_ADD & ~CYGPKG_IO_ETH_DRIVERS_CFLAGS_ADD & ~CYGPKG_NET_FREEBSD_STACK_CFLAGS_ADD & ~CYGPKG_DEVS_ETH_AMD_LANCEPCI_CFLAGS_ADD
83	86	0	CYGPKG_NET | ~CYGPKG_KERNEL | ~CYGFUN_KERNEL_API_C | ~CYGPKG_HAL_I386_PC | CYGSEM_KERNEL_SCHED_BITMAP | CYGSEM_KERNEL_SCHED_MLQUEUE
84	62	0	CYGPKG_NET_CFLAGS_ADD | CYGPKG_PPP_CFLAGS_ADD | CYGPKG_HTTPD_CFLAGS_ADD | ~CYGOPT_FS_JFFS2_GCTHREAD | CYGPKG_NS_DNS_CFLAGS_ADD | CYGPKG_SNMPLIB_CFLAGS_ADD | CYGPKG_FS_JFFS2_CFLAGS_ADD | CYGPKG_SNMPAGENT_CFLAGS_ADD | CYGPKG_NET_FTPCLIENT_CFLAGS_ADD | CYGPKG_IO_ETH_DRIVERS_CFLAGS_ADD | CYGPKG_DEVS_ETH_AMD_LANCEPCI_CFLAGS_ADD | CYGFUN_KERNEL_API_C & ~CYGSEM_KERNEL_SCHED_BITMAP & ~CYGSEM_KERNEL_SCHED_MLQUEUE
85	60	0	CYGPKG_KERNEL | ~CYGFUN_KERNEL_API_C | ~CYGFUN_IO_FILEIO_SELECT | ~CYGPKG_IO_SERIAL_HALDIAG | CYGSEM_KERNEL_SCHED_BITMAP | CYGSEM_KERNEL_SCHED_MLQUEUE | ~CYGPKG_IO_SERIAL_SELECT_SUPPORT
86	11015	1	(!CYGPKG_IO_ETH_DRIVERS_LWIP | ((CYGPKG_NET_CFLAGS_ADD | ((CYGPKG_NET_FREEBSD_STACK_CFLAGS_ADD | ((CYGPKG_SNMPAGENT_CFLAGS_ADD | ((CYGPKG_SNMPLIB_CFLAGS_ADD | ((CYGPKG_NET_FTPCLIENT_CFLAGS_ADD | ((CYGPKG_NS_DNS_CFLAGS_ADD | ((CYGPKG_NET_SNTP_CFLAGS_ADD | ((CYGPKG_IO_ETH_DRIVERS_CFLAGS_ADD | ((CYGPKG_DEVS_ETH_AMD_LANCEPCI_CFLAGS_ADD | CYGSEM_KERNEL_SCHED_MLQUEUE | !CYGFUN_KERNEL_API_C | CYGSEM_KERNEL_SCHED_BITMAP | CYGPKG_KERNEL) & (!CYGPKG_DEVS_ETH_AMD_LANCEPCI_CFLAGS_ADD | CYGPKG_NET | CYGSEM_KERNEL_SCHED_MLQUEUE | !CYGFUN_KERNEL_API_C | CYGSEM_KERNEL_SCHED_BITMAP | CYGPKG_KERNEL))) & (!CYGPKG_IO_ETH_DRIVERS_CFLAGS_ADD | CYGPKG_NET | CYGSEM_KERNEL_SCHED_MLQUEUE | !CYGFUN_KERNEL_API_C | CYGSEM_KERNEL_SCHED_BITMAP | CYGPKG_KERNEL))) & (!CYGPKG_NET_SNTP_CFLAGS_ADD | CYGPKG_NET | CYGSEM_KERNEL_SCHED_MLQUEUE | !CYGFUN_KERNEL_API_C | CYGSEM_KERNEL_SCHED_BITMAP | CYGPKG_KERNEL))) & (!CYGPKG_NS_DNS_CFLAGS_ADD | CYGPKG_NET | CYGSEM_KERNEL_SCHED_MLQUEUE | !CYGFUN_KERNEL_API_C | CYGSEM_KERNEL_SCHED_BITMAP | CYGPKG_KERNEL))) & (CYGPKG_NET | CYGSEM_KERNEL_SCHED_MLQUEUE | !CYGPKG_NET_FTPCLIENT_CFLAGS_ADD | !CYGFUN_KERNEL_API_C | CYGSEM_KERNEL_SCHED_BITMAP | CYGPKG_KERNEL))) & (CYGPKG_NET | CYGSEM_KERNEL_SCHED_MLQUEUE | !CYGFUN_KERNEL_API_C | CYGSEM_KERNEL_SCHED_BITMAP | CYGPKG_KERNEL | !CYGPKG_SNMPLIB_CFLAGS_ADD))) & (!CYGPKG_SNMPAGENT_CFLAGS_ADD | CYGPKG_NET | CYGSEM_KERNEL_SCHED_MLQUEUE | !CYGFUN_KERNEL_API_C | CYGSEM_KERNEL_SCHED_BITMAP | CYGPKG_KERNEL))) & (CYGPKG_NET | CYGSEM_KERNEL_SCHED_MLQUEUE | !CYGFUN_KERNEL_API_C | !CYGPKG_NET_FREEBSD_STACK_CFLAGS_ADD | CYGSEM_KERNEL_SCHED_BITMAP | CYGPKG_KERNEL))) & (!CYGPKG_NET_CFLAGS_ADD | CYGPKG_NET | CYGSEM_KERNEL_SCHED_MLQUEUE | !CYGFUN_KERNEL_API_C | CYGSEM_KERNEL_SCHED_BITMAP | CYGPKG_KERNEL)))
87	2934	0	 !CYGFUN_KERNEL_API_C | CYGPKG_NET_CFLAGS_ADD | !CYGPKG_NET_FREEBSD_STACK | CYGPKG_NS_DNS_CFLAGS_ADD | CYGPKG_SNMPLIB_CFLAGS_ADD | CYGSEM_KERNEL_SCHED_BITMAP | CYGPKG_NET_SNTP_CFLAGS_ADD | CYGPKG_SNMPAGENT_CFLAGS_ADD | CYGSEM_KERNEL_SCHED_MLQUEUE | CYGPKG_NET_FTPCLIENT_CFLAGS_ADD | CYGPKG_IO_ETH_DRIVERS_CFLAGS_ADD | CYGPKG_NET_FREEBSD_STACK_CFLAGS_ADD | CYGPKG_DEVS_ETH_AMD_LANCEPCI_CFLAGS_ADD
88	187	0	 !CYGPKG_KERNEL | !CYGFUN_KERNEL_API_C | !CYGPKG_NS_DNS_BUILD | CYGSEM_KERNEL_SCHED_BITMAP | CYGSEM_KERNEL_SCHED_MLQUEUE
89	134	0	 !CYGPKG_FS_JFFS2 | !CYGFUN_KERNEL_API_C | CYGFUN_IO_FILEIO_SELECT | CYGSEM_KERNEL_SCHED_BITMAP | CYGSEM_KERNEL_SCHED_MLQUEUE
90	11014	1	(!CYGPKG_NS_DNS_BUILD | ((CYGPKG_NET_CFLAGS_ADD | ((CYGPKG_NET_FREEBSD_STACK_CFLAGS_ADD | ((CYGPKG_SNMPAGENT_CFLAGS_ADD | ((CYGPKG_SNMPLIB_CFLAGS_ADD | ((CYGPKG_NET_FTPCLIENT_CFLAGS_ADD | ((CYGPKG_NS_DNS_CFLAGS_ADD | ((CYGPKG_NET_SNTP_CFLAGS_ADD | ((!CYGPKG_DEVS_ETH_AMD_LANCEPCI_CFLAGS_ADD | CYGINT_ISO_DNS | CYGPKG_IO_ETH_DRIVERS_CFLAGS_ADD | CYGSEM_KERNEL_SCHED_MLQUEUE | !CYGFUN_KERNEL_API_C | CYGSEM_KERNEL_SCHED_BITMAP | CYGPKG_KERNEL | !CYGINT_ISO_NETDB_PROTO) & (CYGINT_ISO_DNS | !CYGPKG_IO_ETH_DRIVERS_CFLAGS_ADD | CYGSEM_KERNEL_SCHED_MLQUEUE | !CYGFUN_KERNEL_API_C | CYGSEM_KERNEL_SCHED_BITMAP | CYGPKG_KERNEL | !CYGINT_ISO_NETDB_PROTO))) & (!CYGPKG_NET_SNTP_CFLAGS_ADD | CYGINT_ISO_DNS | CYGSEM_KERNEL_SCHED_MLQUEUE | !CYGFUN_KERNEL_API_C | CYGSEM_KERNEL_SCHED_BITMAP | CYGPKG_KERNEL | !CYGINT_ISO_NETDB_PROTO))) & (CYGINT_ISO_DNS | !CYGPKG_NS_DNS_CFLAGS_ADD | CYGSEM_KERNEL_SCHED_MLQUEUE | !CYGFUN_KERNEL_API_C | CYGSEM_KERNEL_SCHED_BITMAP | CYGPKG_KERNEL | !CYGINT_ISO_NETDB_PROTO))) & (CYGINT_ISO_DNS | CYGSEM_KERNEL_SCHED_MLQUEUE | !CYGPKG_NET_FTPCLIENT_CFLAGS_ADD | !CYGFUN_KERNEL_API_C | CYGSEM_KERNEL_SCHED_BITMAP | CYGPKG_KERNEL | !CYGINT_ISO_NETDB_PROTO))) & (CYGINT_ISO_DNS | CYGSEM_KERNEL_SCHED_MLQUEUE | !CYGFUN_KERNEL_API_C | CYGSEM_KERNEL_SCHED_BITMAP | CYGPKG_KERNEL | !CYGINT_ISO_NETDB_PROTO | !CYGPKG_SNMPLIB_CFLAGS_ADD))) & (CYGINT_ISO_DNS | !CYGPKG_SNMPAGENT_CFLAGS_ADD | CYGSEM_KERNEL_SCHED_MLQUEUE | !CYGFUN_KERNEL_API_C | CYGSEM_KERNEL_SCHED_BITMAP | CYGPKG_KERNEL | !CYGINT_ISO_NETDB_PROTO))) & (CYGINT_ISO_DNS | CYGSEM_KERNEL_SCHED_MLQUEUE | !CYGFUN_KERNEL_API_C | !CYGPKG_NET_FREEBSD_STACK_CFLAGS_ADD | CYGSEM_KERNEL_SCHED_BITMAP | CYGPKG_KERNEL | !CYGINT_ISO_NETDB_PROTO))) & (CYGINT_ISO_DNS | !CYGPKG_NET_CFLAGS_ADD | CYGSEM_KERNEL_SCHED_MLQUEUE | !CYGFUN_KERNEL_API_C | CYGSEM_KERNEL_SCHED_BITMAP | CYGPKG_KERNEL | !CYGINT_ISO_NETDB_PROTO)))
91	2793	0	CYGPKG_NET_CFLAGS_ADD | CYGPKG_PPP_CFLAGS_ADD | CYGPKG_HTTPD_CFLAGS_ADD | CYGPKG_NS_DNS_CFLAGS_ADD | CYGPKG_SNMPLIB_CFLAGS_ADD | CYGPKG_FS_JFFS2_CFLAGS_ADD | CYGPKG_SNMPAGENT_CFLAGS_ADD | ~CYGOPT_FS_JFFS2_COMPRESS_RUBIN | CYGPKG_NET_FTPCLIENT_CFLAGS_ADD | CYGPKG_IO_ETH_DRIVERS_CFLAGS_ADD | CYGPKG_DEVS_ETH_AMD_LANCEPCI_CFLAGS_ADD | CYGFUN_KERNEL_API_C & ~CYGSEM_KERNEL_SCHED_BITMAP & ~CYGSEM_KERNEL_SCHED_MLQUEUE
92	94	0	 !CYGPKG_PPP | CYGPKG_KERNEL | CYGINT_ISO_DNS | CYGPKG_IO_FILEIO | !CYGFUN_KERNEL_API_C | CYGPKG_NET_CFLAGS_ADD | !CYGFUN_IO_FILEIO_SELECT | CYGPKG_NS_DNS_CFLAGS_ADD | CYGPKG_SNMPLIB_CFLAGS_ADD | CYGSEM_KERNEL_SCHED_BITMAP | CYGPKG_NET_SNTP_CFLAGS_ADD | CYGPKG_SNMPAGENT_CFLAGS_ADD | CYGSEM_KERNEL_SCHED_MLQUEUE | CYGPKG_NET_FTPCLIENT_CFLAGS_ADD | !CYGPKG_IO_SERIAL_SELECT_SUPPORT | CYGPKG_IO_ETH_DRIVERS_CFLAGS_ADD | CYGPKG_NET_FREEBSD_STACK_CFLAGS_ADD | CYGPKG_DEVS_ETH_AMD_LANCEPCI_CFLAGS_ADD
93	500	0	 !CYGPKG_NET_SNTP | !CYGFUN_KERNEL_API_C | CYGSEM_KERNEL_SCHED_BITMAP | CYGSEM_KERNEL_SCHED_MLQUEUE
94	65	0	 !CYGPKG_KERNEL | !CYGPKG_IO_SERIAL | !CYGFUN_KERNEL_API_C | CYGSEM_KERNEL_SCHED_BITMAP | CYGSEM_KERNEL_SCHED_MLQUEUE
95	995	0	 !CYGFUN_KERNEL_API_C | !CYGPKG_NET_FREEBSD_IPSEC | CYGSEM_KERNEL_SCHED_BITMAP | CYGSEM_KERNEL_SCHED_MLQUEUE | !CYGPKG_NET_CFLAGS_ADD & !CYGPKG_NS_DNS_CFLAGS_ADD & !CYGPKG_SNMPLIB_CFLAGS_ADD & !CYGPKG_NET_SNTP_CFLAGS_ADD & !CYGPKG_SNMPAGENT_CFLAGS_ADD & !CYGPKG_NET_FTPCLIENT_CFLAGS_ADD & !CYGPKG_IO_ETH_DRIVERS_CFLAGS_ADD & !CYGPKG_NET_FREEBSD_STACK_CFLAGS_ADD & !CYGPKG_DEVS_ETH_AMD_LANCEPCI_CFLAGS_ADD
96	58	0	 !CYGFUN_KERNEL_API_C | CYGSEM_KERNEL_SCHED_BITMAP | CYGSEM_KERNEL_SCHED_MLQUEUE | !CYGPKG_NET_TFTP_FILE_ACCESS
97	11011	1	(!CYGPKG_REDBOOT_I386_LINUX_EXEC | ((CYGPKG_NET_CFLAGS_ADD | ((CYGPKG_NET_FREEBSD_STACK_CFLAGS_ADD | ((CYGPKG_SNMPAGENT_CFLAGS_ADD | ((CYGPKG_SNMPLIB_CFLAGS_ADD | ((CYGPKG_NET_FTPCLIENT_CFLAGS_ADD | ((CYGPKG_NS_DNS_CFLAGS_ADD | ((CYGPKG_NET_SNTP_CFLAGS_ADD | ((!CYGPKG_DEVS_ETH_AMD_LANCEPCI_CFLAGS_ADD | CYGPKG_IO_ETH_DRIVERS_CFLAGS_ADD | CYGSEM_KERNEL_SCHED_MLQUEUE | !CYGFUN_KERNEL_API_C | CYGSEM_KERNEL_SCHED_BITMAP | CYGPKG_KERNEL | !CYGPKG_NET | !CYGPKG_IO_ETH_DRIVERS) & (!CYGPKG_IO_ETH_DRIVERS_CFLAGS_ADD | CYGSEM_KERNEL_SCHED_MLQUEUE | !CYGFUN_KERNEL_API_C | CYGSEM_KERNEL_SCHED_BITMAP | CYGPKG_KERNEL | !CYGPKG_NET | !CYGPKG_IO_ETH_DRIVERS))) & (!CYGPKG_NET_SNTP_CFLAGS_ADD | CYGSEM_KERNEL_SCHED_MLQUEUE | !CYGFUN_KERNEL_API_C | CYGSEM_KERNEL_SCHED_BITMAP | CYGPKG_KERNEL | !CYGPKG_NET | !CYGPKG_IO_ETH_DRIVERS))) & (!CYGPKG_NS_DNS_CFLAGS_ADD | CYGSEM_KERNEL_SCHED_MLQUEUE | !CYGFUN_KERNEL_API_C | CYGSEM_KERNEL_SCHED_BITMAP | CYGPKG_KERNEL | !CYGPKG_NET | !CYGPKG_IO_ETH_DRIVERS))) & (CYGSEM_KERNEL_SCHED_MLQUEUE | !CYGPKG_NET_FTPCLIENT_CFLAGS_ADD | !CYGFUN_KERNEL_API_C | CYGSEM_KERNEL_SCHED_BITMAP | CYGPKG_KERNEL | !CYGPKG_NET | !CYGPKG_IO_ETH_DRIVERS))) & (CYGSEM_KERNEL_SCHED_MLQUEUE | !CYGFUN_KERNEL_API_C | CYGSEM_KERNEL_SCHED_BITMAP | CYGPKG_KERNEL | !CYGPKG_NET | !CYGPKG_SNMPLIB_CFLAGS_ADD | !CYGPKG_IO_ETH_DRIVERS))) & (!CYGPKG_SNMPAGENT_CFLAGS_ADD | CYGSEM_KERNEL_SCHED_MLQUEUE | !CYGFUN_KERNEL_API_C | CYGSEM_KERNEL_SCHED_BITMAP | CYGPKG_KERNEL | !CYGPKG_NET | !CYGPKG_IO_ETH_DRIVERS))) & (CYGSEM_KERNEL_SCHED_MLQUEUE | !CYGFUN_KERNEL_API_C | !CYGPKG_NET_FREEBSD_STACK_CFLAGS_ADD | CYGSEM_KERNEL_SCHED_BITMAP | CYGPKG_KERNEL | !CYGPKG_NET | !CYGPKG_IO_ETH_DRIVERS))) & (!CYGPKG_NET_CFLAGS_ADD | CYGSEM_KERNEL_SCHED_MLQUEUE | !CYGFUN_KERNEL_API_C | CYGSEM_KERNEL_SCHED_BITMAP | CYGPKG_KERNEL | !CYGPKG_NET | !CYGPKG_IO_ETH_DRIVERS)))
98	3009	0	 !CYGOPT_FS_JFFS2_COMPRESS_ZLIB | CYGFUN_KERNEL_API_C & !CYGSEM_KERNEL_SCHED_BITMAP & !CYGSEM_KERNEL_SCHED_MLQUEUE | !CYGPKG_NET_CFLAGS_ADD & !CYGPKG_PPP_CFLAGS_ADD & !CYGPKG_HTTPD_CFLAGS_ADD & !CYGPKG_NS_DNS_CFLAGS_ADD & !CYGPKG_SNMPLIB_CFLAGS_ADD & !CYGPKG_FS_JFFS2_CFLAGS_ADD & !CYGPKG_SNMPAGENT_CFLAGS_ADD & !CYGPKG_NET_FTPCLIENT_CFLAGS_ADD & !CYGPKG_IO_ETH_DRIVERS_CFLAGS_ADD & !CYGPKG_DEVS_ETH_AMD_LANCEPCI_CFLAGS_ADD
99	546	0	 !CYGPKG_KERNEL | !CYGFUN_KERNEL_API_C | CYGSEM_KERNEL_SCHED_BITMAP | CYGSEM_KERNEL_SCHED_MLQUEUE | !CYGPKG_IO_FLASH_BLOCK_DEVICE
100	239	0	 !CYGPKG_NET_FREEBSD_INET6 | CYGFUN_KERNEL_API_C & !CYGSEM_KERNEL_SCHED_BITMAP & !CYGSEM_KERNEL_SCHED_MLQUEUE | !CYGPKG_NET_CFLAGS_ADD & !CYGPKG_NS_DNS_CFLAGS_ADD & !CYGPKG_SNMPLIB_CFLAGS_ADD & !CYGPKG_NET_SNTP_CFLAGS_ADD & !CYGPKG_SNMPAGENT_CFLAGS_ADD & !CYGPKG_NET_FTPCLIENT_CFLAGS_ADD & !CYGPKG_IO_ETH_DRIVERS_CFLAGS_ADD & !CYGPKG_NET_FREEBSD_STACK_CFLAGS_ADD & !CYGPKG_DEVS_ETH_AMD_LANCEPCI_CFLAGS_ADD
101	11021	1	(!CYGPKG_NS_DNS_BUILD | ((CYGPKG_NET_CFLAGS_ADD | ((CYGPKG_NET_FREEBSD_STACK_CFLAGS_ADD | ((CYGPKG_SNMPAGENT_CFLAGS_ADD | ((CYGPKG_SNMPLIB_CFLAGS_ADD | ((CYGPKG_NET_FTPCLIENT_CFLAGS_ADD | ((CYGPKG_NS_DNS_CFLAGS_ADD | ((CYGPKG_NET_SNTP_CFLAGS_ADD | ((!CYGPKG_DEVS_ETH_AMD_LANCEPCI_CFLAGS_ADD | CYGINT_ISO_DNS | CYGPKG_IO_ETH_DRIVERS_CFLAGS_ADD | CYGINT_ISO_NETDB_PROTO | CYGSEM_KERNEL_SCHED_MLQUEUE | !CYGFUN_KERNEL_API_C | CYGSEM_KERNEL_SCHED_BITMAP | CYGPKG_KERNEL | !CYGINT_ISO_NETDB_SERV) & (CYGINT_ISO_DNS | !CYGPKG_IO_ETH_DRIVERS_CFLAGS_ADD | CYGINT_ISO_NETDB_PROTO | CYGSEM_KERNEL_SCHED_MLQUEUE | !CYGFUN_KERNEL_API_C | CYGSEM_KERNEL_SCHED_BITMAP | CYGPKG_KERNEL | !CYGINT_ISO_NETDB_SERV))) & (!CYGPKG_NET_SNTP_CFLAGS_ADD | CYGINT_ISO_DNS | CYGINT_ISO_NETDB_PROTO | CYGSEM_KERNEL_SCHED_MLQUEUE | !CYGFUN_KERNEL_API_C | CYGSEM_KERNEL_SCHED_BITMAP | CYGPKG_KERNEL | !CYGINT_ISO_NETDB_SERV))) & (CYGINT_ISO_DNS | !CYGPKG_NS_DNS_CFLAGS_ADD | CYGINT_ISO_NETDB_PROTO | CYGSEM_KERNEL_SCHED_MLQUEUE | !CYGFUN_KERNEL_API_C | CYGSEM_KERNEL_SCHED_BITMAP | CYGPKG_KERNEL | !CYGINT_ISO_NETDB_SERV))) & (CYGINT_ISO_DNS | CYGINT_ISO_NETDB_PROTO | CYGSEM_KERNEL_SCHED_MLQUEUE | !CYGPKG_NET_FTPCLIENT_CFLAGS_ADD | !CYGFUN_KERNEL_API_C | CYGSEM_KERNEL_SCHED_BITMAP | CYGPKG_KERNEL | !CYGINT_ISO_NETDB_SERV))) & (CYGINT_ISO_DNS | CYGINT_ISO_NETDB_PROTO | CYGSEM_KERNEL_SCHED_MLQUEUE | !CYGFUN_KERNEL_API_C | CYGSEM_KERNEL_SCHED_BITMAP | CYGPKG_KERNEL | !CYGINT_ISO_NETDB_SERV | !CYGPKG_SNMPLIB_CFLAGS_ADD))) & (CYGINT_ISO_DNS | !CYGPKG_SNMPAGENT_CFLAGS_ADD | CYGINT_ISO_NETDB_PROTO | CYGSEM_KERNEL_SCHED_MLQUEUE | !CYGFUN_KERNEL_API_C | CYGSEM_KERNEL_SCHED_BITMAP | CYGPKG_KERNEL | !CYGINT_ISO_NETDB_SERV))) & (CYGINT_ISO_DNS | CYGINT_ISO_NETDB_PROTO | CYGSEM_KERNEL_SCHED_MLQUEUE | !CYGFUN_KERNEL_API_C | !CYGPKG_NET_FREEBSD_STACK_CFLAGS_ADD | CYGSEM_KERNEL_SCHED_BITMAP | CYGPKG_KERNEL | !CYGINT_ISO_NETDB_SERV))) & (CYGINT_ISO_DNS | !CYGPKG_NET_CFLAGS_ADD | CYGINT_ISO_NETDB_PROTO | CYGSEM_KERNEL_SCHED_MLQUEUE | !CYGFUN_KERNEL_API_C | CYGSEM_KERNEL_SCHED_BITMAP | CYGPKG_KERNEL | !CYGINT_ISO_NETDB_SERV)))
102	2822	0	 !CYGPKG_KERNEL | !CYGFUN_KERNEL_API_C | CYGSEM_KERNEL_SCHED_BITMAP | CYGSEM_KERNEL_SCHED_MLQUEUE | !CYGINT_HAL_I386_PCMB_SCREEN_SUPPORT
103	11016	1	(!CYGPKG_SNMPLIB | ((CYGPKG_NET_CFLAGS_ADD | ((CYGPKG_NET_FREEBSD_STACK_CFLAGS_ADD | ((CYGPKG_SNMPAGENT_CFLAGS_ADD | ((CYGPKG_SNMPLIB_CFLAGS_ADD | ((CYGPKG_HTTPD_CFLAGS_ADD | ((CYGPKG_NET_FTPCLIENT_CFLAGS_ADD | ((CYGPKG_PPP_CFLAGS_ADD | ((CYGPKG_NS_DNS_CFLAGS_ADD | ((CYGPKG_NET_SNTP_CFLAGS_ADD | ((!CYGPKG_DEVS_ETH_AMD_LANCEPCI_CFLAGS_ADD | CYGPKG_IO_ETH_DRIVERS_CFLAGS_ADD | CYGSEM_KERNEL_SCHED_MLQUEUE | !CYGFUN_KERNEL_API_C | CYGSEM_KERNEL_SCHED_BITMAP | !CYGPKG_NET_FREEBSD_STACK) & (!CYGPKG_IO_ETH_DRIVERS_CFLAGS_ADD | CYGSEM_KERNEL_SCHED_MLQUEUE | !CYGFUN_KERNEL_API_C | CYGSEM_KERNEL_SCHED_BITMAP | !CYGPKG_NET_FREEBSD_STACK))) & (!CYGPKG_NET_SNTP_CFLAGS_ADD | ((CYGPKG_FS_JFFS2_CFLAGS_ADD | ((!CYGPKG_DEVS_ETH_AMD_LANCEPCI_CFLAGS_ADD | CYGPKG_IO_ETH_DRIVERS_CFLAGS_ADD | CYGSEM_KERNEL_SCHED_MLQUEUE | !CYGFUN_KERNEL_API_C | CYGSEM_KERNEL_SCHED_BITMAP | !CYGPKG_NET_FREEBSD_STACK) & (!CYGPKG_IO_ETH_DRIVERS_CFLAGS_ADD | CYGSEM_KERNEL_SCHED_MLQUEUE | !CYGFUN_KERNEL_API_C | CYGSEM_KERNEL_SCHED_BITMAP | !CYGPKG_NET_FREEBSD_STACK))) & (CYGSEM_KERNEL_SCHED_MLQUEUE | !CYGFUN_KERNEL_API_C | CYGSEM_KERNEL_SCHED_BITMAP | !CYGPKG_FS_JFFS2_CFLAGS_ADD | !CYGPKG_NET_FREEBSD_STACK))))) & (!CYGPKG_NS_DNS_CFLAGS_ADD | CYGSEM_KERNEL_SCHED_MLQUEUE | !CYGFUN_KERNEL_API_C | CYGSEM_KERNEL_SCHED_BITMAP | !CYGPKG_NET_FREEBSD_STACK))) & (!CYGPKG_PPP_CFLAGS_ADD | ((CYGPKG_NS_DNS_CFLAGS_ADD | ((CYGPKG_NET_SNTP_CFLAGS_ADD | ((!CYGPKG_DEVS_ETH_AMD_LANCEPCI_CFLAGS_ADD | CYGPKG_IO_ETH_DRIVERS_CFLAGS_ADD | CYGSEM_KERNEL_SCHED_MLQUEUE | !CYGFUN_KERNEL_API_C | CYGSEM_KERNEL_SCHED_BITMAP | !CYGPKG_NET_FREEBSD_STACK) & (!CYGPKG_IO_ETH_DRIVERS_CFLAGS_ADD | CYGSEM_KERNEL_SCHED_MLQUEUE | !CYGFUN_KERNEL_API_C | CYGSEM_KERNEL_SCHED_BITMAP | !CYGPKG_NET_FREEBSD_STACK))) & (!CYGPKG_NET_SNTP_CFLAGS_ADD | CYGSEM_KERNEL_SCHED_MLQUEUE | !CYGFUN_KERNEL_API_C | CYGSEM_KERNEL_SCHED_BITMAP | !CYGPKG_NET_FREEBSD_STACK))) & (!CYGPKG_NS_DNS_CFLAGS_ADD | CYGSEM_KERNEL_SCHED_MLQUEUE | !CYGFUN_KERNEL_API_C | CYGSEM_KERNEL_SCHED_BITMAP | !CYGPKG_NET_FREEBSD_STACK))))) & (CYGSEM_KERNEL_SCHED_MLQUEUE | !CYGPKG_NET_FTPCLIENT_CFLAGS_ADD | !CYGFUN_KERNEL_API_C | CYGSEM_KERNEL_SCHED_BITMAP | !CYGPKG_NET_FREEBSD_STACK))) & (!CYGPKG_HTTPD_CFLAGS_ADD | ((CYGPKG_NET_FTPCLIENT_CFLAGS_ADD | ((CYGPKG_NS_DNS_CFLAGS_ADD | ((CYGPKG_NET_SNTP_CFLAGS_ADD | ((!CYGPKG_DEVS_ETH_AMD_LANCEPCI_CFLAGS_ADD | CYGPKG_IO_ETH_DRIVERS_CFLAGS_ADD | CYGSEM_KERNEL_SCHED_MLQUEUE | !CYGFUN_KERNEL_API_C | CYGSEM_KERNEL_SCHED_BITMAP | !CYGPKG_NET_FREEBSD_STACK) & (!CYGPKG_IO_ETH_DRIVERS_CFLAGS_ADD | CYGSEM_KERNEL_SCHED_MLQUEUE | !CYGFUN_KERNEL_API_C | CYGSEM_KERNEL_SCHED_BITMAP | !CYGPKG_NET_FREEBSD_STACK))) & (!CYGPKG_NET_SNTP_CFLAGS_ADD | CYGSEM_KERNEL_SCHED_MLQUEUE | !CYGFUN_KERNEL_API_C | CYGSEM_KERNEL_SCHED_BITMAP | !CYGPKG_NET_FREEBSD_STACK))) & (!CYGPKG_NS_DNS_CFLAGS_ADD | CYGSEM_KERNEL_SCHED_MLQUEUE | !CYGFUN_KERNEL_API_C | CYGSEM_KERNEL_SCHED_BITMAP | !CYGPKG_NET_FREEBSD_STACK))) & (CYGSEM_KERNEL_SCHED_MLQUEUE | !CYGPKG_NET_FTPCLIENT_CFLAGS_ADD | !CYGFUN_KERNEL_API_C | CYGSEM_KERNEL_SCHED_BITMAP | !CYGPKG_NET_FREEBSD_STACK))))) & (CYGSEM_KERNEL_SCHED_MLQUEUE | !CYGFUN_KERNEL_API_C | CYGSEM_KERNEL_SCHED_BITMAP | !CYGPKG_SNMPLIB_CFLAGS_ADD | !CYGPKG_NET_FREEBSD_STACK))) & (!CYGPKG_SNMPAGENT_CFLAGS_ADD | CYGSEM_KERNEL_SCHED_MLQUEUE | !CYGFUN_KERNEL_API_C | CYGSEM_KERNEL_SCHED_BITMAP | !CYGPKG_NET_FREEBSD_STACK))) & (!CYGPKG_NET_FREEBSD_STACK_CFLAGS_ADD | ((CYGPKG_SNMPAGENT_CFLAGS_ADD | ((CYGPKG_SNMPLIB_CFLAGS_ADD | ((CYGPKG_HTTPD_CFLAGS_ADD | ((CYGPKG_NET_FTPCLIENT_CFLAGS_ADD | ((CYGPKG_PPP_CFLAGS_ADD | ((CYGPKG_NS_DNS_CFLAGS_ADD | ((CYGPKG_FS_JFFS2_CFLAGS_ADD | ((!CYGPKG_DEVS_ETH_AMD_LANCEPCI_CFLAGS_ADD | CYGPKG_IO_ETH_DRIVERS_CFLAGS_ADD | CYGSEM_KERNEL_SCHED_MLQUEUE | !CYGFUN_KERNEL_API_C | CYGSEM_KERNEL_SCHED_BITMAP | !CYGPKG_NET_FREEBSD_STACK) & (!CYGPKG_IO_ETH_DRIVERS_CFLAGS_ADD | CYGSEM_KERNEL_SCHED_MLQUEUE | !CYGFUN_KERNEL_API_C | CYGSEM_KERNEL_SCHED_BITMAP | !CYGPKG_NET_FREEBSD_STACK))) & (CYGSEM_KERNEL_SCHED_MLQUEUE | !CYGFUN_KERNEL_API_C | CYGSEM_KERNEL_SCHED_BITMAP | !CYGPKG_FS_JFFS2_CFLAGS_ADD | !CYGPKG_NET_FREEBSD_STACK))) & (!CYGPKG_NS_DNS_CFLAGS_ADD | CYGSEM_KERNEL_SCHED_MLQUEUE | !CYGFUN_KERNEL_API_C | CYGSEM_KERNEL_SCHED_BITMAP | !CYGPKG_NET_FREEBSD_STACK))) & (!CYGPKG_PPP_CFLAGS_ADD | CYGSEM_KERNEL_SCHED_MLQUEUE | !CYGFUN_KERNEL_API_C | CYGSEM_KERNEL_SCHED_BITMAP | !CYGPKG_NET_FREEBSD_STACK))) & (CYGSEM_KERNEL_SCHED_MLQUEUE | !CYGPKG_NET_FTPCLIENT_CFLAGS_ADD | !CYGFUN_KERNEL_API_C | CYGSEM_KERNEL_SCHED_BITMAP | !CYGPKG_NET_FREEBSD_STACK))) & (CYGSEM_KERNEL_SCHED_MLQUEUE | !CYGFUN_KERNEL_API_C | CYGSEM_KERNEL_SCHED_BITMAP | !CYGPKG_HTTPD_CFLAGS_ADD | !CYGPKG_NET_FREEBSD_STACK))) & (CYGSEM_KERNEL_SCHED_MLQUEUE | !CYGFUN_KERNEL_API_C | CYGSEM_KERNEL_SCHED_BITMAP | !CYGPKG_SNMPLIB_CFLAGS_ADD | !CYGPKG_NET_FREEBSD_STACK))) & (!CYGPKG_SNMPAGENT_CFLAGS_ADD | CYGSEM_KERNEL_SCHED_MLQUEUE | !CYGFUN_KERNEL_API_C | CYGSEM_KERNEL_SCHED_BITMAP | !CYGPKG_NET_FREEBSD_STACK))))) & (!CYGPKG_NET_CFLAGS_ADD | CYGSEM_KERNEL_SCHED_MLQUEUE | !CYGFUN_KERNEL_API_C | CYGSEM_KERNEL_SCHED_BITMAP | !CYGPKG_NET_FREEBSD_STACK)))
104	28576	1	(!CYGPKG_PPP | ((CYGPKG_NET_CFLAGS_ADD | ((CYGPKG_NET_FREEBSD_STACK_CFLAGS_ADD | ((CYGPKG_SNMPAGENT_CFLAGS_ADD | ((CYGPKG_SNMPLIB_CFLAGS_ADD | ((CYGPKG_NET_FTPCLIENT_CFLAGS_ADD | ((CYGPKG_NS_DNS_CFLAGS_ADD | ((CYGPKG_NET_SNTP_CFLAGS_ADD | ((!CYGPKG_DEVS_ETH_AMD_LANCEPCI_CFLAGS_ADD | CYGINT_ISO_DNS | CYGPKG_IO_ETH_DRIVERS_CFLAGS_ADD | CYGSEM_KERNEL_SCHED_MLQUEUE | !CYGFUN_KERNEL_API_C | CYGSEM_KERNEL_SCHED_BITMAP | !CYGINT_ISO_NETDB_PROTO) & (CYGINT_ISO_DNS | !CYGPKG_IO_ETH_DRIVERS_CFLAGS_ADD | CYGSEM_KERNEL_SCHED_MLQUEUE | !CYGFUN_KERNEL_API_C | CYGSEM_KERNEL_SCHED_BITMAP | !CYGINT_ISO_NETDB_PROTO))) & (!CYGPKG_NET_SNTP_CFLAGS_ADD | CYGINT_ISO_DNS | CYGSEM_KERNEL_SCHED_MLQUEUE | !CYGFUN_KERNEL_API_C | CYGSEM_KERNEL_SCHED_BITMAP | !CYGINT_ISO_NETDB_PROTO))) & (CYGINT_ISO_DNS | !CYGPKG_NS_DNS_CFLAGS_ADD | CYGSEM_KERNEL_SCHED_MLQUEUE | !CYGFUN_KERNEL_API_C | CYGSEM_KERNEL_SCHED_BITMAP | !CYGINT_ISO_NETDB_PROTO))) & (CYGINT_ISO_DNS | CYGSEM_KERNEL_SCHED_MLQUEUE | !CYGPKG_NET_FTPCLIENT_CFLAGS_ADD | !CYGFUN_KERNEL_API_C | CYGSEM_KERNEL_SCHED_BITMAP | !CYGINT_ISO_NETDB_PROTO))) & (CYGINT_ISO_DNS | CYGSEM_KERNEL_SCHED_MLQUEUE | !CYGFUN_KERNEL_API_C | CYGSEM_KERNEL_SCHED_BITMAP | !CYGINT_ISO_NETDB_PROTO | !CYGPKG_SNMPLIB_CFLAGS_ADD))) & (CYGINT_ISO_DNS | !CYGPKG_SNMPAGENT_CFLAGS_ADD | CYGSEM_KERNEL_SCHED_MLQUEUE | !CYGFUN_KERNEL_API_C | CYGSEM_KERNEL_SCHED_BITMAP | !CYGINT_ISO_NETDB_PROTO))) & (CYGINT_ISO_DNS | CYGSEM_KERNEL_SCHED_MLQUEUE | !CYGFUN_KERNEL_API_C | !CYGPKG_NET_FREEBSD_STACK_CFLAGS_ADD | CYGSEM_KERNEL_SCHED_BITMAP | !CYGINT_ISO_NETDB_PROTO))) & (CYGINT_ISO_DNS | !CYGPKG_NET_CFLAGS_ADD | CYGSEM_KERNEL_SCHED_MLQUEUE | !CYGFUN_KERNEL_API_C | CYGSEM_KERNEL_SCHED_BITMAP | !CYGINT_ISO_NETDB_PROTO)))
105	2879	0	 !CYGFUN_KERNEL_API_C | !CYGPKG_NET_FTPCLIENT | CYGSEM_KERNEL_SCHED_BITMAP | CYGSEM_KERNEL_SCHED_MLQUEUE
106	87	0	 !CYGPKG_KERNEL | !CYGFUN_KERNEL_API_C | !CYGPKG_IO_SERIAL_TTY | CYGSEM_KERNEL_SCHED_BITMAP | CYGSEM_KERNEL_SCHED_MLQUEUE
107	442	0	 !CYGOPT_FS_JFFS2_WRITE | CYGFUN_KERNEL_API_C & !CYGSEM_KERNEL_SCHED_BITMAP & !CYGSEM_KERNEL_SCHED_MLQUEUE | !CYGPKG_NET_CFLAGS_ADD & !CYGPKG_PPP_CFLAGS_ADD & !CYGPKG_HTTPD_CFLAGS_ADD & !CYGPKG_NS_DNS_CFLAGS_ADD & !CYGPKG_SNMPLIB_CFLAGS_ADD & !CYGPKG_FS_JFFS2_CFLAGS_ADD & !CYGPKG_SNMPAGENT_CFLAGS_ADD & !CYGPKG_NET_FTPCLIENT_CFLAGS_ADD & !CYGPKG_IO_ETH_DRIVERS_CFLAGS_ADD & !CYGPKG_DEVS_ETH_AMD_LANCEPCI_CFLAGS_ADD
108	313	0	 !CYGFUN_KERNEL_API_C | CYGFUN_IO_FILEIO_SELECT | !CYGOPT_FS_JFFS2_GCTHREAD | CYGSEM_KERNEL_SCHED_BITMAP | CYGSEM_KERNEL_SCHED_MLQUEUE
109	99	0	 !CYGFUN_KERNEL_API_C | !CYGFUN_IO_FILEIO_SELECT | CYGSEM_KERNEL_SCHED_BITMAP | CYGSEM_KERNEL_SCHED_MLQUEUE | !CYGOPT_FS_JFFS2_COMPRESS_RTIME
110	86	0	 !CYGPKG_PPP | !CYGINT_ISO_DNS | !CYGFUN_KERNEL_API_C | CYGPKG_NET_CFLAGS_ADD | CYGPKG_NS_DNS_CFLAGS_ADD | CYGPKG_SNMPLIB_CFLAGS_ADD | CYGSEM_KERNEL_SCHED_BITMAP | CYGPKG_NET_SNTP_CFLAGS_ADD | CYGPKG_SNMPAGENT_CFLAGS_ADD | CYGSEM_KERNEL_SCHED_MLQUEUE | CYGPKG_NET_FTPCLIENT_CFLAGS_ADD | CYGPKG_IO_ETH_DRIVERS_CFLAGS_ADD | CYGPKG_NET_FREEBSD_STACK_CFLAGS_ADD | CYGPKG_DEVS_ETH_AMD_LANCEPCI_CFLAGS_ADD
111	80	0	 !CYGPKG_FS_FAT | !CYGFUN_KERNEL_API_C | !CYGFUN_IO_FILEIO_SELECT | CYGSEM_KERNEL_SCHED_BITMAP | CYGSEM_KERNEL_SCHED_MLQUEUE
112	115	0	 !CYGFUN_KERNEL_API_C | CYGFUN_IO_FILEIO_SELECT | CYGSEM_KERNEL_SCHED_BITMAP | CYGSEM_KERNEL_SCHED_MLQUEUE | !CYGOPT_FS_JFFS2_COMPRESS_RTIME
113	1122	0	 !CYGPKG_PPP | !CYGFUN_KERNEL_API_C | CYGSEM_KERNEL_SCHED_BITMAP | CYGSEM_KERNEL_SCHED_MLQUEUE | !CYGPKG_NET_CFLAGS_ADD & !CYGPKG_NS_DNS_CFLAGS_ADD & !CYGPKG_SNMPLIB_CFLAGS_ADD & !CYGPKG_NET_SNTP_CFLAGS_ADD & !CYGPKG_SNMPAGENT_CFLAGS_ADD & !CYGPKG_NET_FTPCLIENT_CFLAGS_ADD & !CYGPKG_IO_ETH_DRIVERS_CFLAGS_ADD & !CYGPKG_NET_FREEBSD_STACK_CFLAGS_ADD & !CYGPKG_DEVS_ETH_AMD_LANCEPCI_CFLAGS_ADD
114	70	0	 !CYGPKG_KERNEL | !CYGFUN_KERNEL_API_C | CYGPKG_NET_CFLAGS_ADD | CYGPKG_NS_DNS_CFLAGS_ADD | CYGPKG_SNMPLIB_CFLAGS_ADD | !CYGPKG_IO_ETH_DRIVERS_NET | CYGSEM_KERNEL_SCHED_BITMAP | CYGPKG_NET_SNTP_CFLAGS_ADD | CYGPKG_SNMPAGENT_CFLAGS_ADD | CYGSEM_KERNEL_SCHED_MLQUEUE | CYGPKG_NET_FTPCLIENT_CFLAGS_ADD | CYGPKG_IO_ETH_DRIVERS_CFLAGS_ADD | CYGPKG_NET_FREEBSD_STACK_CFLAGS_ADD | CYGPKG_DEVS_ETH_AMD_LANCEPCI_CFLAGS_ADD
115	38	0	 !CYGPKG_KERNEL | !CYGFUN_KERNEL_API_C | CYGSEM_KERNEL_SCHED_BITMAP | CYGSEM_KERNEL_SCHED_MLQUEUE | !CYGPKG_IO_SERIAL_GENERIC_16X5X
116	93	0	 !CYGPKG_KERNEL | !CYGFUN_KERNEL_API_C | CYGSEM_KERNEL_SCHED_BITMAP | CYGSEM_KERNEL_SCHED_MLQUEUE | !CYGPKG_IO_FLASH_BLOCK_DEVICE_LEGACY
117	39	0	 !CYGFUN_KERNEL_API_C | CYGSEM_KERNEL_SCHED_BITMAP | CYGSEM_KERNEL_SCHED_MLQUEUE | !CYGOPT_NET_IPV6_ROUTING_THREAD
118	972	0	 !CYGPKG_IO_FILEIO | !CYGPKG_NET_NLOOP | !CYGPKG_NET_FREEBSD_STACK | CYGFUN_KERNEL_API_C & !CYGSEM_KERNEL_SCHED_BITMAP & !CYGSEM_KERNEL_SCHED_MLQUEUE | !CYGPKG_NET_CFLAGS_ADD & !CYGPKG_NS_DNS_CFLAGS_ADD & !CYGPKG_SNMPLIB_CFLAGS_ADD & !CYGPKG_NET_SNTP_CFLAGS_ADD & !CYGPKG_SNMPAGENT_CFLAGS_ADD & !CYGPKG_NET_FTPCLIENT_CFLAGS_ADD & !CYGPKG_IO_ETH_DRIVERS_CFLAGS_ADD & !CYGPKG_NET_FREEBSD_STACK_CFLAGS_ADD & !CYGPKG_DEVS_ETH_AMD_LANCEPCI_CFLAGS_ADD
119	56	0	 !CYGPKG_FS_RAM | !CYGPKG_FS_RAM_BLOCKS_ARRAY | !CYGPKG_FS_RAM_BLOCKS_ARRAY_NAME | !CYGPKG_FS_RAM_BLOCKS_ARRAY_EXTERN | CYGFUN_KERNEL_API_C & !CYGSEM_KERNEL_SCHED_BITMAP & !CYGSEM_KERNEL_SCHED_MLQUEUE
120	41	0	 !CYGPKG_KERNEL | !CYGFUN_KERNEL_API_C | !CYGPKG_HAL_I386_PCMB | CYGSEM_KERNEL_SCHED_BITMAP | CYGSEM_KERNEL_SCHED_MLQUEUE
121	11017	1	(!CYGPKG_IO_ETH_DRIVERS_STAND_ALONE | ((CYGPKG_NET_CFLAGS_ADD | ((CYGPKG_NET_FREEBSD_STACK_CFLAGS_ADD | ((CYGPKG_SNMPAGENT_CFLAGS_ADD | ((CYGPKG_SNMPLIB_CFLAGS_ADD | ((CYGPKG_NET_FTPCLIENT_CFLAGS_ADD | ((CYGPKG_NS_DNS_CFLAGS_ADD | ((CYGPKG_NET_SNTP_CFLAGS_ADD | ((!CYGPKG_DEVS_ETH_AMD_LANCEPCI_CFLAGS_ADD | CYGPKG_IO_ETH_DRIVERS_CFLAGS_ADD | CYGSEM_KERNEL_SCHED_MLQUEUE | !CYGFUN_KERNEL_API_C | CYGSEM_KERNEL_SCHED_BITMAP | CYGPKG_KERNEL | !CYGPKG_NET) & (!CYGPKG_IO_ETH_DRIVERS_CFLAGS_ADD | CYGSEM_KERNEL_SCHED_MLQUEUE | !CYGFUN_KERNEL_API_C | CYGSEM_KERNEL_SCHED_BITMAP | CYGPKG_KERNEL | !CYGPKG_NET))) & (!CYGPKG_NET_SNTP_CFLAGS_ADD | CYGSEM_KERNEL_SCHED_MLQUEUE | !CYGFUN_KERNEL_API_C | CYGSEM_KERNEL_SCHED_BITMAP | CYGPKG_KERNEL | !CYGPKG_NET))) & (!CYGPKG_NS_DNS_CFLAGS_ADD | CYGSEM_KERNEL_SCHED_MLQUEUE | !CYGFUN_KERNEL_API_C | CYGSEM_KERNEL_SCHED_BITMAP | CYGPKG_KERNEL | !CYGPKG_NET))) & (CYGSEM_KERNEL_SCHED_MLQUEUE | !CYGPKG_NET_FTPCLIENT_CFLAGS_ADD | !CYGFUN_KERNEL_API_C | CYGSEM_KERNEL_SCHED_BITMAP | CYGPKG_KERNEL | !CYGPKG_NET))) & (CYGSEM_KERNEL_SCHED_MLQUEUE | !CYGFUN_KERNEL_API_C | CYGSEM_KERNEL_SCHED_BITMAP | CYGPKG_KERNEL | !CYGPKG_NET | !CYGPKG_SNMPLIB_CFLAGS_ADD))) & (!CYGPKG_SNMPAGENT_CFLAGS_ADD | CYGSEM_KERNEL_SCHED_MLQUEUE | !CYGFUN_KERNEL_API_C | CYGSEM_KERNEL_SCHED_BITMAP | CYGPKG_KERNEL | !CYGPKG_NET))) & (CYGSEM_KERNEL_SCHED_MLQUEUE | !CYGFUN_KERNEL_API_C | !CYGPKG_NET_FREEBSD_STACK_CFLAGS_ADD | CYGSEM_KERNEL_SCHED_BITMAP | CYGPKG_KERNEL | !CYGPKG_NET))) & (!CYGPKG_NET_CFLAGS_ADD | CYGSEM_KERNEL_SCHED_MLQUEUE | !CYGFUN_KERNEL_API_C | CYGSEM_KERNEL_SCHED_BITMAP | CYGPKG_KERNEL | !CYGPKG_NET)))
122	28843	1	(!CYGPKG_SNMPAGENT | ((CYGPKG_NET_CFLAGS_ADD | ((CYGPKG_NET_FREEBSD_STACK_CFLAGS_ADD | ((CYGPKG_SNMPAGENT_CFLAGS_ADD | ((CYGPKG_SNMPLIB_CFLAGS_ADD | ((CYGPKG_HTTPD_CFLAGS_ADD | ((CYGPKG_NET_FTPCLIENT_CFLAGS_ADD | ((CYGPKG_PPP_CFLAGS_ADD | ((CYGPKG_NS_DNS_CFLAGS_ADD | ((CYGPKG_NET_SNTP_CFLAGS_ADD | ((CYGPKG_IO_ETH_DRIVERS_CFLAGS_ADD | ((CYGSEM_KERNEL_SCHED_BITMAP | CYGSEM_KERNEL_SCHED_MLQUEUE | !CYGFUN_KERNEL_API_C | CYGPKG_DEVS_ETH_AMD_LANCEPCI_CFLAGS_ADD) & (!CYGPKG_DEVS_ETH_AMD_LANCEPCI_CFLAGS_ADD | CYGSEM_KERNEL_SCHED_MLQUEUE | !CYGFUN_KERNEL_API_C | CYGSEM_KERNEL_SCHED_BITMAP | CYGPKG_NET_FREEBSD_STACK))) & (!CYGPKG_IO_ETH_DRIVERS_CFLAGS_ADD | CYGSEM_KERNEL_SCHED_MLQUEUE | !CYGFUN_KERNEL_API_C | CYGSEM_KERNEL_SCHED_BITMAP | CYGPKG_NET_FREEBSD_STACK))) & (!CYGPKG_NET_SNTP_CFLAGS_ADD | ((CYGPKG_FS_JFFS2_CFLAGS_ADD | ((CYGPKG_IO_ETH_DRIVERS_CFLAGS_ADD | ((CYGSEM_KERNEL_SCHED_BITMAP | CYGSEM_KERNEL_SCHED_MLQUEUE | !CYGFUN_KERNEL_API_C | CYGPKG_DEVS_ETH_AMD_LANCEPCI_CFLAGS_ADD) & (!CYGPKG_DEVS_ETH_AMD_LANCEPCI_CFLAGS_ADD | CYGSEM_KERNEL_SCHED_MLQUEUE | !CYGFUN_KERNEL_API_C | CYGSEM_KERNEL_SCHED_BITMAP | CYGPKG_NET_FREEBSD_STACK))) & (!CYGPKG_IO_ETH_DRIVERS_CFLAGS_ADD | CYGSEM_KERNEL_SCHED_MLQUEUE | !CYGFUN_KERNEL_API_C | CYGSEM_KERNEL_SCHED_BITMAP | CYGPKG_NET_FREEBSD_STACK))) & (CYGSEM_KERNEL_SCHED_MLQUEUE | !CYGFUN_KERNEL_API_C | CYGSEM_KERNEL_SCHED_BITMAP | CYGPKG_NET_FREEBSD_STACK | !CYGPKG_FS_JFFS2_CFLAGS_ADD))))) & (!CYGPKG_NS_DNS_CFLAGS_ADD | CYGSEM_KERNEL_SCHED_MLQUEUE | !CYGFUN_KERNEL_API_C | CYGSEM_KERNEL_SCHED_BITMAP | CYGPKG_NET_FREEBSD_STACK))) & (!CYGPKG_PPP_CFLAGS_ADD | ((CYGPKG_NS_DNS_CFLAGS_ADD | ((CYGPKG_NET_SNTP_CFLAGS_ADD | ((CYGPKG_IO_ETH_DRIVERS_CFLAGS_ADD | ((CYGSEM_KERNEL_SCHED_BITMAP | CYGSEM_KERNEL_SCHED_MLQUEUE | !CYGFUN_KERNEL_API_C | CYGPKG_DEVS_ETH_AMD_LANCEPCI_CFLAGS_ADD) & (!CYGPKG_DEVS_ETH_AMD_LANCEPCI_CFLAGS_ADD | CYGSEM_KERNEL_SCHED_MLQUEUE | !CYGFUN_KERNEL_API_C | CYGSEM_KERNEL_SCHED_BITMAP | CYGPKG_NET_FREEBSD_STACK))) & (!CYGPKG_IO_ETH_DRIVERS_CFLAGS_ADD | CYGSEM_KERNEL_SCHED_MLQUEUE | !CYGFUN_KERNEL_API_C | CYGSEM_KERNEL_SCHED_BITMAP | CYGPKG_NET_FREEBSD_STACK))) & (!CYGPKG_NET_SNTP_CFLAGS_ADD | CYGSEM_KERNEL_SCHED_MLQUEUE | !CYGFUN_KERNEL_API_C | CYGSEM_KERNEL_SCHED_BITMAP | CYGPKG_NET_FREEBSD_STACK))) & (!CYGPKG_NS_DNS_CFLAGS_ADD | CYGSEM_KERNEL_SCHED_MLQUEUE | !CYGFUN_KERNEL_API_C | CYGSEM_KERNEL_SCHED_BITMAP | CYGPKG_NET_FREEBSD_STACK))))) & (CYGSEM_KERNEL_SCHED_MLQUEUE | !CYGPKG_NET_FTPCLIENT_CFLAGS_ADD | !CYGFUN_KERNEL_API_C | CYGSEM_KERNEL_SCHED_BITMAP | CYGPKG_NET_FREEBSD_STACK))) & (!CYGPKG_HTTPD_CFLAGS_ADD | ((CYGPKG_NET_FTPCLIENT_CFLAGS_ADD | ((CYGPKG_NS_DNS_CFLAGS_ADD | ((CYGPKG_NET_SNTP_CFLAGS_ADD | ((CYGPKG_IO_ETH_DRIVERS_CFLAGS_ADD | ((CYGSEM_KERNEL_SCHED_BITMAP | CYGSEM_KERNEL_SCHED_MLQUEUE | !CYGFUN_KERNEL_API_C | CYGPKG_DEVS_ETH_AMD_LANCEPCI_CFLAGS_ADD) & (!CYGPKG_DEVS_ETH_AMD_LANCEPCI_CFLAGS_ADD | CYGSEM_KERNEL_SCHED_MLQUEUE | !CYGFUN_KERNEL_API_C | CYGSEM_KERNEL_SCHED_BITMAP | CYGPKG_NET_FREEBSD_STACK))) & (!CYGPKG_IO_ETH_DRIVERS_CFLAGS_ADD | CYGSEM_KERNEL_SCHED_MLQUEUE | !CYGFUN_KERNEL_API_C | CYGSEM_KERNEL_SCHED_BITMAP | CYGPKG_NET_FREEBSD_STACK))) & (!CYGPKG_NET_SNTP_CFLAGS_ADD | CYGSEM_KERNEL_SCHED_MLQUEUE | !CYGFUN_KERNEL_API_C | CYGSEM_KERNEL_SCHED_BITMAP | CYGPKG_NET_FREEBSD_STACK))) & (!CYGPKG_NS_DNS_CFLAGS_ADD | CYGSEM_KERNEL_SCHED_MLQUEUE | !CYGFUN_KERNEL_API_C | CYGSEM_KERNEL_SCHED_BITMAP | CYGPKG_NET_FREEBSD_STACK))) & (CYGSEM_KERNEL_SCHED_MLQUEUE | !CYGPKG_NET_FTPCLIENT_CFLAGS_ADD | !CYGFUN_KERNEL_API_C | CYGSEM_KERNEL_SCHED_BITMAP | CYGPKG_NET_FREEBSD_STACK))))) & (CYGSEM_KERNEL_SCHED_MLQUEUE | !CYGFUN_KERNEL_API_C | CYGSEM_KERNEL_SCHED_BITMAP | CYGPKG_NET_FREEBSD_STACK | !CYGPKG_SNMPLIB_CFLAGS_ADD))) & (!CYGPKG_SNMPAGENT_CFLAGS_ADD | CYGSEM_KERNEL_SCHED_MLQUEUE | !CYGFUN_KERNEL_API_C | CYGSEM_KERNEL_SCHED_BITMAP | CYGPKG_NET_FREEBSD_STACK))) & (!CYGPKG_NET_FREEBSD_STACK_CFLAGS_ADD | ((CYGPKG_SNMPAGENT_CFLAGS_ADD | ((CYGPKG_SNMPLIB_CFLAGS_ADD | ((CYGPKG_HTTPD_CFLAGS_ADD | ((CYGPKG_NET_FTPCLIENT_CFLAGS_ADD | ((CYGPKG_PPP_CFLAGS_ADD | ((CYGPKG_NS_DNS_CFLAGS_ADD | ((CYGPKG_FS_JFFS2_CFLAGS_ADD | ((CYGPKG_IO_ETH_DRIVERS_CFLAGS_ADD | ((CYGSEM_KERNEL_SCHED_BITMAP | CYGSEM_KERNEL_SCHED_MLQUEUE | !CYGFUN_KERNEL_API_C | CYGPKG_DEVS_ETH_AMD_LANCEPCI_CFLAGS_ADD) & (!CYGPKG_DEVS_ETH_AMD_LANCEPCI_CFLAGS_ADD | CYGSEM_KERNEL_SCHED_MLQUEUE | !CYGFUN_KERNEL_API_C | CYGSEM_KERNEL_SCHED_BITMAP | CYGPKG_NET_FREEBSD_STACK))) & (!CYGPKG_IO_ETH_DRIVERS_CFLAGS_ADD | CYGSEM_KERNEL_SCHED_MLQUEUE | !CYGFUN_KERNEL_API_C | CYGSEM_KERNEL_SCHED_BITMAP | CYGPKG_NET_FREEBSD_STACK))) & (CYGSEM_KERNEL_SCHED_MLQUEUE | !CYGFUN_KERNEL_API_C | CYGSEM_KERNEL_SCHED_BITMAP | CYGPKG_NET_FREEBSD_STACK | !CYGPKG_FS_JFFS2_CFLAGS_ADD))) & (!CYGPKG_NS_DNS_CFLAGS_ADD | CYGSEM_KERNEL_SCHED_MLQUEUE | !CYGFUN_KERNEL_API_C | CYGSEM_KERNEL_SCHED_BITMAP | CYGPKG_NET_FREEBSD_STACK))) & (!CYGPKG_PPP_CFLAGS_ADD | CYGSEM_KERNEL_SCHED_MLQUEUE | !CYGFUN_KERNEL_API_C | CYGSEM_KERNEL_SCHED_BITMAP | CYGPKG_NET_FREEBSD_STACK))) & (CYGSEM_KERNEL_SCHED_MLQUEUE | !CYGPKG_NET_FTPCLIENT_CFLAGS_ADD | !CYGFUN_KERNEL_API_C | CYGSEM_KERNEL_SCHED_BITMAP | CYGPKG_NET_FREEBSD_STACK))) & (CYGSEM_KERNEL_SCHED_MLQUEUE | !CYGFUN_KERNEL_API_C | CYGSEM_KERNEL_SCHED_BITMAP | CYGPKG_NET_FREEBSD_STACK | !CYGPKG_HTTPD_CFLAGS_ADD))) & (CYGSEM_KERNEL_SCHED_MLQUEUE | !CYGFUN_KERNEL_API_C | CYGSEM_KERNEL_SCHED_BITMAP | CYGPKG_NET_FREEBSD_STACK | !CYGPKG_SNMPLIB_CFLAGS_ADD))) & (!CYGPKG_SNMPAGENT_CFLAGS_ADD | CYGSEM_KERNEL_SCHED_MLQUEUE | !CYGFUN_KERNEL_API_C | CYGSEM_KERNEL_SCHED_BITMAP | CYGPKG_NET_FREEBSD_STACK))))) & (!CYGPKG_NET_CFLAGS_ADD | CYGSEM_KERNEL_SCHED_MLQUEUE | !CYGFUN_KERNEL_API_C | CYGSEM_KERNEL_SCHED_BITMAP | CYGPKG_NET_FREEBSD_STACK)))
123	28763	1	(!CYGPKG_SNMPAGENT | ((CYGPKG_NET_CFLAGS_ADD | ((CYGPKG_NET_FREEBSD_STACK_CFLAGS_ADD | ((CYGPKG_SNMPAGENT_CFLAGS_ADD | ((CYGPKG_SNMPLIB_CFLAGS_ADD | ((CYGPKG_HTTPD_CFLAGS_ADD | ((CYGPKG_NET_FTPCLIENT_CFLAGS_ADD | ((CYGPKG_PPP_CFLAGS_ADD | ((CYGPKG_NS_DNS_CFLAGS_ADD | ((CYGPKG_NET_SNTP_CFLAGS_ADD | ((!CYGPKG_DEVS_ETH_AMD_LANCEPCI_CFLAGS_ADD | CYGPKG_IO_ETH_DRIVERS_CFLAGS_ADD | CYGSEM_KERNEL_SCHED_MLQUEUE | !CYGFUN_KERNEL_API_C | CYGSEM_KERNEL_SCHED_BITMAP | !CYGPKG_NET_FREEBSD_STACK) & (!CYGPKG_IO_ETH_DRIVERS_CFLAGS_ADD | CYGSEM_KERNEL_SCHED_MLQUEUE | !CYGFUN_KERNEL_API_C | CYGSEM_KERNEL_SCHED_BITMAP | !CYGPKG_NET_FREEBSD_STACK))) & (!CYGPKG_NET_SNTP_CFLAGS_ADD | ((CYGPKG_FS_JFFS2_CFLAGS_ADD | ((!CYGPKG_DEVS_ETH_AMD_LANCEPCI_CFLAGS_ADD | CYGPKG_IO_ETH_DRIVERS_CFLAGS_ADD | CYGSEM_KERNEL_SCHED_MLQUEUE | !CYGFUN_KERNEL_API_C | CYGSEM_KERNEL_SCHED_BITMAP | !CYGPKG_NET_FREEBSD_STACK) & (!CYGPKG_IO_ETH_DRIVERS_CFLAGS_ADD | CYGSEM_KERNEL_SCHED_MLQUEUE | !CYGFUN_KERNEL_API_C | CYGSEM_KERNEL_SCHED_BITMAP | !CYGPKG_NET_FREEBSD_STACK))) & (CYGSEM_KERNEL_SCHED_MLQUEUE | !CYGFUN_KERNEL_API_C | CYGSEM_KERNEL_SCHED_BITMAP | !CYGPKG_FS_JFFS2_CFLAGS_ADD | !CYGPKG_NET_FREEBSD_STACK))))) & (!CYGPKG_NS_DNS_CFLAGS_ADD | CYGSEM_KERNEL_SCHED_MLQUEUE | !CYGFUN_KERNEL_API_C | CYGSEM_KERNEL_SCHED_BITMAP | !CYGPKG_NET_FREEBSD_STACK))) & (!CYGPKG_PPP_CFLAGS_ADD | ((CYGPKG_NS_DNS_CFLAGS_ADD | ((CYGPKG_NET_SNTP_CFLAGS_ADD | ((!CYGPKG_DEVS_ETH_AMD_LANCEPCI_CFLAGS_ADD | CYGPKG_IO_ETH_DRIVERS_CFLAGS_ADD | CYGSEM_KERNEL_SCHED_MLQUEUE | !CYGFUN_KERNEL_API_C | CYGSEM_KERNEL_SCHED_BITMAP | !CYGPKG_NET_FREEBSD_STACK) & (!CYGPKG_IO_ETH_DRIVERS_CFLAGS_ADD | CYGSEM_KERNEL_SCHED_MLQUEUE | !CYGFUN_KERNEL_API_C | CYGSEM_KERNEL_SCHED_BITMAP | !CYGPKG_NET_FREEBSD_STACK))) & (!CYGPKG_NET_SNTP_CFLAGS_ADD | CYGSEM_KERNEL_SCHED_MLQUEUE | !CYGFUN_KERNEL_API_C | CYGSEM_KERNEL_SCHED_BITMAP | !CYGPKG_NET_FREEBSD_STACK))) & (!CYGPKG_NS_DNS_CFLAGS_ADD | CYGSEM_KERNEL_SCHED_MLQUEUE | !CYGFUN_KERNEL_API_C | CYGSEM_KERNEL_SCHED_BITMAP | !CYGPKG_NET_FREEBSD_STACK))))) & (CYGSEM_KERNEL_SCHED_MLQUEUE | !CYGPKG_NET_FTPCLIENT_CFLAGS_ADD | !CYGFUN_KERNEL_API_C | CYGSEM_KERNEL_SCHED_BITMAP | !CYGPKG_NET_FREEBSD_STACK))) & (!CYGPKG_HTTPD_CFLAGS_ADD | ((CYGPKG_NET_FTPCLIENT_CFLAGS_ADD | ((CYGPKG_NS_DNS_CFLAGS_ADD | ((CYGPKG_NET_SNTP_CFLAGS_ADD | ((!CYGPKG_DEVS_ETH_AMD_LANCEPCI_CFLAGS_ADD | CYGPKG_IO_ETH_DRIVERS_CFLAGS_ADD | CYGSEM_KERNEL_SCHED_MLQUEUE | !CYGFUN_KERNEL_API_C | CYGSEM_KERNEL_SCHED_BITMAP | !CYGPKG_NET_FREEBSD_STACK) & (!CYGPKG_IO_ETH_DRIVERS_CFLAGS_ADD | CYGSEM_KERNEL_SCHED_MLQUEUE | !CYGFUN_KERNEL_API_C | CYGSEM_KERNEL_SCHED_BITMAP | !CYGPKG_NET_FREEBSD_STACK))) & (!CYGPKG_NET_SNTP_CFLAGS_ADD | CYGSEM_KERNEL_SCHED_MLQUEUE | !CYGFUN_KERNEL_API_C | CYGSEM_KERNEL_SCHED_BITMAP | !CYGPKG_NET_FREEBSD_STACK))) & (!CYGPKG_NS_DNS_CFLAGS_ADD | CYGSEM_KERNEL_SCHED_MLQUEUE | !CYGFUN_KERNEL_API_C | CYGSEM_KERNEL_SCHED_BITMAP | !CYGPKG_NET_FREEBSD_STACK))) & (CYGSEM_KERNEL_SCHED_MLQUEUE | !CYGPKG_NET_FTPCLIENT_CFLAGS_ADD | !CYGFUN_KERNEL_API_C | CYGSEM_KERNEL_SCHED_BITMAP | !CYGPKG_NET_FREEBSD_STACK))))) & (CYGSEM_KERNEL_SCHED_MLQUEUE | !CYGFUN_KERNEL_API_C | CYGSEM_KERNEL_SCHED_BITMAP | !CYGPKG_SNMPLIB_CFLAGS_ADD | !CYGPKG_NET_FREEBSD_STACK))) & (!CYGPKG_SNMPAGENT_CFLAGS_ADD | CYGSEM_KERNEL_SCHED_MLQUEUE | !CYGFUN_KERNEL_API_C | CYGSEM_KERNEL_SCHED_BITMAP | !CYGPKG_NET_FREEBSD_STACK))) & (!CYGPKG_NET_FREEBSD_STACK_CFLAGS_ADD | ((CYGPKG_SNMPAGENT_CFLAGS_ADD | ((CYGPKG_SNMPLIB_CFLAGS_ADD | ((CYGPKG_HTTPD_CFLAGS_ADD | ((CYGPKG_NET_FTPCLIENT_CFLAGS_ADD | ((CYGPKG_PPP_CFLAGS_ADD | ((CYGPKG_NS_DNS_CFLAGS_ADD | ((CYGPKG_FS_JFFS2_CFLAGS_ADD | ((!CYGPKG_DEVS_ETH_AMD_LANCEPCI_CFLAGS_ADD | CYGPKG_IO_ETH_DRIVERS_CFLAGS_ADD | CYGSEM_KERNEL_SCHED_MLQUEUE | !CYGFUN_KERNEL_API_C | CYGSEM_KERNEL_SCHED_BITMAP | !CYGPKG_NET_FREEBSD_STACK) & (!CYGPKG_IO_ETH_DRIVERS_CFLAGS_ADD | CYGSEM_KERNEL_SCHED_MLQUEUE | !CYGFUN_KERNEL_API_C | CYGSEM_KERNEL_SCHED_BITMAP | !CYGPKG_NET_FREEBSD_STACK))) & (CYGSEM_KERNEL_SCHED_MLQUEUE | !CYGFUN_KERNEL_API_C | CYGSEM_KERNEL_SCHED_BITMAP | !CYGPKG_FS_JFFS2_CFLAGS_ADD | !CYGPKG_NET_FREEBSD_STACK))) & (!CYGPKG_NS_DNS_CFLAGS_ADD | CYGSEM_KERNEL_SCHED_MLQUEUE | !CYGFUN_KERNEL_API_C | CYGSEM_KERNEL_SCHED_BITMAP | !CYGPKG_NET_FREEBSD_STACK))) & (!CYGPKG_PPP_CFLAGS_ADD | CYGSEM_KERNEL_SCHED_MLQUEUE | !CYGFUN_KERNEL_API_C | CYGSEM_KERNEL_SCHED_BITMAP | !CYGPKG_NET_FREEBSD_STACK))) & (CYGSEM_KERNEL_SCHED_MLQUEUE | !CYGPKG_NET_FTPCLIENT_CFLAGS_ADD | !CYGFUN_KERNEL_API_C | CYGSEM_KERNEL_SCHED_BITMAP | !CYGPKG_NET_FREEBSD_STACK))) & (CYGSEM_KERNEL_SCHED_MLQUEUE | !CYGFUN_KERNEL_API_C | CYGSEM_KERNEL_SCHED_BITMAP | !CYGPKG_HTTPD_CFLAGS_ADD | !CYGPKG_NET_FREEBSD_STACK))) & (CYGSEM_KERNEL_SCHED_MLQUEUE | !CYGFUN_KERNEL_API_C | CYGSEM_KERNEL_SCHED_BITMAP | !CYGPKG_SNMPLIB_CFLAGS_ADD | !CYGPKG_NET_FREEBSD_STACK))) & (!CYGPKG_SNMPAGENT_CFLAGS_ADD | CYGSEM_KERNEL_SCHED_MLQUEUE | !CYGFUN_KERNEL_API_C | CYGSEM_KERNEL_SCHED_BITMAP | !CYGPKG_NET_FREEBSD_STACK))))) & (!CYGPKG_NET_CFLAGS_ADD | CYGSEM_KERNEL_SCHED_MLQUEUE | !CYGFUN_KERNEL_API_C | CYGSEM_KERNEL_SCHED_BITMAP | !CYGPKG_NET_FREEBSD_STACK)))
124	2994	0	 !CYGPKG_PPP | CYGPKG_IO_FILEIO | CYGFUN_KERNEL_API_C & !CYGSEM_KERNEL_SCHED_BITMAP & !CYGSEM_KERNEL_SCHED_MLQUEUE
125	87	0	 !CYGFUN_KERNEL_API_C | CYGFUN_IO_FILEIO_SELECT | CYGSEM_KERNEL_SCHED_BITMAP | CYGSEM_KERNEL_SCHED_MLQUEUE | !CYGOPT_FS_JFFS2_COMPRESS_ZLIB
126	198	0	 !CYGPKG_NS_DNS | CYGINT_ISO_DNS | !CYGPKG_NET_INET | !CYGFUN_KERNEL_API_C | !CYGPKG_NS_DNS_BUILD | CYGPKG_NET_CFLAGS_ADD | CYGPKG_NS_DNS_CFLAGS_ADD | CYGPKG_SNMPLIB_CFLAGS_ADD | CYGSEM_KERNEL_SCHED_BITMAP | CYGPKG_NET_SNTP_CFLAGS_ADD | CYGPKG_SNMPAGENT_CFLAGS_ADD | CYGSEM_KERNEL_SCHED_MLQUEUE | CYGPKG_NET_FTPCLIENT_CFLAGS_ADD | CYGPKG_IO_ETH_DRIVERS_CFLAGS_ADD | CYGPKG_NET_FREEBSD_STACK_CFLAGS_ADD | CYGPKG_DEVS_ETH_AMD_LANCEPCI_CFLAGS_ADD
127	423	0	 !CYGPKG_KERNEL | !CYGFUN_KERNEL_API_C | CYGSEM_KERNEL_SCHED_BITMAP | !CYGPKG_IO_ETH_DRIVERS_LWIP | CYGSEM_KERNEL_SCHED_MLQUEUE
128	141	0	 !CYGPKG_KERNEL | !CYGFUN_KERNEL_API_C | CYGSEM_KERNEL_SCHED_BITMAP | CYGSEM_KERNEL_SCHED_MLQUEUE | !CYGPKG_IO_ETH_DRIVERS_STAND_ALONE
129	127	0	 !CYGPKG_NET_INET | !CYGFUN_KERNEL_API_C | CYGSEM_KERNEL_SCHED_BITMAP | CYGSEM_KERNEL_SCHED_MLQUEUE
130	42	0	 !CYGPKG_FS_ROM | !CYGFUN_KERNEL_API_C | !CYGFUN_IO_FILEIO_SELECT | CYGSEM_KERNEL_SCHED_BITMAP | CYGSEM_KERNEL_SCHED_MLQUEUE
131	99	0	CYGPKG_KERNEL | ~CYGINT_ISO_DNS | ~CYGFUN_KERNEL_API_C | ~CYGPKG_NS_DNS_BUILD | CYGSEM_KERNEL_SCHED_BITMAP | CYGSEM_KERNEL_SCHED_MLQUEUE
132	71	0	 !CYGPKG_NET_DHCP | !CYGPKG_NET_INET | !CYGFUN_KERNEL_API_C | CYGSEM_KERNEL_SCHED_BITMAP | CYGSEM_KERNEL_SCHED_MLQUEUE
133	83	0	 !CYGPKG_KERNEL | !CYGFUN_KERNEL_API_C | !CYGPKG_IO_SERIAL_TERMIOS | CYGSEM_KERNEL_SCHED_BITMAP | CYGSEM_KERNEL_SCHED_MLQUEUE | !CYGBLD_IO_SERIAL_TERMIOS_TERMIOS_TTY
