1	4731	0	 !CYGPKG_INFRA | !CYGPKG_ISOINFRA | CYGINT_ISO_STRERROR | !CYGIMP_LIBC_STDIO_INLINES | !CYGINT_ISO_STDIO_FILETYPES | !CYGINT_ISO_STDIO_FILEACCESS & !CYGINT_ISO_STDIO_FORMATTED_IO | CYGINT_ISO_ABS & CYGINT_ISO_EXIT | CYGINT_ISO_DIV & CYGINT_ISO_EXIT | CYGINT_ISO_EXIT & CYGINT_LIBC_I18N_MB_REQUIRED | CYGINT_ISO_EXIT & CYGINT_ISO_STDLIB_MULTIBYTE
2	532	0	CYGINT_ISO_MALLOC | ~CYGPKG_COMPRESS_ZLIB | ~CYGPKG_COMPRESS_ZLIB_CFLAGS_ADD | CYGINT_COMPRESS_ZLIB_LOCAL_ALLOC
3	118	0	 !CYGPKG_HAL_I386 | CYGPKG_HAL_SMP_CPU_MAX | !CYGPKG_HAL_SMP_SUPPORT
4	32	0	 !CYGPKG_HAL_I386_PC | !CYGPKG_HAL_SMP_SUPPORT | !CYGDBG_HAL_DEBUG_GDB_INCLUDE_STUBS
5	84	0	 !CYGPKG_LIBM | !CYGSEM_LIBM_USE_STDERR | CYGINT_ISO_STDIO_ERROR | CYGINT_ISO_STDIO_FILEOPS | CYGINT_ISO_STDIO_FILEPOS | CYGINT_ISO_STDIO_CHAR_IO | CYGINT_ISO_STDIO_STREAMS | CYGINT_ISO_STDIO_DIRECT_IO | CYGINT_ISO_STDIO_FILETYPES | CYGINT_ISO_STDIO_FILEACCESS | CYGINT_ISO_STDIO_FORMATTED_IO | !CYGINT_ISO_STDIO_POSIX_FDFUNCS
6	915	0	 !CYGPKG_NET_INET | CYGINT_ISO_STRTOK_R | CYGINT_ISO_STRING_MEMFUNCS | CYGINT_ISO_STRING_STRFUNCS | CYGINT_ISO_STRING_LOCALE_FUNCS
7	53	0	CYGINT_ISO_STDIO_ERROR | CYGINT_ISO_STDIO_FILEOPS | CYGINT_ISO_STDIO_FILEPOS | CYGINT_ISO_STDIO_CHAR_IO | CYGINT_ISO_STDIO_STREAMS | ~CYGFUN_COMPRESS_ZLIB_GZIO | CYGINT_ISO_STDIO_DIRECT_IO | CYGINT_ISO_STDIO_FILETYPES | CYGINT_ISO_STDIO_FILEACCESS | CYGINT_ISO_STDIO_FORMATTED_IO | CYGPKG_COMPRESS_ZLIB_CFLAGS_ADD
8	11024	1	(!CYGPKG_INFRA | ((!CYGIMP_LIBC_STDIO_INLINES | ((CYGINT_LIBC_I18N_MB_REQUIRED | ((CYGINT_ISO_STDLIB_MULTIBYTE | ((!CYGINT_ISO_EXIT | ((!CYGPKG_ISOINFRA | !CYGINT_ISO_STDIO_FILEOPS | !CYGINT_ISO_STDIO_FILEACCESS | CYGINT_ISO_STDIO_STREAMS | CYGINT_ISO_STDIO_FILETYPES | CYGINT_ISO_STDIO_FORMATTED_IO) & (!CYGPKG_ISOINFRA | !CYGINT_ISO_STDIO_FILEOPS | CYGINT_ISO_STDIO_STREAMS | !CYGINT_ISO_STDIO_FORMATTED_IO | CYGINT_ISO_STDIO_FILETYPES)) | !CYGINT_ISO_ABS | CYGINT_ISO_DIV) & (!CYGINT_ISO_EXIT | ((!CYGPKG_ISOINFRA | !CYGINT_ISO_STDIO_FILEOPS | !CYGINT_ISO_STDIO_FILEACCESS | CYGINT_ISO_STDIO_STREAMS | CYGINT_ISO_STDIO_FILETYPES | CYGINT_ISO_STDIO_FORMATTED_IO) & (!CYGPKG_ISOINFRA | !CYGINT_ISO_STDIO_FILEOPS | CYGINT_ISO_STDIO_STREAMS | !CYGINT_ISO_STDIO_FORMATTED_IO | CYGINT_ISO_STDIO_FILETYPES)) | !CYGINT_ISO_DIV))) & (!CYGINT_ISO_EXIT | ((!CYGPKG_ISOINFRA | !CYGINT_ISO_STDIO_FILEOPS | !CYGINT_ISO_STDIO_FILEACCESS | CYGINT_ISO_STDIO_STREAMS | CYGINT_ISO_STDIO_FILETYPES | CYGINT_ISO_STDIO_FORMATTED_IO) & (!CYGPKG_ISOINFRA | !CYGINT_ISO_STDIO_FILEOPS | CYGINT_ISO_STDIO_STREAMS | !CYGINT_ISO_STDIO_FORMATTED_IO | CYGINT_ISO_STDIO_FILETYPES)) | !CYGINT_ISO_STDLIB_MULTIBYTE))) & (!CYGINT_ISO_EXIT | ((!CYGPKG_ISOINFRA | !CYGINT_ISO_STDIO_FILEOPS | !CYGINT_ISO_STDIO_FILEACCESS | CYGINT_ISO_STDIO_STREAMS | CYGINT_ISO_STDIO_FILETYPES | CYGINT_ISO_STDIO_FORMATTED_IO) & (!CYGPKG_ISOINFRA | !CYGINT_ISO_STDIO_FILEOPS | CYGINT_ISO_STDIO_STREAMS | !CYGINT_ISO_STDIO_FORMATTED_IO | CYGINT_ISO_STDIO_FILETYPES)) | !CYGINT_LIBC_I18N_MB_REQUIRED)) | CYGPKG_ERROR_ERRNO) & (!CYGIMP_LIBC_STDIO_INLINES | ((CYGINT_LIBC_I18N_MB_REQUIRED | ((CYGINT_ISO_STDLIB_MULTIBYTE | ((!CYGINT_ISO_EXIT | ((!CYGPKG_ISOINFRA | !CYGINT_ISO_STDIO_FILEOPS | !CYGINT_ISO_STDIO_FILEACCESS | CYGINT_ISO_ERRNO | CYGINT_ISO_STDIO_STREAMS | CYGINT_ISO_STDIO_FILETYPES | CYGINT_ISO_STDIO_FORMATTED_IO) & (!CYGPKG_ISOINFRA | !CYGINT_ISO_STDIO_FILEOPS | CYGINT_ISO_ERRNO | CYGINT_ISO_STDIO_STREAMS | !CYGINT_ISO_STDIO_FORMATTED_IO | CYGINT_ISO_STDIO_FILETYPES)) | !CYGINT_ISO_ABS | CYGINT_ISO_DIV) & (!CYGINT_ISO_EXIT | ((!CYGPKG_ISOINFRA | !CYGINT_ISO_STDIO_FILEOPS | !CYGINT_ISO_STDIO_FILEACCESS | CYGINT_ISO_ERRNO | CYGINT_ISO_STDIO_STREAMS | CYGINT_ISO_STDIO_FILETYPES | CYGINT_ISO_STDIO_FORMATTED_IO) & (!CYGPKG_ISOINFRA | !CYGINT_ISO_STDIO_FILEOPS | CYGINT_ISO_ERRNO | CYGINT_ISO_STDIO_STREAMS | !CYGINT_ISO_STDIO_FORMATTED_IO | CYGINT_ISO_STDIO_FILETYPES)) | !CYGINT_ISO_DIV))) & (!CYGINT_ISO_EXIT | ((!CYGPKG_ISOINFRA | !CYGINT_ISO_STDIO_FILEOPS | !CYGINT_ISO_STDIO_FILEACCESS | CYGINT_ISO_ERRNO | CYGINT_ISO_STDIO_STREAMS | CYGINT_ISO_STDIO_FILETYPES | CYGINT_ISO_STDIO_FORMATTED_IO) & (!CYGPKG_ISOINFRA | !CYGINT_ISO_STDIO_FILEOPS | CYGINT_ISO_ERRNO | CYGINT_ISO_STDIO_STREAMS | !CYGINT_ISO_STDIO_FORMATTED_IO | CYGINT_ISO_STDIO_FILETYPES)) | !CYGINT_ISO_STDLIB_MULTIBYTE))) & (!CYGINT_ISO_EXIT | ((!CYGPKG_ISOINFRA | !CYGINT_ISO_STDIO_FILEOPS | !CYGINT_ISO_STDIO_FILEACCESS | CYGINT_ISO_ERRNO | CYGINT_ISO_STDIO_STREAMS | CYGINT_ISO_STDIO_FILETYPES | CYGINT_ISO_STDIO_FORMATTED_IO) & (!CYGPKG_ISOINFRA | !CYGINT_ISO_STDIO_FILEOPS | CYGINT_ISO_ERRNO | CYGINT_ISO_STDIO_STREAMS | !CYGINT_ISO_STDIO_FORMATTED_IO | CYGINT_ISO_STDIO_FILETYPES)) | !CYGINT_LIBC_I18N_MB_REQUIRED)) | !CYGPKG_ERROR_ERRNO)))
9	4056	0	CYGINT_ISO_STDIO_FILEOPS | ~CYGINT_ISO_STDIO_CHAR_IO | CYGINT_ISO_STDIO_STREAMS | ~CYGIMP_LIBC_STDIO_INLINES | ~CYGFUN_COMPRESS_ZLIB_GZIO | CYGINT_ISO_STDIO_FILETYPES | CYGINT_ISO_STDIO_FILEACCESS | CYGINT_ISO_STDIO_FORMATTED_IO | CYGINT_ISO_ERRNO & CYGPKG_ERROR_ERRNO
10	6507	0	 !CYGPKG_INFRA | !CYGPKG_ISOINFRA | CYGINT_ISO_STDIO_FILEOPS | CYGINT_ISO_STDIO_STREAMS | !CYGIMP_LIBC_STDIO_INLINES | CYGINT_ISO_STDIO_FILETYPES | !CYGINT_ISO_STDIO_FILEACCESS | CYGINT_ISO_ABS & CYGINT_ISO_EXIT | CYGINT_ISO_DIV & CYGINT_ISO_EXIT | CYGINT_ISO_ERRNO & CYGPKG_ERROR_ERRNO | CYGINT_ISO_EXIT & CYGINT_LIBC_I18N_MB_REQUIRED | CYGINT_ISO_EXIT & CYGINT_ISO_STDLIB_MULTIBYTE
11	145	0	CYGPKG_KERNEL | CYGPKG_HAL_SMP_CPU_MAX | ~CYGPKG_HAL_SMP_SUPPORT | ~CYGPKG_HAL & ~CYGDBG_HAL_DEBUG_GDB_INCLUDE_STUBS
12	101	0	 !CYGPKG_LIBM | CYGINT_ISO_STRERROR | !CYGSEM_LIBM_USE_STDERR | !CYGINT_ISO_STDIO_ERROR | CYGINT_ISO_STDIO_FILEOPS | CYGINT_ISO_STDIO_FILEPOS | CYGINT_ISO_STDIO_CHAR_IO | CYGINT_ISO_STDIO_STREAMS | !CYGIMP_LIBC_STDIO_INLINES | CYGINT_ISO_STDIO_DIRECT_IO | CYGINT_ISO_STDIO_FILETYPES | CYGINT_ISO_STDIO_FILEACCESS | CYGINT_ISO_STDIO_FORMATTED_IO
13	508	0	 !CYGPKG_LIBM | !CYGSEM_LIBM_USE_STDERR | CYGINT_ISO_STDIO_FILEOPS | CYGINT_ISO_STDIO_STREAMS | !CYGIMP_LIBC_STDIO_INLINES | CYGINT_ISO_STDIO_FILETYPES | !CYGINT_ISO_STDIO_FILEACCESS | CYGSEM_LIBM_COMPAT_IEEE_ONLY | CYGINT_ISO_ERRNO & CYGPKG_ERROR_ERRNO
14	65	0	CYGINT_ISO_STRERROR | CYGINT_ISO_STDIO_FILEOPS | CYGINT_ISO_STDIO_CHAR_IO | CYGINT_ISO_STDIO_STREAMS | ~CYGIMP_LIBC_STDIO_INLINES | ~CYGFUN_COMPRESS_ZLIB_GZIO | ~CYGINT_ISO_STDIO_DIRECT_IO | CYGINT_ISO_STDIO_FILETYPES | CYGINT_ISO_STDIO_FILEACCESS | CYGINT_ISO_STDIO_FORMATTED_IO
15	113	0	 !CYGPKG_PPP | CYGINT_ISO_STRERROR | CYGINT_ISO_STDIO_FILEOPS | CYGINT_ISO_STDIO_STREAMS | !CYGIMP_LIBC_STDIO_INLINES | CYGINT_ISO_STDIO_FILETYPES | CYGINT_ISO_STDIO_FILEACCESS | !CYGINT_ISO_STDIO_FORMATTED_IO
16	96	0	CYGPKG_ERROR | ~CYGPKG_BLOCK_LIB | CYGINT_ISO_STRERROR
17	99	0	 !CYGPKG_PPP | CYGINT_ISO_STRERROR | CYGINT_ISO_STDIO_FILEOPS | CYGINT_ISO_STDIO_STREAMS | !CYGIMP_LIBC_STDIO_INLINES | CYGINT_ISO_STDIO_FILETYPES | !CYGINT_ISO_STDIO_FILEACCESS
18	135	0	 !CYGINT_ISO_STDIO_ERROR | CYGINT_ISO_STDIO_FILEOPS | CYGINT_ISO_STDIO_FILEPOS | CYGINT_ISO_STDIO_CHAR_IO | CYGINT_ISO_STDIO_STREAMS | !CYGIMP_LIBC_STDIO_INLINES | !CYGFUN_COMPRESS_ZLIB_GZIO | CYGINT_ISO_STDIO_DIRECT_IO | CYGINT_ISO_STDIO_FILETYPES | CYGINT_ISO_STDIO_FILEACCESS | CYGINT_ISO_STDIO_FORMATTED_IO | CYGINT_ISO_ERRNO & CYGPKG_ERROR_ERRNO
19	47	0	CYGPKG_KERNEL | ~CYGPKG_HAL_SMP_SUPPORT | ~CYGPKG_HAL & ~CYGDBG_HAL_DEBUG_GDB_INCLUDE_STUBS
20	132	0	CYGINT_ISO_STDIO_FILEOPS | ~CYGINT_ISO_STDIO_FILEPOS | CYGINT_ISO_STDIO_CHAR_IO | CYGINT_ISO_STDIO_STREAMS | ~CYGIMP_LIBC_STDIO_INLINES | ~CYGFUN_COMPRESS_ZLIB_GZIO | CYGINT_ISO_STDIO_DIRECT_IO | CYGINT_ISO_STDIO_FILETYPES | CYGINT_ISO_STDIO_FILEACCESS | CYGINT_ISO_STDIO_FORMATTED_IO | CYGINT_ISO_ERRNO & CYGPKG_ERROR_ERRNO
21	42	0	 !CYGPKG_PPP | !CYGINT_ISO_STDIO_FILEOPS | CYGINT_ISO_STDIO_STREAMS | !CYGIMP_LIBC_STDIO_INLINES | CYGINT_ISO_STDIO_FILETYPES | CYGINT_ISO_ERRNO & CYGPKG_ERROR_ERRNO
22	89	0	 !CYGPKG_NET_INET | !CYGINT_ISO_STRERROR & !CYGINT_ISO_ERRNO_CODES | CYGINT_ISO_ERRNO & CYGPKG_ERROR_ERRNO
23	86	0	 !CYGPKG_LIBM | CYGINT_ISO_STRERROR | !CYGSEM_LIBM_USE_STDERR | CYGINT_ISO_STDIO_FILEOPS | !CYGINT_ISO_STDIO_CHAR_IO | CYGINT_ISO_STDIO_STREAMS | !CYGIMP_LIBC_STDIO_INLINES | CYGINT_ISO_STDIO_FILETYPES | CYGINT_ISO_STDIO_FILEACCESS | CYGINT_ISO_STDIO_FORMATTED_IO
24	41	0	 !CYGPKG_LIBM | !CYGSEM_LIBM_USE_STDERR | !CYGIMP_LIBC_STDIO_INLINES | !CYGINT_ISO_STDIO_FILETYPES | CYGSEM_LIBM_COMPAT_IEEE_ONLY | CYGINT_ISO_ERRNO & CYGPKG_ERROR_ERRNO
25	456	0	 !CYGPKG_PPP | !CYGINT_ISO_EXIT | !CYGINT_ISO_STDIO_FORMATTED_IO | !CYGPKG_NET_CFLAGS_ADD & !CYGPKG_NS_DNS_CFLAGS_ADD & !CYGPKG_SNMPLIB_CFLAGS_ADD & !CYGPKG_NET_SNTP_CFLAGS_ADD & !CYGPKG_SNMPAGENT_CFLAGS_ADD & !CYGPKG_NET_FTPCLIENT_CFLAGS_ADD & !CYGPKG_IO_ETH_DRIVERS_CFLAGS_ADD & !CYGPKG_NET_FREEBSD_STACK_CFLAGS_ADD & !CYGPKG_DEVS_ETH_AMD_LANCEPCI_CFLAGS_ADD
26	1242	0	 !CYGPKG_INFRA | !CYGPKG_ISOINFRA | CYGINT_ISO_STRERROR | !CYGINT_ISO_STDIO_FILEOPS | CYGINT_ISO_STDIO_STREAMS | !CYGIMP_LIBC_STDIO_INLINES | CYGINT_ISO_STDIO_FILETYPES | !CYGINT_ISO_STDIO_FILEACCESS & !CYGINT_ISO_STDIO_FORMATTED_IO | CYGINT_ISO_ABS & CYGINT_ISO_EXIT | CYGINT_ISO_DIV & CYGINT_ISO_EXIT | CYGINT_ISO_EXIT & CYGINT_LIBC_I18N_MB_REQUIRED | CYGINT_ISO_EXIT & CYGINT_ISO_STDLIB_MULTIBYTE
27	32	0	CYGINT_ISO_STRERROR | CYGINT_ISO_STDIO_FILEOPS | CYGINT_ISO_STDIO_STREAMS | ~CYGIMP_LIBC_STDIO_INLINES | ~CYGFUN_COMPRESS_ZLIB_GZIO | CYGINT_ISO_STDIO_FILETYPES | ~CYGINT_ISO_STDIO_FILEACCESS
28	11053	1	(!CYGPKG_PPP | ((CYGPKG_NET_CFLAGS_ADD | ((CYGPKG_NET_FREEBSD_STACK_CFLAGS_ADD | ((CYGPKG_SNMPAGENT_CFLAGS_ADD | ((CYGPKG_SNMPLIB_CFLAGS_ADD | ((CYGPKG_NET_FTPCLIENT_CFLAGS_ADD | ((CYGPKG_NS_DNS_CFLAGS_ADD | ((CYGPKG_NET_SNTP_CFLAGS_ADD | ((CYGPKG_IO_ETH_DRIVERS_CFLAGS_ADD | ((CYGPKG_DEVS_ETH_AMD_LANCEPCI_CFLAGS_ADD | ((CYGINT_ISO_STRERROR | CYGINT_ISO_ERRNO_CODES | CYGPKG_ERROR | CYGPKG_ERROR_ERRNO) & (CYGINT_ISO_ERRNO_CODES | !CYGPKG_ERROR_ERRNO | CYGINT_ISO_ERRNO | CYGINT_ISO_STRERROR | CYGPKG_ERROR))) & (!CYGPKG_DEVS_ETH_AMD_LANCEPCI_CFLAGS_ADD | ((CYGPKG_ERROR_ERRNO | ((CYGIMP_LIBC_STDIO_INLINES | CYGINT_ISO_STRERROR) & (CYGINT_ISO_STRERROR | ((CYGINT_ISO_STDIO_ERROR | ((CYGINT_ISO_STDIO_FILEPOS | ((CYGINT_ISO_STDIO_DIRECT_IO | ((CYGINT_ISO_STDIO_CHAR_IO | ((CYGINT_ISO_STDIO_FORMATTED_IO | ((CYGINT_ISO_STDIO_FILEACCESS | ((CYGINT_ISO_STDIO_FILEOPS | ((CYGINT_ISO_STDIO_STREAMS | (CYGINT_ISO_STDIO_FILETYPES & CYGINT_ISO_ERRNO_CODES)) & (!CYGINT_ISO_STDIO_STREAMS | CYGINT_ISO_ERRNO_CODES))) & (!CYGINT_ISO_STDIO_FILEOPS | CYGINT_ISO_ERRNO_CODES))) & (!CYGINT_ISO_STDIO_FILEACCESS | CYGINT_ISO_ERRNO_CODES))) & (!CYGINT_ISO_STDIO_FORMATTED_IO | CYGINT_ISO_ERRNO_CODES))) & (!CYGINT_ISO_STDIO_CHAR_IO | CYGINT_ISO_ERRNO_CODES))) & (!CYGINT_ISO_STDIO_DIRECT_IO | CYGINT_ISO_ERRNO_CODES))) & (!CYGINT_ISO_STDIO_FILEPOS | CYGINT_ISO_ERRNO_CODES))) & (!CYGINT_ISO_STDIO_ERROR | CYGINT_ISO_ERRNO_CODES)) | !CYGIMP_LIBC_STDIO_INLINES))) & (!CYGPKG_ERROR_ERRNO | ((CYGIMP_LIBC_STDIO_INLINES | CYGINT_ISO_STRERROR) & (CYGINT_ISO_STRERROR | ((CYGINT_ISO_STDIO_ERROR | ((CYGINT_ISO_STDIO_FILEPOS | ((CYGINT_ISO_STDIO_DIRECT_IO | ((CYGINT_ISO_STDIO_CHAR_IO | ((CYGINT_ISO_STDIO_FORMATTED_IO | ((CYGINT_ISO_STDIO_FILEACCESS | ((CYGINT_ISO_STDIO_FILEOPS | ((CYGINT_ISO_STDIO_STREAMS | (CYGINT_ISO_STDIO_FILETYPES & (CYGINT_ISO_ERRNO | CYGINT_ISO_ERRNO_CODES))) & (CYGINT_ISO_ERRNO | CYGINT_ISO_ERRNO_CODES | !CYGINT_ISO_STDIO_STREAMS))) & (CYGINT_ISO_ERRNO | CYGINT_ISO_ERRNO_CODES | !CYGINT_ISO_STDIO_FILEOPS))) & (CYGINT_ISO_ERRNO | CYGINT_ISO_ERRNO_CODES | !CYGINT_ISO_STDIO_FILEACCESS))) & (CYGINT_ISO_ERRNO | CYGINT_ISO_ERRNO_CODES | !CYGINT_ISO_STDIO_FORMATTED_IO))) & (CYGINT_ISO_ERRNO | CYGINT_ISO_ERRNO_CODES | !CYGINT_ISO_STDIO_CHAR_IO))) & (CYGINT_ISO_ERRNO | CYGINT_ISO_ERRNO_CODES | !CYGINT_ISO_STDIO_DIRECT_IO))) & (CYGINT_ISO_ERRNO | CYGINT_ISO_ERRNO_CODES | !CYGINT_ISO_STDIO_FILEPOS))) & (CYGINT_ISO_ERRNO | CYGINT_ISO_ERRNO_CODES | !CYGINT_ISO_STDIO_ERROR)) | !CYGIMP_LIBC_STDIO_INLINES))))))) & (!CYGPKG_IO_ETH_DRIVERS_CFLAGS_ADD | ((CYGPKG_ERROR_ERRNO | ((CYGIMP_LIBC_STDIO_INLINES | CYGINT_ISO_STRERROR) & (CYGINT_ISO_STRERROR | ((CYGINT_ISO_STDIO_ERROR | ((CYGINT_ISO_STDIO_FILEPOS | ((CYGINT_ISO_STDIO_DIRECT_IO | ((CYGINT_ISO_STDIO_CHAR_IO | ((CYGINT_ISO_STDIO_FORMATTED_IO | ((CYGINT_ISO_STDIO_FILEACCESS | ((CYGINT_ISO_STDIO_FILEOPS | ((CYGINT_ISO_STDIO_STREAMS | (CYGINT_ISO_STDIO_FILETYPES & CYGINT_ISO_ERRNO_CODES)) & (!CYGINT_ISO_STDIO_STREAMS | CYGINT_ISO_ERRNO_CODES))) & (!CYGINT_ISO_STDIO_FILEOPS | CYGINT_ISO_ERRNO_CODES))) & (!CYGINT_ISO_STDIO_FILEACCESS | CYGINT_ISO_ERRNO_CODES))) & (!CYGINT_ISO_STDIO_FORMATTED_IO | CYGINT_ISO_ERRNO_CODES))) & (!CYGINT_ISO_STDIO_CHAR_IO | CYGINT_ISO_ERRNO_CODES))) & (!CYGINT_ISO_STDIO_DIRECT_IO | CYGINT_ISO_ERRNO_CODES))) & (!CYGINT_ISO_STDIO_FILEPOS | CYGINT_ISO_ERRNO_CODES))) & (!CYGINT_ISO_STDIO_ERROR | CYGINT_ISO_ERRNO_CODES)) | !CYGIMP_LIBC_STDIO_INLINES))) & (!CYGPKG_ERROR_ERRNO | ((CYGIMP_LIBC_STDIO_INLINES | CYGINT_ISO_STRERROR) & (CYGINT_ISO_STRERROR | ((CYGINT_ISO_STDIO_ERROR | ((CYGINT_ISO_STDIO_FILEPOS | ((CYGINT_ISO_STDIO_DIRECT_IO | ((CYGINT_ISO_STDIO_CHAR_IO | ((CYGINT_ISO_STDIO_FORMATTED_IO | ((CYGINT_ISO_STDIO_FILEACCESS | ((CYGINT_ISO_STDIO_FILEOPS | ((CYGINT_ISO_STDIO_STREAMS | (CYGINT_ISO_STDIO_FILETYPES & (CYGINT_ISO_ERRNO | CYGINT_ISO_ERRNO_CODES))) & (CYGINT_ISO_ERRNO | CYGINT_ISO_ERRNO_CODES | !CYGINT_ISO_STDIO_STREAMS))) & (CYGINT_ISO_ERRNO | CYGINT_ISO_ERRNO_CODES | !CYGINT_ISO_STDIO_FILEOPS))) & (CYGINT_ISO_ERRNO | CYGINT_ISO_ERRNO_CODES | !CYGINT_ISO_STDIO_FILEACCESS))) & (CYGINT_ISO_ERRNO | CYGINT_ISO_ERRNO_CODES | !CYGINT_ISO_STDIO_FORMATTED_IO))) & (CYGINT_ISO_ERRNO | CYGINT_ISO_ERRNO_CODES | !CYGINT_ISO_STDIO_CHAR_IO))) & (CYGINT_ISO_ERRNO | CYGINT_ISO_ERRNO_CODES | !CYGINT_ISO_STDIO_DIRECT_IO))) & (CYGINT_ISO_ERRNO | CYGINT_ISO_ERRNO_CODES | !CYGINT_ISO_STDIO_FILEPOS))) & (CYGINT_ISO_ERRNO | CYGINT_ISO_ERRNO_CODES | !CYGINT_ISO_STDIO_ERROR)) | !CYGIMP_LIBC_STDIO_INLINES))))))) & (!CYGPKG_NET_SNTP_CFLAGS_ADD | ((CYGPKG_ERROR_ERRNO | ((CYGIMP_LIBC_STDIO_INLINES | CYGINT_ISO_STRERROR) & (CYGINT_ISO_STRERROR | ((CYGINT_ISO_STDIO_ERROR | ((CYGINT_ISO_STDIO_FILEPOS | ((CYGINT_ISO_STDIO_DIRECT_IO | ((CYGINT_ISO_STDIO_CHAR_IO | ((CYGINT_ISO_STDIO_FORMATTED_IO | ((CYGINT_ISO_STDIO_FILEACCESS | ((CYGINT_ISO_STDIO_FILEOPS | ((CYGINT_ISO_STDIO_STREAMS | (CYGINT_ISO_STDIO_FILETYPES & CYGINT_ISO_ERRNO_CODES)) & (!CYGINT_ISO_STDIO_STREAMS | CYGINT_ISO_ERRNO_CODES))) & (!CYGINT_ISO_STDIO_FILEOPS | CYGINT_ISO_ERRNO_CODES))) & (!CYGINT_ISO_STDIO_FILEACCESS | CYGINT_ISO_ERRNO_CODES))) & (!CYGINT_ISO_STDIO_FORMATTED_IO | CYGINT_ISO_ERRNO_CODES))) & (!CYGINT_ISO_STDIO_CHAR_IO | CYGINT_ISO_ERRNO_CODES))) & (!CYGINT_ISO_STDIO_DIRECT_IO | CYGINT_ISO_ERRNO_CODES))) & (!CYGINT_ISO_STDIO_FILEPOS | CYGINT_ISO_ERRNO_CODES))) & (!CYGINT_ISO_STDIO_ERROR | CYGINT_ISO_ERRNO_CODES)) | !CYGIMP_LIBC_STDIO_INLINES))) & (!CYGPKG_ERROR_ERRNO | ((CYGIMP_LIBC_STDIO_INLINES | CYGINT_ISO_STRERROR) & (CYGINT_ISO_STRERROR | ((CYGINT_ISO_STDIO_ERROR | ((CYGINT_ISO_STDIO_FILEPOS | ((CYGINT_ISO_STDIO_DIRECT_IO | ((CYGINT_ISO_STDIO_CHAR_IO | ((CYGINT_ISO_STDIO_FORMATTED_IO | ((CYGINT_ISO_STDIO_FILEACCESS | ((CYGINT_ISO_STDIO_FILEOPS | ((CYGINT_ISO_STDIO_STREAMS | (CYGINT_ISO_STDIO_FILETYPES & (CYGINT_ISO_ERRNO | CYGINT_ISO_ERRNO_CODES))) & (CYGINT_ISO_ERRNO | CYGINT_ISO_ERRNO_CODES | !CYGINT_ISO_STDIO_STREAMS))) & (CYGINT_ISO_ERRNO | CYGINT_ISO_ERRNO_CODES | !CYGINT_ISO_STDIO_FILEOPS))) & (CYGINT_ISO_ERRNO | CYGINT_ISO_ERRNO_CODES | !CYGINT_ISO_STDIO_FILEACCESS))) & (CYGINT_ISO_ERRNO | CYGINT_ISO_ERRNO_CODES | !CYGINT_ISO_STDIO_FORMATTED_IO))) & (CYGINT_ISO_ERRNO | CYGINT_ISO_ERRNO_CODES | !CYGINT_ISO_STDIO_CHAR_IO))) & (CYGINT_ISO_ERRNO | CYGINT_ISO_ERRNO_CODES | !CYGINT_ISO_STDIO_DIRECT_IO))) & (CYGINT_ISO_ERRNO | CYGINT_ISO_ERRNO_CODES | !CYGINT_ISO_STDIO_FILEPOS))) & (CYGINT_ISO_ERRNO | CYGINT_ISO_ERRNO_CODES | !CYGINT_ISO_STDIO_ERROR)) | !CYGIMP_LIBC_STDIO_INLINES))))))) & (!CYGPKG_NS_DNS_CFLAGS_ADD | ((CYGPKG_ERROR_ERRNO | ((CYGIMP_LIBC_STDIO_INLINES | CYGINT_ISO_STRERROR) & (CYGINT_ISO_STRERROR | ((CYGINT_ISO_STDIO_ERROR | ((CYGINT_ISO_STDIO_FILEPOS | ((CYGINT_ISO_STDIO_DIRECT_IO | ((CYGINT_ISO_STDIO_CHAR_IO | ((CYGINT_ISO_STDIO_FORMATTED_IO | ((CYGINT_ISO_STDIO_FILEACCESS | ((CYGINT_ISO_STDIO_FILEOPS | ((CYGINT_ISO_STDIO_STREAMS | (CYGINT_ISO_STDIO_FILETYPES & CYGINT_ISO_ERRNO_CODES)) & (!CYGINT_ISO_STDIO_STREAMS | CYGINT_ISO_ERRNO_CODES))) & (!CYGINT_ISO_STDIO_FILEOPS | CYGINT_ISO_ERRNO_CODES))) & (!CYGINT_ISO_STDIO_FILEACCESS | CYGINT_ISO_ERRNO_CODES))) & (!CYGINT_ISO_STDIO_FORMATTED_IO | CYGINT_ISO_ERRNO_CODES))) & (!CYGINT_ISO_STDIO_CHAR_IO | CYGINT_ISO_ERRNO_CODES))) & (!CYGINT_ISO_STDIO_DIRECT_IO | CYGINT_ISO_ERRNO_CODES))) & (!CYGINT_ISO_STDIO_FILEPOS | CYGINT_ISO_ERRNO_CODES))) & (!CYGINT_ISO_STDIO_ERROR | CYGINT_ISO_ERRNO_CODES)) | !CYGIMP_LIBC_STDIO_INLINES))) & (!CYGPKG_ERROR_ERRNO | ((CYGIMP_LIBC_STDIO_INLINES | CYGINT_ISO_STRERROR) & (CYGINT_ISO_STRERROR | ((CYGINT_ISO_STDIO_ERROR | ((CYGINT_ISO_STDIO_FILEPOS | ((CYGINT_ISO_STDIO_DIRECT_IO | ((CYGINT_ISO_STDIO_CHAR_IO | ((CYGINT_ISO_STDIO_FORMATTED_IO | ((CYGINT_ISO_STDIO_FILEACCESS | ((CYGINT_ISO_STDIO_FILEOPS | ((CYGINT_ISO_STDIO_STREAMS | (CYGINT_ISO_STDIO_FILETYPES & (CYGINT_ISO_ERRNO | CYGINT_ISO_ERRNO_CODES))) & (CYGINT_ISO_ERRNO | CYGINT_ISO_ERRNO_CODES | !CYGINT_ISO_STDIO_STREAMS))) & (CYGINT_ISO_ERRNO | CYGINT_ISO_ERRNO_CODES | !CYGINT_ISO_STDIO_FILEOPS))) & (CYGINT_ISO_ERRNO | CYGINT_ISO_ERRNO_CODES | !CYGINT_ISO_STDIO_FILEACCESS))) & (CYGINT_ISO_ERRNO | CYGINT_ISO_ERRNO_CODES | !CYGINT_ISO_STDIO_FORMATTED_IO))) & (CYGINT_ISO_ERRNO | CYGINT_ISO_ERRNO_CODES | !CYGINT_ISO_STDIO_CHAR_IO))) & (CYGINT_ISO_ERRNO | CYGINT_ISO_ERRNO_CODES | !CYGINT_ISO_STDIO_DIRECT_IO))) & (CYGINT_ISO_ERRNO | CYGINT_ISO_ERRNO_CODES | !CYGINT_ISO_STDIO_FILEPOS))) & (CYGINT_ISO_ERRNO | CYGINT_ISO_ERRNO_CODES | !CYGINT_ISO_STDIO_ERROR)) | !CYGIMP_LIBC_STDIO_INLINES))))))) & (!CYGPKG_NET_FTPCLIENT_CFLAGS_ADD | ((CYGPKG_ERROR_ERRNO | ((CYGIMP_LIBC_STDIO_INLINES | CYGINT_ISO_STRERROR) & (CYGINT_ISO_STRERROR | ((CYGINT_ISO_STDIO_ERROR | ((CYGINT_ISO_STDIO_FILEPOS | ((CYGINT_ISO_STDIO_DIRECT_IO | ((CYGINT_ISO_STDIO_CHAR_IO | ((CYGINT_ISO_STDIO_FORMATTED_IO | ((CYGINT_ISO_STDIO_FILEACCESS | ((CYGINT_ISO_STDIO_FILEOPS | ((CYGINT_ISO_STDIO_STREAMS | (CYGINT_ISO_STDIO_FILETYPES & CYGINT_ISO_ERRNO_CODES)) & (!CYGINT_ISO_STDIO_STREAMS | CYGINT_ISO_ERRNO_CODES))) & (!CYGINT_ISO_STDIO_FILEOPS | CYGINT_ISO_ERRNO_CODES))) & (!CYGINT_ISO_STDIO_FILEACCESS | CYGINT_ISO_ERRNO_CODES))) & (!CYGINT_ISO_STDIO_FORMATTED_IO | CYGINT_ISO_ERRNO_CODES))) & (!CYGINT_ISO_STDIO_CHAR_IO | CYGINT_ISO_ERRNO_CODES))) & (!CYGINT_ISO_STDIO_DIRECT_IO | CYGINT_ISO_ERRNO_CODES))) & (!CYGINT_ISO_STDIO_FILEPOS | CYGINT_ISO_ERRNO_CODES))) & (!CYGINT_ISO_STDIO_ERROR | CYGINT_ISO_ERRNO_CODES)) | !CYGIMP_LIBC_STDIO_INLINES))) & (!CYGPKG_ERROR_ERRNO | ((CYGIMP_LIBC_STDIO_INLINES | CYGINT_ISO_STRERROR) & (CYGINT_ISO_STRERROR | ((CYGINT_ISO_STDIO_ERROR | ((CYGINT_ISO_STDIO_FILEPOS | ((CYGINT_ISO_STDIO_DIRECT_IO | ((CYGINT_ISO_STDIO_CHAR_IO | ((CYGINT_ISO_STDIO_FORMATTED_IO | ((CYGINT_ISO_STDIO_FILEACCESS | ((CYGINT_ISO_STDIO_FILEOPS | ((CYGINT_ISO_STDIO_STREAMS | (CYGINT_ISO_STDIO_FILETYPES & (CYGINT_ISO_ERRNO | CYGINT_ISO_ERRNO_CODES))) & (CYGINT_ISO_ERRNO | CYGINT_ISO_ERRNO_CODES | !CYGINT_ISO_STDIO_STREAMS))) & (CYGINT_ISO_ERRNO | CYGINT_ISO_ERRNO_CODES | !CYGINT_ISO_STDIO_FILEOPS))) & (CYGINT_ISO_ERRNO | CYGINT_ISO_ERRNO_CODES | !CYGINT_ISO_STDIO_FILEACCESS))) & (CYGINT_ISO_ERRNO | CYGINT_ISO_ERRNO_CODES | !CYGINT_ISO_STDIO_FORMATTED_IO))) & (CYGINT_ISO_ERRNO | CYGINT_ISO_ERRNO_CODES | !CYGINT_ISO_STDIO_CHAR_IO))) & (CYGINT_ISO_ERRNO | CYGINT_ISO_ERRNO_CODES | !CYGINT_ISO_STDIO_DIRECT_IO))) & (CYGINT_ISO_ERRNO | CYGINT_ISO_ERRNO_CODES | !CYGINT_ISO_STDIO_FILEPOS))) & (CYGINT_ISO_ERRNO | CYGINT_ISO_ERRNO_CODES | !CYGINT_ISO_STDIO_ERROR)) | !CYGIMP_LIBC_STDIO_INLINES))))))) & (!CYGPKG_SNMPLIB_CFLAGS_ADD | ((CYGPKG_ERROR_ERRNO | ((CYGIMP_LIBC_STDIO_INLINES | CYGINT_ISO_STRERROR) & (CYGINT_ISO_STRERROR | ((CYGINT_ISO_STDIO_ERROR | ((CYGINT_ISO_STDIO_FILEPOS | ((CYGINT_ISO_STDIO_DIRECT_IO | ((CYGINT_ISO_STDIO_CHAR_IO | ((CYGINT_ISO_STDIO_FORMATTED_IO | ((CYGINT_ISO_STDIO_FILEACCESS | ((CYGINT_ISO_STDIO_FILEOPS | ((CYGINT_ISO_STDIO_STREAMS | (CYGINT_ISO_STDIO_FILETYPES & CYGINT_ISO_ERRNO_CODES)) & (!CYGINT_ISO_STDIO_STREAMS | CYGINT_ISO_ERRNO_CODES))) & (!CYGINT_ISO_STDIO_FILEOPS | CYGINT_ISO_ERRNO_CODES))) & (!CYGINT_ISO_STDIO_FILEACCESS | CYGINT_ISO_ERRNO_CODES))) & (!CYGINT_ISO_STDIO_FORMATTED_IO | CYGINT_ISO_ERRNO_CODES))) & (!CYGINT_ISO_STDIO_CHAR_IO | CYGINT_ISO_ERRNO_CODES))) & (!CYGINT_ISO_STDIO_DIRECT_IO | CYGINT_ISO_ERRNO_CODES))) & (!CYGINT_ISO_STDIO_FILEPOS | CYGINT_ISO_ERRNO_CODES))) & (!CYGINT_ISO_STDIO_ERROR | CYGINT_ISO_ERRNO_CODES)) | !CYGIMP_LIBC_STDIO_INLINES))) & (!CYGPKG_ERROR_ERRNO | ((CYGIMP_LIBC_STDIO_INLINES | CYGINT_ISO_STRERROR) & (CYGINT_ISO_STRERROR | ((CYGINT_ISO_STDIO_ERROR | ((CYGINT_ISO_STDIO_FILEPOS | ((CYGINT_ISO_STDIO_DIRECT_IO | ((CYGINT_ISO_STDIO_CHAR_IO | ((CYGINT_ISO_STDIO_FORMATTED_IO | ((CYGINT_ISO_STDIO_FILEACCESS | ((CYGINT_ISO_STDIO_FILEOPS | ((CYGINT_ISO_STDIO_STREAMS | (CYGINT_ISO_STDIO_FILETYPES & (CYGINT_ISO_ERRNO | CYGINT_ISO_ERRNO_CODES))) & (CYGINT_ISO_ERRNO | CYGINT_ISO_ERRNO_CODES | !CYGINT_ISO_STDIO_STREAMS))) & (CYGINT_ISO_ERRNO | CYGINT_ISO_ERRNO_CODES | !CYGINT_ISO_STDIO_FILEOPS))) & (CYGINT_ISO_ERRNO | CYGINT_ISO_ERRNO_CODES | !CYGINT_ISO_STDIO_FILEACCESS))) & (CYGINT_ISO_ERRNO | CYGINT_ISO_ERRNO_CODES | !CYGINT_ISO_STDIO_FORMATTED_IO))) & (CYGINT_ISO_ERRNO | CYGINT_ISO_ERRNO_CODES | !CYGINT_ISO_STDIO_CHAR_IO))) & (CYGINT_ISO_ERRNO | CYGINT_ISO_ERRNO_CODES | !CYGINT_ISO_STDIO_DIRECT_IO))) & (CYGINT_ISO_ERRNO | CYGINT_ISO_ERRNO_CODES | !CYGINT_ISO_STDIO_FILEPOS))) & (CYGINT_ISO_ERRNO | CYGINT_ISO_ERRNO_CODES | !CYGINT_ISO_STDIO_ERROR)) | !CYGIMP_LIBC_STDIO_INLINES))))))) & (!CYGPKG_SNMPAGENT_CFLAGS_ADD | ((CYGPKG_ERROR_ERRNO | ((CYGIMP_LIBC_STDIO_INLINES | CYGINT_ISO_STRERROR) & (CYGINT_ISO_STRERROR | ((CYGINT_ISO_STDIO_ERROR | ((CYGINT_ISO_STDIO_FILEPOS | ((CYGINT_ISO_STDIO_DIRECT_IO | ((CYGINT_ISO_STDIO_CHAR_IO | ((CYGINT_ISO_STDIO_FORMATTED_IO | ((CYGINT_ISO_STDIO_FILEACCESS | ((CYGINT_ISO_STDIO_FILEOPS | ((CYGINT_ISO_STDIO_STREAMS | (CYGINT_ISO_STDIO_FILETYPES & CYGINT_ISO_ERRNO_CODES)) & (!CYGINT_ISO_STDIO_STREAMS | CYGINT_ISO_ERRNO_CODES))) & (!CYGINT_ISO_STDIO_FILEOPS | CYGINT_ISO_ERRNO_CODES))) & (!CYGINT_ISO_STDIO_FILEACCESS | CYGINT_ISO_ERRNO_CODES))) & (!CYGINT_ISO_STDIO_FORMATTED_IO | CYGINT_ISO_ERRNO_CODES))) & (!CYGINT_ISO_STDIO_CHAR_IO | CYGINT_ISO_ERRNO_CODES))) & (!CYGINT_ISO_STDIO_DIRECT_IO | CYGINT_ISO_ERRNO_CODES))) & (!CYGINT_ISO_STDIO_FILEPOS | CYGINT_ISO_ERRNO_CODES))) & (!CYGINT_ISO_STDIO_ERROR | CYGINT_ISO_ERRNO_CODES)) | !CYGIMP_LIBC_STDIO_INLINES))) & (!CYGPKG_ERROR_ERRNO | ((CYGIMP_LIBC_STDIO_INLINES | CYGINT_ISO_STRERROR) & (CYGINT_ISO_STRERROR | ((CYGINT_ISO_STDIO_ERROR | ((CYGINT_ISO_STDIO_FILEPOS | ((CYGINT_ISO_STDIO_DIRECT_IO | ((CYGINT_ISO_STDIO_CHAR_IO | ((CYGINT_ISO_STDIO_FORMATTED_IO | ((CYGINT_ISO_STDIO_FILEACCESS | ((CYGINT_ISO_STDIO_FILEOPS | ((CYGINT_ISO_STDIO_STREAMS | (CYGINT_ISO_STDIO_FILETYPES & (CYGINT_ISO_ERRNO | CYGINT_ISO_ERRNO_CODES))) & (CYGINT_ISO_ERRNO | CYGINT_ISO_ERRNO_CODES | !CYGINT_ISO_STDIO_STREAMS))) & (CYGINT_ISO_ERRNO | CYGINT_ISO_ERRNO_CODES | !CYGINT_ISO_STDIO_FILEOPS))) & (CYGINT_ISO_ERRNO | CYGINT_ISO_ERRNO_CODES | !CYGINT_ISO_STDIO_FILEACCESS))) & (CYGINT_ISO_ERRNO | CYGINT_ISO_ERRNO_CODES | !CYGINT_ISO_STDIO_FORMATTED_IO))) & (CYGINT_ISO_ERRNO | CYGINT_ISO_ERRNO_CODES | !CYGINT_ISO_STDIO_CHAR_IO))) & (CYGINT_ISO_ERRNO | CYGINT_ISO_ERRNO_CODES | !CYGINT_ISO_STDIO_DIRECT_IO))) & (CYGINT_ISO_ERRNO | CYGINT_ISO_ERRNO_CODES | !CYGINT_ISO_STDIO_FILEPOS))) & (CYGINT_ISO_ERRNO | CYGINT_ISO_ERRNO_CODES | !CYGINT_ISO_STDIO_ERROR)) | !CYGIMP_LIBC_STDIO_INLINES))))))) & (!CYGPKG_NET_FREEBSD_STACK_CFLAGS_ADD | ((CYGPKG_ERROR_ERRNO | ((CYGIMP_LIBC_STDIO_INLINES | CYGINT_ISO_STRERROR) & (CYGINT_ISO_STRERROR | ((CYGINT_ISO_STDIO_ERROR | ((CYGINT_ISO_STDIO_FILEPOS | ((CYGINT_ISO_STDIO_DIRECT_IO | ((CYGINT_ISO_STDIO_CHAR_IO | ((CYGINT_ISO_STDIO_FORMATTED_IO | ((CYGINT_ISO_STDIO_FILEACCESS | ((CYGINT_ISO_STDIO_FILEOPS | ((CYGINT_ISO_STDIO_STREAMS | (CYGINT_ISO_STDIO_FILETYPES & CYGINT_ISO_ERRNO_CODES)) & (!CYGINT_ISO_STDIO_STREAMS | CYGINT_ISO_ERRNO_CODES))) & (!CYGINT_ISO_STDIO_FILEOPS | CYGINT_ISO_ERRNO_CODES))) & (!CYGINT_ISO_STDIO_FILEACCESS | CYGINT_ISO_ERRNO_CODES))) & (!CYGINT_ISO_STDIO_FORMATTED_IO | CYGINT_ISO_ERRNO_CODES))) & (!CYGINT_ISO_STDIO_CHAR_IO | CYGINT_ISO_ERRNO_CODES))) & (!CYGINT_ISO_STDIO_DIRECT_IO | CYGINT_ISO_ERRNO_CODES))) & (!CYGINT_ISO_STDIO_FILEPOS | CYGINT_ISO_ERRNO_CODES))) & (!CYGINT_ISO_STDIO_ERROR | CYGINT_ISO_ERRNO_CODES)) | !CYGIMP_LIBC_STDIO_INLINES))) & (!CYGPKG_ERROR_ERRNO | ((CYGIMP_LIBC_STDIO_INLINES | CYGINT_ISO_STRERROR) & (CYGINT_ISO_STRERROR | ((CYGINT_ISO_STDIO_ERROR | ((CYGINT_ISO_STDIO_FILEPOS | ((CYGINT_ISO_STDIO_DIRECT_IO | ((CYGINT_ISO_STDIO_CHAR_IO | ((CYGINT_ISO_STDIO_FORMATTED_IO | ((CYGINT_ISO_STDIO_FILEACCESS | ((CYGINT_ISO_STDIO_FILEOPS | ((CYGINT_ISO_STDIO_STREAMS | (CYGINT_ISO_STDIO_FILETYPES & (CYGINT_ISO_ERRNO | CYGINT_ISO_ERRNO_CODES))) & (CYGINT_ISO_ERRNO | CYGINT_ISO_ERRNO_CODES | !CYGINT_ISO_STDIO_STREAMS))) & (CYGINT_ISO_ERRNO | CYGINT_ISO_ERRNO_CODES | !CYGINT_ISO_STDIO_FILEOPS))) & (CYGINT_ISO_ERRNO | CYGINT_ISO_ERRNO_CODES | !CYGINT_ISO_STDIO_FILEACCESS))) & (CYGINT_ISO_ERRNO | CYGINT_ISO_ERRNO_CODES | !CYGINT_ISO_STDIO_FORMATTED_IO))) & (CYGINT_ISO_ERRNO | CYGINT_ISO_ERRNO_CODES | !CYGINT_ISO_STDIO_CHAR_IO))) & (CYGINT_ISO_ERRNO | CYGINT_ISO_ERRNO_CODES | !CYGINT_ISO_STDIO_DIRECT_IO))) & (CYGINT_ISO_ERRNO | CYGINT_ISO_ERRNO_CODES | !CYGINT_ISO_STDIO_FILEPOS))) & (CYGINT_ISO_ERRNO | CYGINT_ISO_ERRNO_CODES | !CYGINT_ISO_STDIO_ERROR)) | !CYGIMP_LIBC_STDIO_INLINES))))))) & (!CYGPKG_NET_CFLAGS_ADD | ((CYGPKG_ERROR_ERRNO | ((CYGIMP_LIBC_STDIO_INLINES | CYGINT_ISO_STRERROR) & (CYGINT_ISO_STRERROR | ((CYGINT_ISO_STDIO_ERROR | ((CYGINT_ISO_STDIO_FILEPOS | ((CYGINT_ISO_STDIO_DIRECT_IO | ((CYGINT_ISO_STDIO_CHAR_IO | ((CYGINT_ISO_STDIO_FORMATTED_IO | ((CYGINT_ISO_STDIO_FILEACCESS | ((CYGINT_ISO_STDIO_FILEOPS | ((CYGINT_ISO_STDIO_STREAMS | (CYGINT_ISO_STDIO_FILETYPES & CYGINT_ISO_ERRNO_CODES)) & (!CYGINT_ISO_STDIO_STREAMS | CYGINT_ISO_ERRNO_CODES))) & (!CYGINT_ISO_STDIO_FILEOPS | CYGINT_ISO_ERRNO_CODES))) & (!CYGINT_ISO_STDIO_FILEACCESS | CYGINT_ISO_ERRNO_CODES))) & (!CYGINT_ISO_STDIO_FORMATTED_IO | CYGINT_ISO_ERRNO_CODES))) & (!CYGINT_ISO_STDIO_CHAR_IO | CYGINT_ISO_ERRNO_CODES))) & (!CYGINT_ISO_STDIO_DIRECT_IO | CYGINT_ISO_ERRNO_CODES))) & (!CYGINT_ISO_STDIO_FILEPOS | CYGINT_ISO_ERRNO_CODES))) & (!CYGINT_ISO_STDIO_ERROR | CYGINT_ISO_ERRNO_CODES)) | !CYGIMP_LIBC_STDIO_INLINES))) & (!CYGPKG_ERROR_ERRNO | ((CYGIMP_LIBC_STDIO_INLINES | CYGINT_ISO_STRERROR) & (CYGINT_ISO_STRERROR | ((CYGINT_ISO_STDIO_ERROR | ((CYGINT_ISO_STDIO_FILEPOS | ((CYGINT_ISO_STDIO_DIRECT_IO | ((CYGINT_ISO_STDIO_CHAR_IO | ((CYGINT_ISO_STDIO_FORMATTED_IO | ((CYGINT_ISO_STDIO_FILEACCESS | ((CYGINT_ISO_STDIO_FILEOPS | ((CYGINT_ISO_STDIO_STREAMS | (CYGINT_ISO_STDIO_FILETYPES & (CYGINT_ISO_ERRNO | CYGINT_ISO_ERRNO_CODES))) & (CYGINT_ISO_ERRNO | CYGINT_ISO_ERRNO_CODES | !CYGINT_ISO_STDIO_STREAMS))) & (CYGINT_ISO_ERRNO | CYGINT_ISO_ERRNO_CODES | !CYGINT_ISO_STDIO_FILEOPS))) & (CYGINT_ISO_ERRNO | CYGINT_ISO_ERRNO_CODES | !CYGINT_ISO_STDIO_FILEACCESS))) & (CYGINT_ISO_ERRNO | CYGINT_ISO_ERRNO_CODES | !CYGINT_ISO_STDIO_FORMATTED_IO))) & (CYGINT_ISO_ERRNO | CYGINT_ISO_ERRNO_CODES | !CYGINT_ISO_STDIO_CHAR_IO))) & (CYGINT_ISO_ERRNO | CYGINT_ISO_ERRNO_CODES | !CYGINT_ISO_STDIO_DIRECT_IO))) & (CYGINT_ISO_ERRNO | CYGINT_ISO_ERRNO_CODES | !CYGINT_ISO_STDIO_FILEPOS))) & (CYGINT_ISO_ERRNO | CYGINT_ISO_ERRNO_CODES | !CYGINT_ISO_STDIO_ERROR)) | !CYGIMP_LIBC_STDIO_INLINES)))))))
29	3905	0	 !CYGPKG_LIBM | !CYGSEM_LIBM_USE_STDERR | CYGINT_ISO_STDIO_ERROR | CYGINT_ISO_STDIO_FILEOPS | CYGINT_ISO_STDIO_FILEPOS | CYGINT_ISO_STDIO_CHAR_IO | CYGINT_ISO_STDIO_STREAMS | CYGINT_ISO_STDIO_DIRECT_IO | CYGINT_ISO_STDIO_FILETYPES | CYGINT_ISO_STDIO_FILEACCESS | CYGINT_ISO_STDIO_FORMATTED_IO
30	344	0	CYGINT_ISO_STRERROR | ~CYGINT_ISO_STDIO_STREAMS | ~CYGIMP_LIBC_STDIO_INLINES | ~CYGFUN_COMPRESS_ZLIB_GZIO | CYGINT_ISO_STDIO_FILETYPES
31	2874	0	 !CYGPKG_PPP | !CYGDBG_USE_ASSERTS | CYGDBG_INFRA_DEBUG_ASSERT_MESSAGE | CYGINT_ISO_EXIT & CYGINT_ISO_STDIO_FORMATTED_IO | !CYGPKG_NET_CFLAGS_ADD & !CYGPKG_NS_DNS_CFLAGS_ADD & !CYGPKG_SNMPLIB_CFLAGS_ADD & !CYGPKG_NET_SNTP_CFLAGS_ADD & !CYGPKG_SNMPAGENT_CFLAGS_ADD & !CYGPKG_NET_FTPCLIENT_CFLAGS_ADD & !CYGPKG_IO_ETH_DRIVERS_CFLAGS_ADD & !CYGPKG_NET_FREEBSD_STACK_CFLAGS_ADD & !CYGPKG_DEVS_ETH_AMD_LANCEPCI_CFLAGS_ADD
32	623	0	CYGINT_ISO_STRTOK_R | ~CYGFUN_COMPRESS_ZLIB_GZIO | CYGINT_ISO_STRING_MEMFUNCS | CYGINT_ISO_STRING_STRFUNCS | CYGINT_ISO_STRING_LOCALE_FUNCS | CYGPKG_COMPRESS_ZLIB_CFLAGS_ADD & ~CYGSEM_COMPRESS_ZLIB_DEFLATE_MAKES_GZIP
33	97	0	CYGINT_ISO_MALLOC | ~CYGFUN_COMPRESS_ZLIB_GZIO | CYGPKG_COMPRESS_ZLIB_CFLAGS_ADD
34	48	0	CYGINT_ISO_STDIO_ERROR | CYGINT_ISO_STDIO_FILEOPS | CYGINT_ISO_STDIO_FILEPOS | CYGINT_ISO_STDIO_CHAR_IO | CYGINT_ISO_STDIO_STREAMS | ~CYGFUN_COMPRESS_ZLIB_GZIO | CYGINT_ISO_STDIO_DIRECT_IO | CYGINT_ISO_STDIO_FILETYPES | CYGINT_ISO_STDIO_FILEACCESS | CYGINT_ISO_STDIO_FORMATTED_IO | ~CYGPKG_COMPRESS_ZLIB_CFLAGS_ADD | ~CYGSEM_COMPRESS_ZLIB_DEFLATE_MAKES_GZIP
35	130	0	 !CYGPKG_INFRA | CYGPKG_ISOINFRA | !CYGINT_ISO_EXIT
36	41	0	 !CYGPKG_PPP | CYGINT_ISO_STDIO_FILEOPS | !CYGINT_ISO_STDIO_CHAR_IO | CYGINT_ISO_STDIO_STREAMS | !CYGIMP_LIBC_STDIO_INLINES | CYGINT_ISO_STDIO_FILETYPES | CYGINT_ISO_STDIO_FILEACCESS | CYGINT_ISO_STDIO_FORMATTED_IO | CYGINT_ISO_ERRNO & CYGPKG_ERROR_ERRNO
37	238	0	 !CYGPKG_INFRA | !CYGPKG_ISOINFRA | !CYGINT_ISO_EXIT | CYGINT_ISO_STRERROR | CYGINT_ISO_STDIO_FILEOPS | CYGINT_ISO_STDIO_STREAMS | !CYGIMP_LIBC_STDIO_INLINES | CYGINT_ISO_STDIO_FILETYPES | CYGINT_ISO_STDIO_FILEACCESS | !CYGINT_ISO_STDIO_FORMATTED_IO | !CYGINT_ISO_ABS & !CYGINT_ISO_DIV & !CYGINT_LIBC_I18N_MB_REQUIRED & !CYGINT_ISO_STDLIB_MULTIBYTE
38	395	0	 !CYGPKG_INFRA | !CYGPKG_ISOINFRA | CYGINT_ISO_STRERROR | CYGINT_ISO_STDIO_FILEOPS | CYGINT_ISO_STDIO_STREAMS | !CYGIMP_LIBC_STDIO_INLINES | CYGINT_ISO_STDIO_FILETYPES | CYGINT_ISO_STDIO_FILEACCESS | !CYGINT_ISO_STDIO_FORMATTED_IO | CYGINT_ISO_ABS & CYGINT_ISO_EXIT | CYGINT_ISO_DIV & CYGINT_ISO_EXIT | CYGINT_ISO_EXIT & CYGINT_LIBC_I18N_MB_REQUIRED | CYGINT_ISO_EXIT & CYGINT_ISO_STDLIB_MULTIBYTE
39	49	0	 !CYGPKG_LIBM | CYGINT_ISO_STRERROR | !CYGSEM_LIBM_USE_STDERR | CYGINT_ISO_STDIO_FILEOPS | !CYGINT_ISO_STDIO_FILEPOS | CYGINT_ISO_STDIO_CHAR_IO | CYGINT_ISO_STDIO_STREAMS | !CYGIMP_LIBC_STDIO_INLINES | CYGINT_ISO_STDIO_DIRECT_IO | CYGINT_ISO_STDIO_FILETYPES | CYGINT_ISO_STDIO_FILEACCESS | CYGINT_ISO_STDIO_FORMATTED_IO
40	61	0	 !CYGPKG_LIBM | CYGSEM_LIBM_COMPAT_IEEE_ONLY | CYGINT_ISO_ERRNO & CYGPKG_ERROR_ERRNO
41	37	0	CYGINT_ISO_STRERROR | ~CYGIMP_LIBC_STDIO_INLINES | ~CYGFUN_COMPRESS_ZLIB_GZIO | ~CYGINT_ISO_STDIO_FILETYPES
42	65	0	CYGINT_ISO_STDIO_ERROR | CYGINT_ISO_STDIO_FILEOPS | CYGINT_ISO_STDIO_FILEPOS | CYGINT_ISO_STDIO_CHAR_IO | CYGINT_ISO_STDIO_STREAMS | ~CYGFUN_COMPRESS_ZLIB_GZIO | CYGINT_ISO_STDIO_DIRECT_IO | CYGINT_ISO_STDIO_FILETYPES | CYGINT_ISO_STDIO_FILEACCESS | CYGINT_ISO_STDIO_FORMATTED_IO
43	7982	0	 !CYGPKG_INFRA | !CYGPKG_ISOINFRA | !CYGIMP_LIBC_STDIO_INLINES | !CYGINT_ISO_STDIO_FILETYPES | !CYGINT_ISO_STDIO_FILEACCESS & !CYGINT_ISO_STDIO_FORMATTED_IO | CYGINT_ISO_ABS & CYGINT_ISO_EXIT | CYGINT_ISO_DIV & CYGINT_ISO_EXIT | CYGINT_ISO_ERRNO & CYGPKG_ERROR_ERRNO | CYGINT_ISO_EXIT & CYGINT_LIBC_I18N_MB_REQUIRED | CYGINT_ISO_EXIT & CYGINT_ISO_STDLIB_MULTIBYTE
44	94	0	 !CYGPKG_LIBM | CYGINT_ISO_STRERROR | !CYGSEM_LIBM_USE_STDERR | CYGINT_ISO_STDIO_FILEOPS | CYGINT_ISO_STDIO_CHAR_IO | CYGINT_ISO_STDIO_STREAMS | !CYGIMP_LIBC_STDIO_INLINES | !CYGINT_ISO_STDIO_DIRECT_IO | CYGINT_ISO_STDIO_FILETYPES | CYGINT_ISO_STDIO_FILEACCESS | CYGINT_ISO_STDIO_FORMATTED_IO
45	50	0	 !CYGPKG_LIBM | CYGINT_ISO_STRERROR | !CYGSEM_LIBM_USE_STDERR | !CYGINT_ISO_STDIO_STREAMS | !CYGIMP_LIBC_STDIO_INLINES | CYGINT_ISO_STDIO_FILETYPES
46	143	0	 !CYGPKG_HAL_SMP_SUPPORT | !CYGPKG_HAL_I386_GENERIC
47	47	0	CYGPKG_ERROR | ~CYGPKG_BLOCK_LIB | CYGINT_ISO_STRERROR | ~CYGIMP_BLOCK_LIB_STATISTICS
48	87	0	 !CYGPKG_LIBM | CYGINT_ISO_STRERROR | !CYGSEM_LIBM_USE_STDERR | !CYGIMP_LIBC_STDIO_INLINES | !CYGINT_ISO_STDIO_FILETYPES
49	51	0	 !CYGPKG_HAL_I386_PC | CYGPKG_HAL_SMP_CPU_MAX | !CYGPKG_HAL_SMP_SUPPORT | !CYGDBG_HAL_DEBUG_GDB_INCLUDE_STUBS
50	43	0	 !CYGPKG_INFRA | CYGPKG_ISOINFRA | !CYGINT_ISO_STDIO_FILEACCESS
51	68	0	CYGINT_ISO_STDIO_FILEOPS | CYGINT_ISO_STDIO_CHAR_IO | CYGINT_ISO_STDIO_STREAMS | ~CYGIMP_LIBC_STDIO_INLINES | ~CYGFUN_COMPRESS_ZLIB_GZIO | ~CYGINT_ISO_STDIO_DIRECT_IO | CYGINT_ISO_STDIO_FILETYPES | CYGINT_ISO_STDIO_FILEACCESS | CYGINT_ISO_STDIO_FORMATTED_IO | CYGINT_ISO_ERRNO & CYGPKG_ERROR_ERRNO
52	353	0	 !CYGPKG_INFRA | !CYGPKG_ISOINFRA | !CYGINT_ISO_EXIT | CYGINT_ISO_STRERROR | !CYGINT_ISO_STDIO_STREAMS | !CYGIMP_LIBC_STDIO_INLINES | CYGINT_ISO_STDIO_FILETYPES | !CYGINT_ISO_STDIO_FILEACCESS & !CYGINT_ISO_STDIO_FORMATTED_IO | !CYGINT_ISO_ABS & !CYGINT_ISO_DIV & !CYGINT_LIBC_I18N_MB_REQUIRED & !CYGINT_ISO_STDLIB_MULTIBYTE
53	49	0	CYGINT_ISO_STRERROR | CYGINT_ISO_STDIO_FILEOPS | ~CYGINT_ISO_STDIO_FILEPOS | CYGINT_ISO_STDIO_CHAR_IO | CYGINT_ISO_STDIO_STREAMS | ~CYGIMP_LIBC_STDIO_INLINES | ~CYGFUN_COMPRESS_ZLIB_GZIO | CYGINT_ISO_STDIO_DIRECT_IO | CYGINT_ISO_STDIO_FILETYPES | CYGINT_ISO_STDIO_FILEACCESS | CYGINT_ISO_STDIO_FORMATTED_IO
54	39	0	 !CYGPKG_INFRA | CYGPKG_ISOINFRA | !CYGINT_ISO_STDIO_FORMATTED_IO
55	48	0	 !CYGPKG_HAL_I386_PCMB | !CYGPKG_HAL_SMP_SUPPORT
56	43	0	 !CYGPKG_LIBM | CYGINT_ISO_STRERROR | !CYGSEM_LIBM_USE_STDERR | CYGINT_ISO_STDIO_FILEOPS | CYGINT_ISO_STDIO_STREAMS | !CYGIMP_LIBC_STDIO_INLINES | CYGINT_ISO_STDIO_FILETYPES | !CYGINT_ISO_STDIO_FILEACCESS
57	41	0	 !CYGFUN_COMPRESS_ZLIB_GZIO | CYGPKG_COMPRESS_ZLIB_CFLAGS_ADD | !CYGINT_ISO_STRERROR & !CYGINT_ISO_ERRNO_CODES | CYGINT_ISO_ERRNO & CYGPKG_ERROR_ERRNO
58	37	0	CYGINT_ISO_CTYPE | ~CYGPKG_FILEIO_FNMATCH
59	57	0	CYGINT_ISO_STRERROR | ~CYGINT_ISO_STDIO_ERROR | CYGINT_ISO_STDIO_FILEOPS | CYGINT_ISO_STDIO_FILEPOS | CYGINT_ISO_STDIO_CHAR_IO | CYGINT_ISO_STDIO_STREAMS | ~CYGIMP_LIBC_STDIO_INLINES | ~CYGFUN_COMPRESS_ZLIB_GZIO | CYGINT_ISO_STDIO_DIRECT_IO | CYGINT_ISO_STDIO_FILETYPES | CYGINT_ISO_STDIO_FILEACCESS | CYGINT_ISO_STDIO_FORMATTED_IO
60	11026	1	(!CYGPKG_INFRA | ((!CYGIMP_LIBC_STDIO_INLINES | ((CYGINT_LIBC_I18N_MB_REQUIRED | ((CYGINT_ISO_STDLIB_MULTIBYTE | ((CYGINT_ISO_DIV | ((CYGINT_ISO_STDIO_FILEOPS | !CYGPKG_ISOINFRA | CYGINT_ISO_STDIO_FILEACCESS | CYGINT_ISO_STDIO_STREAMS | !CYGINT_ISO_STDIO_FORMATTED_IO | CYGINT_ISO_STDIO_FILETYPES | CYGINT_ISO_ABS) & (CYGINT_ISO_STDIO_FILEOPS | !CYGPKG_ISOINFRA | CYGINT_ISO_EXIT | CYGINT_ISO_STDIO_FILEACCESS | CYGINT_ISO_STDIO_STREAMS | !CYGINT_ISO_STDIO_FORMATTED_IO | CYGINT_ISO_STDIO_FILETYPES | !CYGINT_ISO_ABS))) & (CYGINT_ISO_STDIO_FILEOPS | !CYGPKG_ISOINFRA | CYGINT_ISO_EXIT | CYGINT_ISO_STDIO_FILEACCESS | CYGINT_ISO_STDIO_STREAMS | !CYGINT_ISO_STDIO_FORMATTED_IO | CYGINT_ISO_STDIO_FILETYPES | !CYGINT_ISO_DIV))) & (CYGINT_ISO_STDIO_FILEOPS | !CYGPKG_ISOINFRA | CYGINT_ISO_EXIT | CYGINT_ISO_STDIO_FILEACCESS | CYGINT_ISO_STDIO_STREAMS | !CYGINT_ISO_STDIO_FORMATTED_IO | CYGINT_ISO_STDIO_FILETYPES | !CYGINT_ISO_STDLIB_MULTIBYTE))) & (CYGINT_ISO_STDIO_FILEOPS | !CYGPKG_ISOINFRA | CYGINT_ISO_EXIT | CYGINT_ISO_STDIO_FILEACCESS | CYGINT_ISO_STDIO_STREAMS | !CYGINT_ISO_STDIO_FORMATTED_IO | CYGINT_ISO_STDIO_FILETYPES | !CYGINT_LIBC_I18N_MB_REQUIRED)) | CYGPKG_ERROR_ERRNO) & (!CYGIMP_LIBC_STDIO_INLINES | ((CYGINT_LIBC_I18N_MB_REQUIRED | ((CYGINT_ISO_STDLIB_MULTIBYTE | ((CYGINT_ISO_DIV | ((CYGINT_ISO_STDIO_FILEOPS | !CYGPKG_ISOINFRA | CYGINT_ISO_ERRNO | CYGINT_ISO_STDIO_FILEACCESS | CYGINT_ISO_STDIO_STREAMS | !CYGINT_ISO_STDIO_FORMATTED_IO | CYGINT_ISO_STDIO_FILETYPES | CYGINT_ISO_ABS) & (CYGINT_ISO_STDIO_FILEOPS | !CYGPKG_ISOINFRA | CYGINT_ISO_EXIT | CYGINT_ISO_ERRNO | CYGINT_ISO_STDIO_FILEACCESS | CYGINT_ISO_STDIO_STREAMS | !CYGINT_ISO_STDIO_FORMATTED_IO | CYGINT_ISO_STDIO_FILETYPES | !CYGINT_ISO_ABS))) & (CYGINT_ISO_STDIO_FILEOPS | !CYGPKG_ISOINFRA | CYGINT_ISO_EXIT | CYGINT_ISO_ERRNO | CYGINT_ISO_STDIO_FILEACCESS | CYGINT_ISO_STDIO_STREAMS | !CYGINT_ISO_STDIO_FORMATTED_IO | CYGINT_ISO_STDIO_FILETYPES | !CYGINT_ISO_DIV))) & (CYGINT_ISO_STDIO_FILEOPS | !CYGPKG_ISOINFRA | CYGINT_ISO_EXIT | CYGINT_ISO_ERRNO | CYGINT_ISO_STDIO_FILEACCESS | CYGINT_ISO_STDIO_STREAMS | !CYGINT_ISO_STDIO_FORMATTED_IO | CYGINT_ISO_STDIO_FILETYPES | !CYGINT_ISO_STDLIB_MULTIBYTE))) & (CYGINT_ISO_STDIO_FILEOPS | !CYGPKG_ISOINFRA | CYGINT_ISO_EXIT | CYGINT_ISO_ERRNO | CYGINT_ISO_STDIO_FILEACCESS | CYGINT_ISO_STDIO_STREAMS | !CYGINT_ISO_STDIO_FORMATTED_IO | CYGINT_ISO_STDIO_FILETYPES | !CYGINT_LIBC_I18N_MB_REQUIRED)) | !CYGPKG_ERROR_ERRNO)))
61	3778	0	 !CYGPKG_NET_INET | CYGINT_ISO_STRERROR | CYGINT_ISO_ERRNO_CODES | CYGINT_ISO_ERRNO & CYGPKG_ERROR_ERRNO
62	77	0	 !CYGPKG_HAL_I386 | !CYGPKG_HAL_SMP_SUPPORT
63	171	0	 !CYGFUN_COMPRESS_ZLIB_GZIO | CYGPKG_COMPRESS_ZLIB_CFLAGS_ADD | CYGINT_ISO_ERRNO & CYGPKG_ERROR_ERRNO
64	408	0	 !CYGPKG_NET_INET | CYGINT_ISO_MALLOC
65	104	0	CYGINT_ISO_MALLOC | ~CYGFUN_COMPRESS_ZLIB_GZIO | ~CYGPKG_COMPRESS_ZLIB_CFLAGS_ADD | ~CYGSEM_COMPRESS_ZLIB_DEFLATE_MAKES_GZIP
66	76	0	 !CYGPKG_PPP | CYGINT_ISO_STRERROR | CYGINT_ISO_STDIO_FILEOPS | CYGINT_ISO_STDIO_CHAR_IO | CYGINT_ISO_STDIO_STREAMS | !CYGIMP_LIBC_STDIO_INLINES | !CYGINT_ISO_STDIO_DIRECT_IO | CYGINT_ISO_STDIO_FILETYPES | CYGINT_ISO_STDIO_FILEACCESS | CYGINT_ISO_STDIO_FORMATTED_IO
67	120	0	 !CYGINT_ISO_STDIO_FILEOPS | CYGINT_ISO_STDIO_STREAMS | !CYGIMP_LIBC_STDIO_INLINES | !CYGFUN_COMPRESS_ZLIB_GZIO | CYGINT_ISO_STDIO_FILETYPES | CYGINT_ISO_ERRNO & CYGPKG_ERROR_ERRNO
68	71	0	 !CYGPKG_NET_INET | CYGINT_ISO_STRERROR
69	59	0	 !CYGPKG_NET_INET | !CYGPKG_NET_INET6 | CYGINT_ISO_MALLOC
70	2880	0	 !CYGPKG_PPP | !CYGDBG_USE_ASSERTS | !CYGDBG_INFRA_DEBUG_ASSERT_MESSAGE | CYGINT_ISO_EXIT & CYGINT_ISO_STDIO_FORMATTED_IO | !CYGPKG_NET_CFLAGS_ADD & !CYGPKG_NS_DNS_CFLAGS_ADD & !CYGPKG_SNMPLIB_CFLAGS_ADD & !CYGPKG_NET_SNTP_CFLAGS_ADD & !CYGPKG_SNMPAGENT_CFLAGS_ADD & !CYGPKG_NET_FTPCLIENT_CFLAGS_ADD & !CYGPKG_IO_ETH_DRIVERS_CFLAGS_ADD & !CYGPKG_NET_FREEBSD_STACK_CFLAGS_ADD & !CYGPKG_DEVS_ETH_AMD_LANCEPCI_CFLAGS_ADD
71	11023	1	(!CYGPKG_INFRA | ((!CYGIMP_LIBC_STDIO_INLINES | ((CYGINT_LIBC_I18N_MB_REQUIRED | ((CYGINT_ISO_STDLIB_MULTIBYTE | ((CYGINT_ISO_DIV | ((CYGINT_ISO_ABS | ((!CYGPKG_ISOINFRA | !CYGINT_ISO_STDIO_FILEOPS | !CYGINT_ISO_STDIO_FILEACCESS | CYGINT_ISO_STDIO_STREAMS | CYGINT_ISO_STDIO_FILETYPES | CYGINT_ISO_STDIO_FORMATTED_IO) & (!CYGPKG_ISOINFRA | !CYGINT_ISO_STDIO_FILEOPS | CYGINT_ISO_STDIO_STREAMS | !CYGINT_ISO_STDIO_FORMATTED_IO | CYGINT_ISO_STDIO_FILETYPES))) & (CYGINT_ISO_EXIT | ((!CYGPKG_ISOINFRA | !CYGINT_ISO_STDIO_FILEOPS | !CYGINT_ISO_STDIO_FILEACCESS | CYGINT_ISO_STDIO_STREAMS | CYGINT_ISO_STDIO_FILETYPES | CYGINT_ISO_STDIO_FORMATTED_IO) & (!CYGPKG_ISOINFRA | !CYGINT_ISO_STDIO_FILEOPS | CYGINT_ISO_STDIO_STREAMS | !CYGINT_ISO_STDIO_FORMATTED_IO | CYGINT_ISO_STDIO_FILETYPES)) | !CYGINT_ISO_ABS))) & (CYGINT_ISO_EXIT | ((!CYGPKG_ISOINFRA | !CYGINT_ISO_STDIO_FILEOPS | !CYGINT_ISO_STDIO_FILEACCESS | CYGINT_ISO_STDIO_STREAMS | CYGINT_ISO_STDIO_FILETYPES | CYGINT_ISO_STDIO_FORMATTED_IO) & (!CYGPKG_ISOINFRA | !CYGINT_ISO_STDIO_FILEOPS | CYGINT_ISO_STDIO_STREAMS | !CYGINT_ISO_STDIO_FORMATTED_IO | CYGINT_ISO_STDIO_FILETYPES)) | !CYGINT_ISO_DIV))) & (CYGINT_ISO_EXIT | ((!CYGPKG_ISOINFRA | !CYGINT_ISO_STDIO_FILEOPS | !CYGINT_ISO_STDIO_FILEACCESS | CYGINT_ISO_STDIO_STREAMS | CYGINT_ISO_STDIO_FILETYPES | CYGINT_ISO_STDIO_FORMATTED_IO) & (!CYGPKG_ISOINFRA | !CYGINT_ISO_STDIO_FILEOPS | CYGINT_ISO_STDIO_STREAMS | !CYGINT_ISO_STDIO_FORMATTED_IO | CYGINT_ISO_STDIO_FILETYPES)) | !CYGINT_ISO_STDLIB_MULTIBYTE))) & (CYGINT_ISO_EXIT | ((!CYGPKG_ISOINFRA | !CYGINT_ISO_STDIO_FILEOPS | !CYGINT_ISO_STDIO_FILEACCESS | CYGINT_ISO_STDIO_STREAMS | CYGINT_ISO_STDIO_FILETYPES | CYGINT_ISO_STDIO_FORMATTED_IO) & (!CYGPKG_ISOINFRA | !CYGINT_ISO_STDIO_FILEOPS | CYGINT_ISO_STDIO_STREAMS | !CYGINT_ISO_STDIO_FORMATTED_IO | CYGINT_ISO_STDIO_FILETYPES)) | !CYGINT_LIBC_I18N_MB_REQUIRED)) | CYGPKG_ERROR_ERRNO) & (!CYGIMP_LIBC_STDIO_INLINES | ((CYGINT_LIBC_I18N_MB_REQUIRED | ((CYGINT_ISO_STDLIB_MULTIBYTE | ((CYGINT_ISO_DIV | ((CYGINT_ISO_ABS | ((!CYGPKG_ISOINFRA | !CYGINT_ISO_STDIO_FILEOPS | !CYGINT_ISO_STDIO_FILEACCESS | CYGINT_ISO_ERRNO | CYGINT_ISO_STDIO_STREAMS | CYGINT_ISO_STDIO_FILETYPES | CYGINT_ISO_STDIO_FORMATTED_IO) & (!CYGPKG_ISOINFRA | !CYGINT_ISO_STDIO_FILEOPS | CYGINT_ISO_ERRNO | CYGINT_ISO_STDIO_STREAMS | !CYGINT_ISO_STDIO_FORMATTED_IO | CYGINT_ISO_STDIO_FILETYPES))) & (CYGINT_ISO_EXIT | ((!CYGPKG_ISOINFRA | !CYGINT_ISO_STDIO_FILEOPS | !CYGINT_ISO_STDIO_FILEACCESS | CYGINT_ISO_ERRNO | CYGINT_ISO_STDIO_STREAMS | CYGINT_ISO_STDIO_FILETYPES | CYGINT_ISO_STDIO_FORMATTED_IO) & (!CYGPKG_ISOINFRA | !CYGINT_ISO_STDIO_FILEOPS | CYGINT_ISO_ERRNO | CYGINT_ISO_STDIO_STREAMS | !CYGINT_ISO_STDIO_FORMATTED_IO | CYGINT_ISO_STDIO_FILETYPES)) | !CYGINT_ISO_ABS))) & (CYGINT_ISO_EXIT | ((!CYGPKG_ISOINFRA | !CYGINT_ISO_STDIO_FILEOPS | !CYGINT_ISO_STDIO_FILEACCESS | CYGINT_ISO_ERRNO | CYGINT_ISO_STDIO_STREAMS | CYGINT_ISO_STDIO_FILETYPES | CYGINT_ISO_STDIO_FORMATTED_IO) & (!CYGPKG_ISOINFRA | !CYGINT_ISO_STDIO_FILEOPS | CYGINT_ISO_ERRNO | CYGINT_ISO_STDIO_STREAMS | !CYGINT_ISO_STDIO_FORMATTED_IO | CYGINT_ISO_STDIO_FILETYPES)) | !CYGINT_ISO_DIV))) & (CYGINT_ISO_EXIT | ((!CYGPKG_ISOINFRA | !CYGINT_ISO_STDIO_FILEOPS | !CYGINT_ISO_STDIO_FILEACCESS | CYGINT_ISO_ERRNO | CYGINT_ISO_STDIO_STREAMS | CYGINT_ISO_STDIO_FILETYPES | CYGINT_ISO_STDIO_FORMATTED_IO) & (!CYGPKG_ISOINFRA | !CYGINT_ISO_STDIO_FILEOPS | CYGINT_ISO_ERRNO | CYGINT_ISO_STDIO_STREAMS | !CYGINT_ISO_STDIO_FORMATTED_IO | CYGINT_ISO_STDIO_FILETYPES)) | !CYGINT_ISO_STDLIB_MULTIBYTE))) & (CYGINT_ISO_EXIT | ((!CYGPKG_ISOINFRA | !CYGINT_ISO_STDIO_FILEOPS | !CYGINT_ISO_STDIO_FILEACCESS | CYGINT_ISO_ERRNO | CYGINT_ISO_STDIO_STREAMS | CYGINT_ISO_STDIO_FILETYPES | CYGINT_ISO_STDIO_FORMATTED_IO) & (!CYGPKG_ISOINFRA | !CYGINT_ISO_STDIO_FILEOPS | CYGINT_ISO_ERRNO | CYGINT_ISO_STDIO_STREAMS | !CYGINT_ISO_STDIO_FORMATTED_IO | CYGINT_ISO_STDIO_FILETYPES)) | !CYGINT_LIBC_I18N_MB_REQUIRED)) | !CYGPKG_ERROR_ERRNO)))
72	4308	0	CYGINT_ISO_STRERROR | CYGINT_ISO_STDIO_FILEOPS | ~CYGINT_ISO_STDIO_CHAR_IO | CYGINT_ISO_STDIO_STREAMS | ~CYGIMP_LIBC_STDIO_INLINES | ~CYGFUN_COMPRESS_ZLIB_GZIO | CYGINT_ISO_STDIO_FILETYPES | CYGINT_ISO_STDIO_FILEACCESS | CYGINT_ISO_STDIO_FORMATTED_IO
73	510	0	 !CYGPKG_PPP | CYGINT_ISO_STDIO_ERROR | CYGINT_ISO_STDIO_FILEOPS | CYGINT_ISO_STDIO_FILEPOS | CYGINT_ISO_STDIO_CHAR_IO | CYGINT_ISO_STDIO_STREAMS | CYGINT_ISO_STDIO_DIRECT_IO | CYGINT_ISO_STDIO_FILETYPES | CYGINT_ISO_STDIO_FILEACCESS | CYGINT_ISO_STDIO_FORMATTED_IO | !CYGINT_ISO_STDIO_POSIX_FDFUNCS
74	113	0	 !CYGPKG_LIBM | !CYGSEM_LIBM_USE_STDERR | CYGINT_ISO_STDIO_FILEOPS | CYGINT_ISO_STDIO_STREAMS | !CYGIMP_LIBC_STDIO_INLINES | CYGINT_ISO_STDIO_FILETYPES | CYGINT_ISO_STDIO_FILEACCESS | CYGSEM_LIBM_COMPAT_IEEE_ONLY | !CYGINT_ISO_STDIO_FORMATTED_IO | CYGINT_ISO_ERRNO & CYGPKG_ERROR_ERRNO
75	78	0	 !CYGPKG_HAL_I386_PCMB | CYGPKG_HAL_SMP_CPU_MAX | !CYGPKG_HAL_SMP_SUPPORT
76	11019	1	(!CYGPKG_INFRA | ((!CYGIMP_LIBC_STDIO_INLINES | ((CYGINT_LIBC_I18N_MB_REQUIRED | ((CYGINT_ISO_STDLIB_MULTIBYTE | ((CYGINT_ISO_DIV | ((CYGINT_ISO_ABS | ((!CYGPKG_ISOINFRA | !CYGINT_ISO_STDIO_FILEACCESS | !CYGINT_ISO_STDIO_STREAMS | CYGINT_ISO_STDIO_FILETYPES | CYGINT_ISO_STDIO_FORMATTED_IO) & (CYGINT_ISO_STDIO_FILETYPES | !CYGPKG_ISOINFRA | !CYGINT_ISO_STDIO_STREAMS | !CYGINT_ISO_STDIO_FORMATTED_IO))) & (CYGINT_ISO_EXIT | ((!CYGPKG_ISOINFRA | !CYGINT_ISO_STDIO_FILEACCESS | !CYGINT_ISO_STDIO_STREAMS | CYGINT_ISO_STDIO_FILETYPES | CYGINT_ISO_STDIO_FORMATTED_IO) & (CYGINT_ISO_STDIO_FILETYPES | !CYGPKG_ISOINFRA | !CYGINT_ISO_STDIO_STREAMS | !CYGINT_ISO_STDIO_FORMATTED_IO)) | !CYGINT_ISO_ABS))) & (CYGINT_ISO_EXIT | ((!CYGPKG_ISOINFRA | !CYGINT_ISO_STDIO_FILEACCESS | !CYGINT_ISO_STDIO_STREAMS | CYGINT_ISO_STDIO_FILETYPES | CYGINT_ISO_STDIO_FORMATTED_IO) & (CYGINT_ISO_STDIO_FILETYPES | !CYGPKG_ISOINFRA | !CYGINT_ISO_STDIO_STREAMS | !CYGINT_ISO_STDIO_FORMATTED_IO)) | !CYGINT_ISO_DIV))) & (CYGINT_ISO_EXIT | ((!CYGPKG_ISOINFRA | !CYGINT_ISO_STDIO_FILEACCESS | !CYGINT_ISO_STDIO_STREAMS | CYGINT_ISO_STDIO_FILETYPES | CYGINT_ISO_STDIO_FORMATTED_IO) & (CYGINT_ISO_STDIO_FILETYPES | !CYGPKG_ISOINFRA | !CYGINT_ISO_STDIO_STREAMS | !CYGINT_ISO_STDIO_FORMATTED_IO)) | !CYGINT_ISO_STDLIB_MULTIBYTE))) & (CYGINT_ISO_EXIT | ((!CYGPKG_ISOINFRA | !CYGINT_ISO_STDIO_FILEACCESS | !CYGINT_ISO_STDIO_STREAMS | CYGINT_ISO_STDIO_FILETYPES | CYGINT_ISO_STDIO_FORMATTED_IO) & (CYGINT_ISO_STDIO_FILETYPES | !CYGPKG_ISOINFRA | !CYGINT_ISO_STDIO_STREAMS | !CYGINT_ISO_STDIO_FORMATTED_IO)) | !CYGINT_LIBC_I18N_MB_REQUIRED)) | CYGPKG_ERROR_ERRNO) & (!CYGIMP_LIBC_STDIO_INLINES | ((CYGINT_LIBC_I18N_MB_REQUIRED | ((CYGINT_ISO_STDLIB_MULTIBYTE | ((CYGINT_ISO_DIV | ((CYGINT_ISO_ABS | ((!CYGPKG_ISOINFRA | !CYGINT_ISO_STDIO_FILEACCESS | CYGINT_ISO_ERRNO | !CYGINT_ISO_STDIO_STREAMS | CYGINT_ISO_STDIO_FILETYPES | CYGINT_ISO_STDIO_FORMATTED_IO) & (!CYGPKG_ISOINFRA | CYGINT_ISO_ERRNO | !CYGINT_ISO_STDIO_FORMATTED_IO | !CYGINT_ISO_STDIO_STREAMS | CYGINT_ISO_STDIO_FILETYPES))) & (CYGINT_ISO_EXIT | ((!CYGPKG_ISOINFRA | !CYGINT_ISO_STDIO_FILEACCESS | CYGINT_ISO_ERRNO | !CYGINT_ISO_STDIO_STREAMS | CYGINT_ISO_STDIO_FILETYPES | CYGINT_ISO_STDIO_FORMATTED_IO) & (!CYGPKG_ISOINFRA | CYGINT_ISO_ERRNO | !CYGINT_ISO_STDIO_FORMATTED_IO | !CYGINT_ISO_STDIO_STREAMS | CYGINT_ISO_STDIO_FILETYPES)) | !CYGINT_ISO_ABS))) & (CYGINT_ISO_EXIT | ((!CYGPKG_ISOINFRA | !CYGINT_ISO_STDIO_FILEACCESS | CYGINT_ISO_ERRNO | !CYGINT_ISO_STDIO_STREAMS | CYGINT_ISO_STDIO_FILETYPES | CYGINT_ISO_STDIO_FORMATTED_IO) & (!CYGPKG_ISOINFRA | CYGINT_ISO_ERRNO | !CYGINT_ISO_STDIO_FORMATTED_IO | !CYGINT_ISO_STDIO_STREAMS | CYGINT_ISO_STDIO_FILETYPES)) | !CYGINT_ISO_DIV))) & (CYGINT_ISO_EXIT | ((!CYGPKG_ISOINFRA | !CYGINT_ISO_STDIO_FILEACCESS | CYGINT_ISO_ERRNO | !CYGINT_ISO_STDIO_STREAMS | CYGINT_ISO_STDIO_FILETYPES | CYGINT_ISO_STDIO_FORMATTED_IO) & (!CYGPKG_ISOINFRA | CYGINT_ISO_ERRNO | !CYGINT_ISO_STDIO_FORMATTED_IO | !CYGINT_ISO_STDIO_STREAMS | CYGINT_ISO_STDIO_FILETYPES)) | !CYGINT_ISO_STDLIB_MULTIBYTE))) & (CYGINT_ISO_EXIT | ((!CYGPKG_ISOINFRA | !CYGINT_ISO_STDIO_FILEACCESS | CYGINT_ISO_ERRNO | !CYGINT_ISO_STDIO_STREAMS | CYGINT_ISO_STDIO_FILETYPES | CYGINT_ISO_STDIO_FORMATTED_IO) & (!CYGPKG_ISOINFRA | CYGINT_ISO_ERRNO | !CYGINT_ISO_STDIO_FORMATTED_IO | !CYGINT_ISO_STDIO_STREAMS | CYGINT_ISO_STDIO_FILETYPES)) | !CYGINT_LIBC_I18N_MB_REQUIRED)) | !CYGPKG_ERROR_ERRNO)))
77	4404	0	 !CYGPKG_PPP | CYGINT_ISO_STRERROR | !CYGIMP_LIBC_STDIO_INLINES | !CYGINT_ISO_STDIO_FILETYPES
78	470	0	CYGINT_ISO_MALLOC | ~CYGPKG_COMPRESS_ZLIB | CYGPKG_COMPRESS_ZLIB_CFLAGS_ADD
79	119	0	 !CYGPKG_PPP | CYGINT_ISO_STDIO_FILEOPS | CYGINT_ISO_STDIO_CHAR_IO | CYGINT_ISO_STDIO_STREAMS | !CYGIMP_LIBC_STDIO_INLINES | !CYGINT_ISO_STDIO_DIRECT_IO | CYGINT_ISO_STDIO_FILETYPES | CYGINT_ISO_STDIO_FILEACCESS | CYGINT_ISO_STDIO_FORMATTED_IO | CYGINT_ISO_ERRNO & CYGPKG_ERROR_ERRNO
80	41	0	 !CYGPKG_PPP | CYGINT_ISO_STRERROR | !CYGINT_ISO_STDIO_STREAMS | !CYGIMP_LIBC_STDIO_INLINES | CYGINT_ISO_STDIO_FILETYPES
81	62	0	CYGINT_ISO_STDIO_FILEOPS | CYGINT_ISO_STDIO_STREAMS | ~CYGIMP_LIBC_STDIO_INLINES | ~CYGFUN_COMPRESS_ZLIB_GZIO | CYGINT_ISO_STDIO_FILETYPES | ~CYGINT_ISO_STDIO_FILEACCESS | CYGINT_ISO_ERRNO & CYGPKG_ERROR_ERRNO
82	916	0	CYGINT_ISO_STDIO_ERROR | CYGINT_ISO_STDIO_FILEOPS | CYGINT_ISO_STDIO_FILEPOS | CYGINT_ISO_STDIO_CHAR_IO | CYGINT_ISO_STDIO_STREAMS | ~CYGFUN_COMPRESS_ZLIB_GZIO | CYGINT_ISO_STDIO_DIRECT_IO | CYGINT_ISO_STDIO_FILETYPES | CYGINT_ISO_STDIO_FILEACCESS | CYGINT_ISO_STDIO_FORMATTED_IO | ~CYGINT_ISO_STDIO_POSIX_FDFUNCS | CYGPKG_COMPRESS_ZLIB_CFLAGS_ADD
83	215	0	 !CYGPKG_LIBM | !CYGINT_ISO_ERRNO_CODES | !CYGFUN_LIBM_SVID3_scalb | CYGSEM_LIBM_COMPAT_IEEE_ONLY | CYGINT_ISO_ERRNO & CYGPKG_ERROR_ERRNO
84	47	0	 !CYGPKG_LIBM | CYGINT_ISO_STRERROR | !CYGSEM_LIBM_USE_STDERR | !CYGINT_ISO_STDIO_FILEOPS | CYGINT_ISO_STDIO_STREAMS | !CYGIMP_LIBC_STDIO_INLINES | CYGINT_ISO_STDIO_FILETYPES
85	64	0	 !CYGPKG_LIBM | !CYGSEM_LIBM_USE_STDERR | !CYGINT_ISO_STDIO_FILEOPS | CYGINT_ISO_STDIO_STREAMS | !CYGIMP_LIBC_STDIO_INLINES | CYGINT_ISO_STDIO_FILETYPES | CYGSEM_LIBM_COMPAT_IEEE_ONLY | CYGINT_ISO_ERRNO & CYGPKG_ERROR_ERRNO
86	43	0	 !CYGPKG_HAL_SMP_SUPPORT | !CYGPKG_HAL_I386_PCMB_SMP_SUPPORT
87	105	0	 !CYGPKG_LIBM | CYGINT_ISO_ERRNO_CODES | !CYGFUN_LIBM_SVID3_scalb | CYGSEM_LIBM_COMPAT_IEEE_ONLY | CYGINT_ISO_ERRNO & CYGPKG_ERROR_ERRNO
88	95	0	 !CYGPKG_PPP | !CYGINT_ISO_STDIO_STREAMS | !CYGIMP_LIBC_STDIO_INLINES | CYGINT_ISO_STDIO_FILETYPES | CYGINT_ISO_ERRNO & CYGPKG_ERROR_ERRNO
89	69	0	 !CYGPKG_HAL_SMP_SUPPORT | !CYGPKG_KERNEL_SMP_SUPPORT | !CYGPKG_HAL_I386_PCMB_SMP_SUPPORT
90	61	0	 !CYGPKG_PPP | CYGINT_ISO_STRERROR | CYGINT_ISO_STDIO_FILEOPS | !CYGINT_ISO_STDIO_FILEPOS | CYGINT_ISO_STDIO_CHAR_IO | CYGINT_ISO_STDIO_STREAMS | !CYGIMP_LIBC_STDIO_INLINES | CYGINT_ISO_STDIO_DIRECT_IO | CYGINT_ISO_STDIO_FILETYPES | CYGINT_ISO_STDIO_FILEACCESS | CYGINT_ISO_STDIO_FORMATTED_IO
91	143	0	 !CYGPKG_LIBM | !CYGSEM_LIBM_USE_STDERR | CYGINT_ISO_STDIO_FILEOPS | !CYGINT_ISO_STDIO_FILEPOS | CYGINT_ISO_STDIO_CHAR_IO | CYGINT_ISO_STDIO_STREAMS | !CYGIMP_LIBC_STDIO_INLINES | CYGINT_ISO_STDIO_DIRECT_IO | CYGINT_ISO_STDIO_FILETYPES | CYGINT_ISO_STDIO_FILEACCESS | CYGSEM_LIBM_COMPAT_IEEE_ONLY | CYGINT_ISO_STDIO_FORMATTED_IO | CYGINT_ISO_ERRNO & CYGPKG_ERROR_ERRNO
92	94	0	CYGPKG_ERROR | ~CYGPKG_BLOCK_LIB
93	957	0	 !CYGPKG_INFRA | !CYGPKG_ISOINFRA | CYGINT_ISO_STRERROR | !CYGINT_ISO_STDIO_STREAMS | !CYGIMP_LIBC_STDIO_INLINES | CYGINT_ISO_STDIO_FILETYPES | !CYGINT_ISO_STDIO_FILEACCESS & !CYGINT_ISO_STDIO_FORMATTED_IO | CYGINT_ISO_ABS & CYGINT_ISO_EXIT | CYGINT_ISO_DIV & CYGINT_ISO_EXIT | CYGINT_ISO_EXIT & CYGINT_LIBC_I18N_MB_REQUIRED | CYGINT_ISO_EXIT & CYGINT_ISO_STDLIB_MULTIBYTE
94	1285	0	 !CYGPKG_PPP | !CYGDBG_USE_ASSERTS | CYGINT_ISO_EXIT & CYGINT_ISO_STDIO_FORMATTED_IO | !CYGPKG_NET_CFLAGS_ADD & !CYGPKG_NS_DNS_CFLAGS_ADD & !CYGPKG_SNMPLIB_CFLAGS_ADD & !CYGPKG_NET_SNTP_CFLAGS_ADD & !CYGPKG_SNMPAGENT_CFLAGS_ADD & !CYGPKG_NET_FTPCLIENT_CFLAGS_ADD & !CYGPKG_IO_ETH_DRIVERS_CFLAGS_ADD & !CYGPKG_NET_FREEBSD_STACK_CFLAGS_ADD & !CYGPKG_DEVS_ETH_AMD_LANCEPCI_CFLAGS_ADD
95	40	0	 !CYGFUN_COMPRESS_ZLIB_GZIO | CYGINT_ISO_STDIO_POSIX_FDFUNCS
96	89	0	 !CYGPKG_PPP | !CYGPKG_NET_CFLAGS_ADD & !CYGPKG_NS_DNS_CFLAGS_ADD & !CYGPKG_SNMPLIB_CFLAGS_ADD & !CYGPKG_NET_SNTP_CFLAGS_ADD & !CYGPKG_SNMPAGENT_CFLAGS_ADD & !CYGPKG_NET_FTPCLIENT_CFLAGS_ADD & !CYGPKG_IO_ETH_DRIVERS_CFLAGS_ADD & !CYGPKG_NET_FREEBSD_STACK_CFLAGS_ADD & !CYGPKG_DEVS_ETH_AMD_LANCEPCI_CFLAGS_ADD
97	11022	1	(!CYGPKG_INFRA | ((!CYGIMP_LIBC_STDIO_INLINES | ((CYGINT_LIBC_I18N_MB_REQUIRED | ((CYGINT_ISO_STDLIB_MULTIBYTE | ((!CYGINT_ISO_EXIT | ((!CYGPKG_ISOINFRA | !CYGINT_ISO_STDIO_FILEACCESS | !CYGINT_ISO_STDIO_STREAMS | CYGINT_ISO_STDIO_FILETYPES | CYGINT_ISO_STDIO_FORMATTED_IO) & (CYGINT_ISO_STDIO_FILETYPES | !CYGPKG_ISOINFRA | !CYGINT_ISO_STDIO_STREAMS | !CYGINT_ISO_STDIO_FORMATTED_IO)) | !CYGINT_ISO_ABS | CYGINT_ISO_DIV) & (!CYGINT_ISO_EXIT | ((!CYGPKG_ISOINFRA | !CYGINT_ISO_STDIO_FILEACCESS | !CYGINT_ISO_STDIO_STREAMS | CYGINT_ISO_STDIO_FILETYPES | CYGINT_ISO_STDIO_FORMATTED_IO) & (CYGINT_ISO_STDIO_FILETYPES | !CYGPKG_ISOINFRA | !CYGINT_ISO_STDIO_STREAMS | !CYGINT_ISO_STDIO_FORMATTED_IO)) | !CYGINT_ISO_DIV))) & (!CYGINT_ISO_EXIT | ((!CYGPKG_ISOINFRA | !CYGINT_ISO_STDIO_FILEACCESS | !CYGINT_ISO_STDIO_STREAMS | CYGINT_ISO_STDIO_FILETYPES | CYGINT_ISO_STDIO_FORMATTED_IO) & (CYGINT_ISO_STDIO_FILETYPES | !CYGPKG_ISOINFRA | !CYGINT_ISO_STDIO_STREAMS | !CYGINT_ISO_STDIO_FORMATTED_IO)) | !CYGINT_ISO_STDLIB_MULTIBYTE))) & (!CYGINT_ISO_EXIT | ((!CYGPKG_ISOINFRA | !CYGINT_ISO_STDIO_FILEACCESS | !CYGINT_ISO_STDIO_STREAMS | CYGINT_ISO_STDIO_FILETYPES | CYGINT_ISO_STDIO_FORMATTED_IO) & (CYGINT_ISO_STDIO_FILETYPES | !CYGPKG_ISOINFRA | !CYGINT_ISO_STDIO_STREAMS | !CYGINT_ISO_STDIO_FORMATTED_IO)) | !CYGINT_LIBC_I18N_MB_REQUIRED)) | CYGPKG_ERROR_ERRNO) & (!CYGIMP_LIBC_STDIO_INLINES | ((CYGINT_LIBC_I18N_MB_REQUIRED | ((CYGINT_ISO_STDLIB_MULTIBYTE | ((!CYGINT_ISO_EXIT | ((!CYGPKG_ISOINFRA | !CYGINT_ISO_STDIO_FILEACCESS | CYGINT_ISO_ERRNO | !CYGINT_ISO_STDIO_STREAMS | CYGINT_ISO_STDIO_FILETYPES | CYGINT_ISO_STDIO_FORMATTED_IO) & (!CYGPKG_ISOINFRA | CYGINT_ISO_ERRNO | !CYGINT_ISO_STDIO_FORMATTED_IO | !CYGINT_ISO_STDIO_STREAMS | CYGINT_ISO_STDIO_FILETYPES)) | !CYGINT_ISO_ABS | CYGINT_ISO_DIV) & (!CYGINT_ISO_EXIT | ((!CYGPKG_ISOINFRA | !CYGINT_ISO_STDIO_FILEACCESS | CYGINT_ISO_ERRNO | !CYGINT_ISO_STDIO_STREAMS | CYGINT_ISO_STDIO_FILETYPES | CYGINT_ISO_STDIO_FORMATTED_IO) & (!CYGPKG_ISOINFRA | CYGINT_ISO_ERRNO | !CYGINT_ISO_STDIO_FORMATTED_IO | !CYGINT_ISO_STDIO_STREAMS | CYGINT_ISO_STDIO_FILETYPES)) | !CYGINT_ISO_DIV))) & (!CYGINT_ISO_EXIT | ((!CYGPKG_ISOINFRA | !CYGINT_ISO_STDIO_FILEACCESS | CYGINT_ISO_ERRNO | !CYGINT_ISO_STDIO_STREAMS | CYGINT_ISO_STDIO_FILETYPES | CYGINT_ISO_STDIO_FORMATTED_IO) & (!CYGPKG_ISOINFRA | CYGINT_ISO_ERRNO | !CYGINT_ISO_STDIO_FORMATTED_IO | !CYGINT_ISO_STDIO_STREAMS | CYGINT_ISO_STDIO_FILETYPES)) | !CYGINT_ISO_STDLIB_MULTIBYTE))) & (!CYGINT_ISO_EXIT | ((!CYGPKG_ISOINFRA | !CYGINT_ISO_STDIO_FILEACCESS | CYGINT_ISO_ERRNO | !CYGINT_ISO_STDIO_STREAMS | CYGINT_ISO_STDIO_FILETYPES | CYGINT_ISO_STDIO_FORMATTED_IO) & (!CYGPKG_ISOINFRA | CYGINT_ISO_ERRNO | !CYGINT_ISO_STDIO_FORMATTED_IO | !CYGINT_ISO_STDIO_STREAMS | CYGINT_ISO_STDIO_FILETYPES)) | !CYGINT_LIBC_I18N_MB_REQUIRED)) | !CYGPKG_ERROR_ERRNO)))
98	4655	0	 !CYGPKG_PPP | CYGINT_ISO_STRERROR | !CYGINT_ISO_STDIO_FILEOPS | CYGINT_ISO_STDIO_STREAMS | !CYGIMP_LIBC_STDIO_INLINES | CYGINT_ISO_STDIO_FILETYPES
99	504	0	 !CYGPKG_LIBM | !CYGSEM_LIBM_USE_STDERR | CYGINT_ISO_STDIO_FILEOPS | !CYGINT_ISO_STDIO_CHAR_IO | CYGINT_ISO_STDIO_STREAMS | !CYGIMP_LIBC_STDIO_INLINES | CYGINT_ISO_STDIO_FILETYPES | CYGINT_ISO_STDIO_FILEACCESS | CYGSEM_LIBM_COMPAT_IEEE_ONLY | CYGINT_ISO_STDIO_FORMATTED_IO | CYGINT_ISO_ERRNO & CYGPKG_ERROR_ERRNO
100	122	0	CYGINT_ISO_STRERROR | CYGINT_ISO_STDIO_FILEOPS | CYGINT_ISO_STDIO_STREAMS | ~CYGIMP_LIBC_STDIO_INLINES | ~CYGFUN_COMPRESS_ZLIB_GZIO | CYGINT_ISO_STDIO_FILETYPES | CYGINT_ISO_STDIO_FILEACCESS | ~CYGINT_ISO_STDIO_FORMATTED_IO
101	140	0	 !CYGPKG_INFRA | !CYGPKG_ISOINFRA | CYGINT_ISO_STRERROR | CYGINT_ISO_STDIO_FILEOPS | CYGINT_ISO_STDIO_STREAMS | !CYGIMP_LIBC_STDIO_INLINES | CYGINT_ISO_STDIO_FILETYPES | !CYGINT_ISO_STDIO_FILEACCESS | CYGINT_ISO_ABS & CYGINT_ISO_EXIT | CYGINT_ISO_DIV & CYGINT_ISO_EXIT | CYGINT_ISO_EXIT & CYGINT_LIBC_I18N_MB_REQUIRED | CYGINT_ISO_EXIT & CYGINT_ISO_STDLIB_MULTIBYTE
102	1123	0	 !CYGIMP_LIBC_STDIO_INLINES | !CYGFUN_COMPRESS_ZLIB_GZIO | !CYGINT_ISO_STDIO_FILETYPES | CYGINT_ISO_ERRNO & CYGPKG_ERROR_ERRNO
103	180	0	CYGPKG_HAL_SMP_CPU_MAX | ~CYGPKG_HAL_SMP_SUPPORT | ~CYGPKG_HAL_I386_GENERIC
104	2417	0	 !CYGPKG_INFRA | !CYGPKG_ISOINFRA | !CYGINT_ISO_EXIT | CYGINT_ISO_STDIO_FILEOPS | CYGINT_ISO_STDIO_STREAMS | !CYGIMP_LIBC_STDIO_INLINES | CYGINT_ISO_STDIO_FILETYPES | !CYGINT_ISO_STDIO_FILEACCESS | CYGINT_ISO_ERRNO & CYGPKG_ERROR_ERRNO | !CYGINT_ISO_ABS & !CYGINT_ISO_DIV & !CYGINT_LIBC_I18N_MB_REQUIRED & !CYGINT_ISO_STDLIB_MULTIBYTE
105	36	0	CYGINT_ISO_MALLOC | ~CYGPKG_COMPRESS_ZLIB | CYGPKG_COMPRESS_ZLIB_CFLAGS_ADD & CYGINT_COMPRESS_ZLIB_LOCAL_ALLOC
106	154	0	 !CYGPKG_NET_INET | !CYGPKG_NET_INET6 | CYGINT_ISO_STRTOK_R | CYGINT_ISO_STRING_MEMFUNCS | CYGINT_ISO_STRING_STRFUNCS | CYGINT_ISO_STRING_LOCALE_FUNCS
107	63	0	CYGINT_ISO_STDIO_FILEOPS | CYGINT_ISO_STDIO_STREAMS | ~CYGIMP_LIBC_STDIO_INLINES | ~CYGFUN_COMPRESS_ZLIB_GZIO | CYGINT_ISO_STDIO_FILETYPES | CYGINT_ISO_STDIO_FILEACCESS | ~CYGINT_ISO_STDIO_FORMATTED_IO | CYGINT_ISO_ERRNO & CYGPKG_ERROR_ERRNO
108	92	0	 !CYGPKG_NET_INET | CYGINT_ISO_ERRNO & CYGPKG_ERROR_ERRNO
109	46	0	 !CYGPKG_PPP | CYGINT_ISO_STDIO_FILEOPS | !CYGINT_ISO_STDIO_FILEPOS | CYGINT_ISO_STDIO_CHAR_IO | CYGINT_ISO_STDIO_STREAMS | !CYGIMP_LIBC_STDIO_INLINES | CYGINT_ISO_STDIO_DIRECT_IO | CYGINT_ISO_STDIO_FILETYPES | CYGINT_ISO_STDIO_FILEACCESS | CYGINT_ISO_STDIO_FORMATTED_IO | CYGINT_ISO_ERRNO & CYGPKG_ERROR_ERRNO
110	93	0	 !CYGPKG_PPP | CYGINT_ISO_STRERROR | !CYGINT_ISO_STDIO_ERROR | CYGINT_ISO_STDIO_FILEOPS | CYGINT_ISO_STDIO_FILEPOS | CYGINT_ISO_STDIO_CHAR_IO | CYGINT_ISO_STDIO_STREAMS | !CYGIMP_LIBC_STDIO_INLINES | CYGINT_ISO_STDIO_DIRECT_IO | CYGINT_ISO_STDIO_FILETYPES | CYGINT_ISO_STDIO_FILEACCESS | CYGINT_ISO_STDIO_FORMATTED_IO
111	52	0	CYGPKG_HAL_SMP_CPU_MAX | ~CYGPKG_HAL_SMP_SUPPORT | ~CYGPKG_HAL_I386_PCMB_SMP_SUPPORT
112	160	0	 !CYGPKG_INFRA | !CYGPKG_ISOINFRA | !CYGINT_ISO_EXIT | CYGINT_ISO_STRERROR | CYGINT_ISO_STDIO_FILEOPS | CYGINT_ISO_STDIO_STREAMS | !CYGIMP_LIBC_STDIO_INLINES | CYGINT_ISO_STDIO_FILETYPES | !CYGINT_ISO_STDIO_FILEACCESS | !CYGINT_ISO_ABS & !CYGINT_ISO_DIV & !CYGINT_LIBC_I18N_MB_REQUIRED & !CYGINT_ISO_STDLIB_MULTIBYTE
113	54	0	 !CYGPKG_PPP | !CYGIMP_LIBC_STDIO_INLINES | !CYGINT_ISO_STDIO_FILETYPES | CYGINT_ISO_ERRNO & CYGPKG_ERROR_ERRNO
114	3327	0	 !CYGPKG_INFRA | !CYGPKG_ISOINFRA | !CYGINT_ISO_EXIT | !CYGIMP_LIBC_STDIO_INLINES | !CYGINT_ISO_STDIO_FILETYPES | !CYGINT_ISO_STDIO_FILEACCESS & !CYGINT_ISO_STDIO_FORMATTED_IO | CYGINT_ISO_ERRNO & CYGPKG_ERROR_ERRNO | !CYGINT_ISO_ABS & !CYGINT_ISO_DIV & !CYGINT_LIBC_I18N_MB_REQUIRED & !CYGINT_ISO_STDLIB_MULTIBYTE
115	134	0	 !CYGPKG_LIBM | !CYGSEM_LIBM_USE_STDERR | !CYGINT_ISO_STDIO_STREAMS | !CYGIMP_LIBC_STDIO_INLINES | CYGINT_ISO_STDIO_FILETYPES | CYGSEM_LIBM_COMPAT_IEEE_ONLY | CYGINT_ISO_ERRNO & CYGPKG_ERROR_ERRNO
116	35	0	 !CYGPKG_PPP | CYGINT_ISO_STRERROR | CYGINT_ISO_STDIO_FILEOPS | !CYGINT_ISO_STDIO_CHAR_IO | CYGINT_ISO_STDIO_STREAMS | !CYGIMP_LIBC_STDIO_INLINES | CYGINT_ISO_STDIO_FILETYPES | CYGINT_ISO_STDIO_FILEACCESS | CYGINT_ISO_STDIO_FORMATTED_IO
117	37	0	CYGINT_ISO_STRTOK_R | ~CYGFUN_COMPRESS_ZLIB_GZIO | CYGINT_ISO_STRING_MEMFUNCS | CYGINT_ISO_STRING_STRFUNCS | CYGINT_ISO_STRING_LOCALE_FUNCS
118	113	0	 !CYGPKG_LIBM | CYGINT_ISO_STRERROR | !CYGSEM_LIBM_USE_STDERR | CYGINT_ISO_STDIO_FILEOPS | CYGINT_ISO_STDIO_STREAMS | !CYGIMP_LIBC_STDIO_INLINES | CYGINT_ISO_STDIO_FILETYPES | CYGINT_ISO_STDIO_FILEACCESS | !CYGINT_ISO_STDIO_FORMATTED_IO
119	38	0	CYGINT_ISO_STRTOK_R | ~CYGPKG_FILEIO_FNMATCH | CYGINT_ISO_STRING_MEMFUNCS | CYGINT_ISO_STRING_STRFUNCS | CYGINT_ISO_STRING_LOCALE_FUNCS
120	41	0	 !CYGPKG_PPP | CYGINT_ISO_STDIO_FILEOPS | CYGINT_ISO_STDIO_STREAMS | !CYGIMP_LIBC_STDIO_INLINES | CYGINT_ISO_STDIO_FILETYPES | !CYGINT_ISO_STDIO_FILEACCESS | CYGINT_ISO_ERRNO & CYGPKG_ERROR_ERRNO
121	1058	0	 !CYGPKG_PPP | CYGDBG_USE_ASSERTS | CYGINT_ISO_EXIT & CYGINT_ISO_STDIO_FORMATTED_IO | !CYGPKG_NET_CFLAGS_ADD & !CYGPKG_NS_DNS_CFLAGS_ADD & !CYGPKG_SNMPLIB_CFLAGS_ADD & !CYGPKG_NET_SNTP_CFLAGS_ADD & !CYGPKG_SNMPAGENT_CFLAGS_ADD & !CYGPKG_NET_FTPCLIENT_CFLAGS_ADD & !CYGPKG_IO_ETH_DRIVERS_CFLAGS_ADD & !CYGPKG_NET_FREEBSD_STACK_CFLAGS_ADD & !CYGPKG_DEVS_ETH_AMD_LANCEPCI_CFLAGS_ADD
122	70	0	CYGINT_ISO_STRERROR | ~CYGINT_ISO_STDIO_FILEOPS | CYGINT_ISO_STDIO_STREAMS | ~CYGIMP_LIBC_STDIO_INLINES | ~CYGFUN_COMPRESS_ZLIB_GZIO | CYGINT_ISO_STDIO_FILETYPES
123	617	0	 !CYGPKG_INFRA | !CYGPKG_ISOINFRA | !CYGINT_ISO_EXIT | CYGINT_ISO_STRERROR | !CYGINT_ISO_STDIO_FILEOPS | CYGINT_ISO_STDIO_STREAMS | !CYGIMP_LIBC_STDIO_INLINES | CYGINT_ISO_STDIO_FILETYPES | !CYGINT_ISO_STDIO_FILEACCESS & !CYGINT_ISO_STDIO_FORMATTED_IO | !CYGINT_ISO_ABS & !CYGINT_ISO_DIV & !CYGINT_LIBC_I18N_MB_REQUIRED & !CYGINT_ISO_STDLIB_MULTIBYTE
124	128	0	CYGINT_ISO_MALLOC | ~CYGFUN_COMPRESS_ZLIB_GZIO
125	37	0	CYGINT_ISO_STDIO_ERROR | CYGINT_ISO_STDIO_FILEOPS | CYGINT_ISO_STDIO_FILEPOS | CYGINT_ISO_STDIO_CHAR_IO | CYGINT_ISO_STDIO_STREAMS | ~CYGFUN_COMPRESS_ZLIB_GZIO | CYGINT_ISO_STDIO_DIRECT_IO | CYGINT_ISO_STDIO_FILETYPES | CYGINT_ISO_STDIO_FILEACCESS | CYGINT_ISO_STDIO_FORMATTED_IO | ~CYGINT_ISO_STDIO_POSIX_FDFUNCS | ~CYGPKG_COMPRESS_ZLIB_CFLAGS_ADD
126	68	0	 !CYGPKG_PPP | CYGINT_ISO_STDIO_FILEOPS | CYGINT_ISO_STDIO_STREAMS | !CYGIMP_LIBC_STDIO_INLINES | CYGINT_ISO_STDIO_FILETYPES | CYGINT_ISO_STDIO_FILEACCESS | !CYGINT_ISO_STDIO_FORMATTED_IO | CYGINT_ISO_ERRNO & CYGPKG_ERROR_ERRNO
127	84	0	CYGPKG_ERROR | ~CYGPKG_BLOCK_LIB | CYGINT_ISO_STRERROR | CYGIMP_BLOCK_LIB_STATISTICS
128	154	0	 !CYGPKG_PPP | !CYGINT_ISO_STDIO_ERROR | CYGINT_ISO_STDIO_FILEOPS | CYGINT_ISO_STDIO_FILEPOS | CYGINT_ISO_STDIO_CHAR_IO | CYGINT_ISO_STDIO_STREAMS | !CYGIMP_LIBC_STDIO_INLINES | CYGINT_ISO_STDIO_DIRECT_IO | CYGINT_ISO_STDIO_FILETYPES | CYGINT_ISO_STDIO_FILEACCESS | CYGINT_ISO_STDIO_FORMATTED_IO | CYGINT_ISO_ERRNO & CYGPKG_ERROR_ERRNO
129	181	0	 !CYGPKG_INFRA | !CYGPKG_ISOINFRA | !CYGINT_ISO_EXIT | CYGINT_ISO_STRERROR | !CYGIMP_LIBC_STDIO_INLINES | !CYGINT_ISO_STDIO_FILETYPES | !CYGINT_ISO_STDIO_FILEACCESS & !CYGINT_ISO_STDIO_FORMATTED_IO | !CYGINT_ISO_ABS & !CYGINT_ISO_DIV & !CYGINT_LIBC_I18N_MB_REQUIRED & !CYGINT_ISO_STDLIB_MULTIBYTE
130	123	0	CYGINT_ISO_STDIO_ERROR | CYGINT_ISO_STDIO_FILEOPS | CYGINT_ISO_STDIO_FILEPOS | CYGINT_ISO_STDIO_CHAR_IO | CYGINT_ISO_STDIO_STREAMS | ~CYGFUN_COMPRESS_ZLIB_GZIO | CYGINT_ISO_STDIO_DIRECT_IO | CYGINT_ISO_STDIO_FILETYPES | CYGINT_ISO_STDIO_FILEACCESS | CYGINT_ISO_STDIO_FORMATTED_IO | ~CYGPKG_COMPRESS_ZLIB_CFLAGS_ADD
131	73	0	CYGINT_ISO_MALLOC | ~CYGFUN_COMPRESS_ZLIB_GZIO | ~CYGPKG_COMPRESS_ZLIB_CFLAGS_ADD
132	41	0	CYGINT_ISO_STDIO_ERROR | CYGINT_ISO_STDIO_FILEOPS | CYGINT_ISO_STDIO_FILEPOS | CYGINT_ISO_STDIO_CHAR_IO | CYGINT_ISO_STDIO_STREAMS | ~CYGFUN_COMPRESS_ZLIB_GZIO | CYGINT_ISO_STDIO_DIRECT_IO | CYGINT_ISO_STDIO_FILETYPES | CYGINT_ISO_STDIO_FILEACCESS | CYGINT_ISO_STDIO_FORMATTED_IO | ~CYGINT_ISO_STDIO_POSIX_FDFUNCS
133	80	0	 !CYGPKG_PPP | CYGPKG_NET_CFLAGS_ADD | CYGINT_ISO_STDIO_ERROR | CYGPKG_NS_DNS_CFLAGS_ADD | CYGINT_ISO_STDIO_FILEOPS | CYGINT_ISO_STDIO_FILEPOS | CYGINT_ISO_STDIO_CHAR_IO | CYGPKG_SNMPLIB_CFLAGS_ADD | CYGINT_ISO_STDIO_STREAMS | CYGPKG_NET_SNTP_CFLAGS_ADD | CYGPKG_SNMPAGENT_CFLAGS_ADD | CYGINT_ISO_STDIO_DIRECT_IO | CYGINT_ISO_STDIO_FILETYPES | CYGINT_ISO_STDIO_FILEACCESS | CYGINT_ISO_STDIO_FORMATTED_IO | CYGPKG_NET_FTPCLIENT_CFLAGS_ADD | CYGPKG_IO_ETH_DRIVERS_CFLAGS_ADD | CYGPKG_NET_FREEBSD_STACK_CFLAGS_ADD | CYGPKG_DEVS_ETH_AMD_LANCEPCI_CFLAGS_ADD
134	77	0	 !CYGINT_ISO_STDIO_STREAMS | !CYGIMP_LIBC_STDIO_INLINES | !CYGFUN_COMPRESS_ZLIB_GZIO | CYGINT_ISO_STDIO_FILETYPES | CYGINT_ISO_ERRNO & CYGPKG_ERROR_ERRNO
135	56	0	 !CYGPKG_LIBM | !CYGSEM_LIBM_USE_STDERR | !CYGINT_ISO_STDIO_ERROR | CYGINT_ISO_STDIO_FILEOPS | CYGINT_ISO_STDIO_FILEPOS | CYGINT_ISO_STDIO_CHAR_IO | CYGINT_ISO_STDIO_STREAMS | !CYGIMP_LIBC_STDIO_INLINES | CYGINT_ISO_STDIO_DIRECT_IO | CYGINT_ISO_STDIO_FILETYPES | CYGINT_ISO_STDIO_FILEACCESS | CYGSEM_LIBM_COMPAT_IEEE_ONLY | CYGINT_ISO_STDIO_FORMATTED_IO | CYGINT_ISO_ERRNO & CYGPKG_ERROR_ERRNO
136	4385	0	 !CYGPKG_INFRA | !CYGPKG_ISOINFRA | !CYGINT_ISO_EXIT | CYGINT_ISO_STDIO_FILEOPS | CYGINT_ISO_STDIO_STREAMS | !CYGIMP_LIBC_STDIO_INLINES | CYGINT_ISO_STDIO_FILETYPES | CYGINT_ISO_STDIO_FILEACCESS | !CYGINT_ISO_STDIO_FORMATTED_IO | CYGINT_ISO_ERRNO & CYGPKG_ERROR_ERRNO | !CYGINT_ISO_ABS & !CYGINT_ISO_DIV & !CYGINT_LIBC_I18N_MB_REQUIRED & !CYGINT_ISO_STDLIB_MULTIBYTE
137	31	0	CYGINT_ISO_STRERROR | ~CYGFUN_COMPRESS_ZLIB_GZIO
138	54	0	CYGINT_ISO_STDIO_ERROR | CYGINT_ISO_STDIO_FILEOPS | CYGINT_ISO_STDIO_FILEPOS | CYGINT_ISO_STDIO_CHAR_IO | CYGINT_ISO_STDIO_STREAMS | ~CYGFUN_COMPRESS_ZLIB_GZIO | CYGINT_ISO_STDIO_DIRECT_IO | CYGINT_ISO_STDIO_FILETYPES | CYGINT_ISO_STDIO_FILEACCESS | CYGINT_ISO_STDIO_FORMATTED_IO | CYGPKG_COMPRESS_ZLIB_CFLAGS_ADD & ~CYGSEM_COMPRESS_ZLIB_DEFLATE_MAKES_GZIP
139	62	0	 !CYGPKG_LIBM | !CYGSEM_LIBM_USE_STDERR | CYGINT_ISO_STDIO_FILEOPS | CYGINT_ISO_STDIO_CHAR_IO | CYGINT_ISO_STDIO_STREAMS | !CYGIMP_LIBC_STDIO_INLINES | !CYGINT_ISO_STDIO_DIRECT_IO | CYGINT_ISO_STDIO_FILETYPES | CYGINT_ISO_STDIO_FILEACCESS | CYGSEM_LIBM_COMPAT_IEEE_ONLY | CYGINT_ISO_STDIO_FORMATTED_IO | CYGINT_ISO_ERRNO & CYGPKG_ERROR_ERRNO
