1	671	0	e_0
2	363	0	e_0
3	340	0	 !(!e_0)
4	321	0	 !(!e_0)
5	350	0	 !((!e_0 & e_0) & e_0)
6	318	0	(!e_0 & e_0) & e_0
7	352	0	 !e_0
8	336	0	 !e_0 & e_0
9	370	0	 !e_0 | e_0
10	348	0	e_0
11	386	0	e_0
12	456	0	e_0
13	391	0	e_0
14	387	0	e_0
15	458	0	e_0
16	440	0	 !e_0
17	460	0	 !(!(!(!((!e_0 & e_0) & e_0))))
18	474	0	e_0
19	647	0	e_0
20	578	0	 !(!e_0)
21	536	0	e_0
22	604	0	 !e_0
23	851	0	e_0
24	633	0	 !e_0
25	906	0	 !(!e_0 | e_0)
26	647	0	 !e_0
27	894	0	e_0
28	709	0	e_0
29	735	0	e_0
30	656	0	e_0
31	762	0	 !((!e_0 & e_0) & e_0)
32	688	0	 !e_0 | e_0
33	1144	0	e_0
34	730	0	 !e_0 | e_0
35	782	0	e_0
36	762	0	 !e_0 | e_0
37	1855	0	(!e_0 | e_0) | e_0
38	6245	0	((!(!(!e_0)) | e_0) | e_0) | e_0
39	295	0	e_0 & e_1
40	247	0	 !e_1
41	298	0	e_1
42	393	0	e_0
43	331	0	 !(e_1 | e_0)
44	327	0	e_0 & e_1
45	323	0	 !(e_1 & e_0) | e_1
46	348	0	e_0
47	365	0	e_0
48	406	0	e_0 & e_1
49	335	0	 !(!(e_1 & e_0))
50	354	0	e_0 | e_1
51	320	0	e_1
52	373	0	e_1
53	378	0	 !(!((!e_1 & e_0) & e_1)) & e_1
54	337	0	 !e_1 & e_1
55	367	0	 !e_0 & e_1
56	380	0	 !(!e_0)
57	360	0	 !(!(!e_0)) | e_0
58	382	0	 !e_1 | e_1
59	384	0	e_1
60	371	0	 !(!(!e_1 | e_1))
61	376	0	e_1 & e_0
62	417	0	 !(!e_0)
63	437	0	 !(e_1 & e_0)
64	477	0	(!e_0 | e_0) | e_0
65	416	0	 !(!(!(e_0 | e_1) & e_0))
66	455	0	e_1 & e_0
67	493	0	e_0
68	514	0	e_0
69	525	0	 !(!(e_0 & e_1))
70	563	0	(!(!(!(!(!e_1) & e_0))) & e_0) & e_0
71	625	0	(!(e_0 | e_1) | e_1) | e_1
72	934	0	(!e_1 & e_1) & e_1
73	947	0	e_0
74	762	0	e_1 & e_0
75	1188	0	 !e_0
76	832	0	e_0
77	791	0	 !((e_1 | e_0) | e_0)
78	793	0	e_1
79	1043	0	e_0
80	927	0	 !(!(!e_1) & e_0)
81	302	0	 !e_1 | e_1
82	391	0	 !(!e_1 | e_1)
83	346	0	 !(e_0 | e_2) | e_1
84	364	0	e_0 | e_2
85	377	0	 !(!e_2) | e_1
86	364	0	((!(!e_2 & e_1) & e_1) & e_0) & e_1
87	418	0	 !(((!(!(!e_0)) & e_2) & e_0) & e_0)
88	455	0	 !(e_0 | e_1) | e_1
89	571	0	e_1
90	607	0	e_1 | e_0
91	484	0	e_0 | e_2
92	533	0	 !(!((e_0 | e_1) & e_2))
93	508	0	e_1
94	598	0	e_0 | e_1
95	527	0	e_2 & e_0
96	544	0	 !(!e_0)
97	605	0	((!(!e_0 | e_1) | e_1) & e_2) & e_2
98	602	0	e_0
99	576	0	e_1 | e_2
100	742	0	 !e_1
101	944	0	 !(!(!(!((!e_1 & e_1) & e_1))))
102	1007	0	e_1
103	973	0	 !(!(!(!(!e_2)) & e_1) | e_0) & e_1
104	1066	0	(!((!e_1 | e_2) | e_0) | e_2) | e_0
105	1076	0	e_2
106	10048	0	 !e_1
107	236	0	 !e_3
108	307	0	 !(e_3 | e_2)
109	327	0	(e_0 & e_2) | e_1
110	314	0	 !e_3
111	341	0	e_0
112	399	0	 !(((!(!e_0) | e_1) & e_3) | e_1) | e_1
113	415	0	e_1 | e_3
114	467	0	 !(e_3 & e_1) & e_2
115	454	0	 !(!(!(!(!e_1)))) | e_1
116	444	0	(e_3 | e_2) & e_0
117	345	0	 !e_1 | e_1
118	395	0	e_0
119	435	0	(!e_1 | e_1) | e_0
120	445	0	 !e_1
121	403	0	 !(!(e_1 & e_0))
122	466	0	 !e_3 | e_2
123	454	0	e_2 & e_0
124	559	0	 !(!((!e_2 | e_1) | e_3))
125	575	0	 !e_1
126	557	0	(((e_1 | e_0) | e_3) & e_2) & e_2
127	642	0	 !(!(!e_0)) & e_1
128	622	0	 !(!(!(!(!(!(!((e_1 | e_2) | e_3))) | e_2))))
129	888	0	 !(!(!(e_3 | e_0))) | e_2
130	690	0	e_0 & e_1
131	687	0	(!e_2 & e_1) | e_3
132	874	0	e_2 | e_1
133	3763	0	 !(!(!(!((e_2 | e_1) | e_0))))
134	299	0	e_0 & e_1
135	298	0	e_0 | e_3
136	247	0	 !e_0
137	316	0	((e_0 | e_4) & e_3) | e_1
138	302	0	 !(!((e_0 | e_1) & e_4))
139	319	0	 !(e_0 | e_1) | e_3
140	339	0	 !(!(!(e_3 | e_2) & e_0)) | e_1
141	359	0	 !(!(!e_2 | e_2))
142	446	0	 !(e_3 & e_0) | e_2
143	494	0	e_3 & e_0
144	458	0	 !e_1
145	499	0	e_2
146	617	0	 !(!e_4) & e_0
147	468	0	 !(((((((!(!(!(!(!e_1 & e_4)))) & e_1) & e_0) & e_2) & e_4) & e_4) & e_0) & e_1) | e_3
148	522	0	(e_3 | e_4) | e_2
149	581	0	 !(((!(e_4 & e_1) | e_0) | e_3) & e_2)
150	563	0	((!e_4 & e_3) | e_2) | e_2
151	529	0	 !(!(!e_2))
152	694	0	 !(!(!((!e_2 | e_0) & e_1)))
153	724	0	 !(!(!e_0))
154	606	0	e_1 & e_3
155	636	0	 !(e_0 | e_1) | e_3
156	604	0	 !(e_2 | e_1) & e_0
157	625	0	(!(!(!e_4) & e_0) | e_1) | e_4
158	657	0	 !((e_4 | e_2) & e_3) | e_1
159	627	0	e_4
160	629	0	 !(!((!(!(!(!(!e_0 & e_1) & e_1)) & e_1) | e_4) | e_3))
161	787	0	 !(!(!(!(!e_0))) & e_1)
162	723	0	e_2
163	970	0	(((!e_0 | e_1) | e_4) | e_0) | e_1
164	894	0	 !e_1
165	743	0	 !(!(!(!e_4 & e_3))) & e_3
166	901	0	 !e_1
167	9067	0	 !(!e_3)
168	1080	0	 !e_3 & e_1
169	289	0	(!e_5 | e_4) | e_2
170	326	0	e_0
171	306	0	 !(!(!(e_2 | e_0))) | e_5
172	340	0	 !(e_4 | e_0) & e_2
173	335	0	e_2
174	320	0	 !(!(!(!(!e_2 & e_2))))
175	359	0	(!e_3 | e_4) & e_1
176	400	0	e_2
177	388	0	(!(!(!e_5 | e_4) | e_2) & e_3) & e_1
178	385	0	 !(!(e_0 | e_2))
179	420	0	((((!((((e_2 & e_3) & e_3) & e_4) | e_5) & e_4) | e_0) & e_1) | e_5) | e_0
180	450	0	 !(!(!((((e_4 & e_3) & e_1) | e_0) | e_0)))
181	479	0	e_3 | e_2
182	492	0	 !(e_0 | e_5)
183	493	0	((((!(((!e_5 & e_2) | e_3) & e_4) | e_3) & e_4) | e_0) | e_1) & e_4
184	540	0	 !(((e_0 | e_3) & e_4) & e_5)
185	584	0	e_3 & e_0
186	715	0	 !(!(!(((!e_4 | e_3) | e_2) | e_2)))
187	709	0	 !e_0 | e_4
188	778	0	e_5
189	581	0	e_5 | e_4
190	687	0	 !(e_3 & e_1) | e_0
191	751	0	 !(e_3 & e_4) | e_1
192	799	0	 !(!((((!e_2 & e_1) & e_5) & e_0) & e_1))
193	1327	0	 !e_2 | e_2
194	701	0	((!((e_5 | e_1) & e_4) & e_0) & e_2) & e_3
195	739	0	 !(!e_3 & e_3)
196	793	0	 !(!(!((!e_3 & e_0) & e_5)))
197	765	0	(!e_5 | e_1) | e_5
198	842	0	 !(!e_5 | e_2) | e_4
199	1259	0	 !((!(!(!(!e_3 | e_5))) & e_1) & e_4)
200	951	0	(((!(!(!e_4)) & e_0) | e_5) & e_3) & e_1
201	984	0	 !(!(!(e_2 & e_1) | e_2) & e_3) | e_0
202	1435	0	 !(!(!(!(!(!((e_1 | e_4) & e_3))) | e_2) | e_4))
203	1219	0	 !(!(!((!(!(!((!(((e_4 | e_1) & e_0) | e_1) | e_5) | e_5))) | e_1) | e_2)) | e_1)
204	839	0	 !(e_4 | e_1)
205	1239	0	 !(!(!e_3))
206	6211	0	e_2 & e_5
207	292	0	e_2 | e_4
208	238	0	 !e_6
209	317	0	 !(!(e_6 | e_5) | e_0)
210	336	0	(!e_4 & e_2) & e_4
211	320	0	 !((!(!e_2 | e_0) | e_5) & e_4) | e_0
212	399	0	(!e_0 | e_4) | e_2
213	355	0	((!(!(!(!(!e_4 | e_1) & e_3))) & e_6) & e_6) | e_5
214	394	0	 !(!(((!(!(!(e_6 & e_1) | e_0)) | e_0) & e_2) & e_3))
215	379	0	e_3 | e_6
216	359	0	 !(!(!(!(!((!(!e_1 & e_0) & e_3) & e_6) | e_4)))) & e_6
217	431	0	 !(!(!e_6 & e_5) & e_1)
218	364	0	(!(!(!(!(!(!e_2))))) & e_5) & e_3
219	460	0	e_5
220	442	0	((e_5 & e_2) & e_4) | e_0
221	426	0	 !(!(((!(!((!e_1 & e_4) & e_2)) | e_5) | e_5) & e_0))
222	501	0	(!(!(!((!e_3 & e_6) & e_5))) & e_0) & e_5
223	569	0	e_6 & e_0
224	550	0	 !(!(!e_5) | e_4)
225	484	0	 !(!((e_1 & e_2) & e_2) & e_0)
226	476	0	 !e_3 | e_2
227	495	0	(!e_1 | e_5) | e_6
228	503	0	((e_3 & e_5) | e_2) | e_6
229	756	0	 !(!((e_5 & e_4) & e_0))
230	693	0	(!e_5 & e_0) | e_1
231	637	0	((!e_1 | e_5) | e_0) & e_6
232	705	0	e_6
233	703	0	e_4 & e_6
234	990	0	(((!e_2 | e_0) | e_6) | e_5) | e_2
235	725	0	e_4 | e_5
236	882	0	e_2 & e_5
237	3419	0	 !(!(!e_0)) | e_1
238	2973	0	e_3
239	300	0	e_5
240	311	0	(e_7 | e_5) | e_3
241	331	0	((e_6 & e_0) & e_5) & e_3
242	362	0	e_3 | e_0
243	353	0	 !(!((e_1 & e_5) & e_6))
244	338	0	 !(!(!(e_0 | e_4) | e_7)) | e_3
245	391	0	e_1
246	350	0	(!(!e_7) & e_2) & e_0
247	339	0	 !((!(!(!(!((!e_6 & e_0) & e_7)))) | e_3) & e_2) | e_4
248	378	0	 !(!(!(!(!e_2 | e_3)) & e_0) | e_7) | e_7
249	412	0	 !(!(!e_5) & e_4) | e_6
250	404	0	 !(!(!((e_1 & e_7) & e_7) | e_0))
251	470	0	 !((!(!e_3 & e_0) | e_1) | e_2)
252	507	0	 !(!(!(!((!(!e_1) & e_4) | e_7))))
253	504	0	 !((!(!(!(e_7 & e_2)) | e_4) & e_5) & e_6) & e_0
254	487	0	e_5 & e_6
255	466	0	e_3
256	477	0	(((!(!(!e_0 | e_1)) | e_0) | e_4) | e_0) | e_2
257	538	0	(e_5 & e_6) | e_4
258	516	0	(!(!(!e_2 | e_5)) | e_0) | e_1
259	502	0	((e_4 | e_3) & e_1) & e_6
260	576	0	 !(!(!(!((((e_6 & e_1) & e_1) & e_4) & e_7) | e_3)) & e_1)
261	722	0	e_3
262	672	0	 !(!(((!e_5 & e_6) & e_3) | e_4))
263	637	0	(!(((((!(!e_3 & e_2) & e_6) | e_5) | e_4) | e_1) & e_2) | e_7) | e_1
264	653	0	 !(!(!((!e_2 & e_3) | e_0) & e_7)) & e_4
265	786	0	 !(!((((e_7 & e_1) | e_0) | e_3) | e_0))
266	715	0	 !e_1 | e_0
267	887	0	e_6
268	1801	0	e_0
269	1010	0	((!(!(!e_4)) | e_4) | e_3) | e_2
270	888	0	((e_0 | e_4) & e_7) | e_1
271	810	0	 !((!e_4 | e_6) & e_2)
272	959	0	 !(e_5 | e_0)
273	1371	0	 !(e_6 | e_1) & e_6
274	307	0	(e_5 | e_0) & e_8
275	319	0	((e_0 & e_1) | e_5) | e_2
276	297	0	 !(!e_1 | e_2)
277	302	0	 !((!e_2 | e_8) & e_1)
278	305	0	 !(!((e_3 & e_7) & e_6) | e_4) | e_1
279	320	0	(e_2 & e_4) & e_7
280	339	0	(!e_4 & e_8) | e_6
281	330	0	e_6 & e_0
282	357	0	e_4 | e_3
283	357	0	 !((!e_2 | e_3) | e_7)
284	404	0	e_1 & e_8
285	438	0	 !((!((!e_2 | e_0) & e_7) & e_7) | e_6) & e_5
286	417	0	e_6
287	436	0	e_1
288	483	0	e_0 & e_2
289	403	0	 !((e_3 & e_0) | e_1) & e_4
290	469	0	 !((((e_6 | e_8) | e_7) & e_2) | e_5)
291	497	0	((!e_2 & e_8) & e_8) & e_6
292	556	0	 !(!e_8)
293	511	0	 !(!e_6 & e_8)
294	536	0	 !(((e_2 & e_8) | e_6) & e_0)
295	461	0	 !(!(e_4 | e_7))
296	521	0	 !(!(!e_0) & e_4) | e_5
297	589	0	((e_3 & e_5) | e_7) | e_4
298	687	0	((!e_6 & e_4) | e_1) | e_0
299	527	0	((!((e_6 & e_3) & e_7) | e_0) & e_1) | e_8
300	606	0	 !(!(!(!e_3)) & e_6) | e_2
301	561	0	((e_6 & e_8) | e_0) & e_3
302	648	0	 !(!(!(!(!(e_5 & e_1))))) | e_0
303	609	0	(!(!(!e_7)) & e_6) | e_3
304	643	0	 !(!(!(!(!e_6)) | e_5) & e_3)
305	637	0	(((!(!(!e_8)) & e_8) & e_3) & e_0) & e_8
306	782	0	 !((!(!((((!(!(!((!e_0 & e_8) & e_5))) & e_2) & e_4) & e_3) | e_7)) & e_2) & e_1)
307	722	0	((!e_7 | e_8) & e_0) | e_1
308	679	0	e_7 | e_1
309	1815	0	(!e_3 & e_6) | e_8
310	644	0	 !((!(e_2 & e_8) & e_3) | e_4) & e_8
311	1259	0	((!e_5 & e_5) & e_0) & e_5
312	1214	0	(!(!(!(!(!e_1 & e_7) & e_7))) & e_4) | e_5
313	1020	0	 !(e_8 & e_7) & e_3
314	336	0	 !e_7 | e_5
315	351	0	(e_2 | e_7) | e_8
316	360	0	(e_4 | e_0) & e_5
317	345	0	(!(e_5 | e_0) & e_9) & e_3
318	341	0	 !(!(((e_1 | e_3) | e_4) & e_9))
319	333	0	(e_2 | e_7) | e_3
320	331	0	(!(!(e_8 & e_1)) & e_4) & e_5
321	311	0	 !(!(!(!e_2) & e_1) & e_5)
322	375	0	 !(((e_1 | e_0) | e_6) & e_9)
323	369	0	 !(!(!(!(!(!(e_6 & e_3)))) & e_4)) & e_4
324	330	0	 !(!(!((((!(!e_6) | e_2) & e_3) & e_1) | e_9))) | e_7
325	378	0	 !(!(((e_9 | e_4) & e_5) & e_6)) | e_2
326	379	0	 !((((((e_8 & e_0) & e_7) | e_1) & e_5) & e_7) & e_7) & e_4
327	378	0	 !(!(((e_3 | e_8) | e_0) | e_9))
328	379	0	e_5 & e_0
329	507	0	 !((!(!((e_0 | e_5) & e_4)) & e_2) & e_8)
330	519	0	 !(!(!((e_6 & e_9) & e_5) & e_3))
331	560	0	(((!((e_9 | e_2) | e_1) & e_4) & e_6) | e_8) | e_2
332	574	0	((((!e_9 | e_7) & e_8) & e_3) | e_5) & e_8
333	625	0	(((!(!(!(!(!(e_9 & e_5))))) | e_2) & e_1) | e_4) | e_3
334	659	0	(!((!(((e_1 & e_2) & e_4) & e_8) | e_7) & e_3) & e_6) & e_8
335	649	0	 !(!((!(((e_6 | e_8) | e_3) & e_5) & e_7) | e_9) | e_0)
336	775	0	(!e_7 & e_4) | e_5
337	945	0	(!e_5 & e_3) & e_5
338	1058	0	(((!e_7 & e_6) & e_6) | e_3) & e_4
339	958	0	 !(((e_7 | e_9) | e_8) | e_4) & e_2
340	1208	0	((!(e_8 | e_6) & e_0) & e_1) | e_3
341	1004	0	e_8 & e_5
342	413	0	 !(e_1 | e_6)
343	430	0	e_5
344	423	0	((e_2 & e_7) | e_6) | e_0
345	393	0	 !(!e_2 | e_9)
346	443	0	(!e_7 & e_8) & e_7
347	444	0	(((!(e_2 & e_4) | e_0) | e_6) | e_10) & e_4
348	455	0	(((!(!(e_7 & e_10)) | e_5) | e_5) | e_1) & e_4
349	421	0	 !((!((!(!(!e_8 & e_5)) & e_1) | e_2) & e_10) & e_4)
350	460	0	((((!(!(!e_2) & e_1) & e_3) & e_0) & e_9) | e_4) & e_6
351	577	0	 !(!(((!(!(!e_0) | e_7) & e_10) | e_9) | e_2))
352	540	0	 !((((e_6 | e_0) | e_10) & e_9) & e_9)
353	534	0	 !((((((e_3 | e_10) | e_2) & e_4) & e_6) | e_5) & e_0)
354	499	0	((!(((e_9 | e_2) | e_10) & e_5) & e_3) | e_2) | e_6
355	404	0	 !(!(((!(e_4 & e_10) & e_3) & e_3) & e_10) & e_8)
356	449	0	(!(!(!(e_6 & e_9))) & e_5) | e_7
357	442	0	 !((!(!e_7) | e_8) | e_2) & e_0
358	467	0	(!(!((!(e_5 | e_6) | e_9) | e_0)) | e_1) & e_7
359	475	0	(!((!(!((e_3 & e_6) | e_8) & e_6) & e_4) | e_9) & e_2) | e_8
360	452	0	 !(!(!((!(((e_1 | e_7) & e_9) & e_6) & e_2) & e_10)))
361	628	0	((!((!e_9 & e_8) | e_4) | e_7) & e_1) & e_5
362	590	0	(!(!e_3 | e_10) & e_2) & e_9
363	592	0	e_3 & e_4
364	458	0	((((!(((e_2 | e_10) & e_6) & e_9) | e_3) & e_5) | e_7) | e_3) | e_0
365	512	0	 !(((!(!(((!((((!e_0 | e_8) & e_9) | e_8) & e_6) & e_2) & e_7) & e_5)) & e_4) | e_8) | e_1)
366	646	0	(((((((((!(e_4 & e_6) & e_6) | e_3) & e_0) | e_2) & e_8) & e_8) & e_0) & e_9) | e_3) | e_10
367	637	0	((!e_0 & e_10) | e_5) & e_1
368	745	0	(e_2 & e_10) | e_6
369	751	0	 !(!(((!e_9 | e_0) & e_6) | e_3))
370	919	0	 !(((((!(!e_10) & e_3) | e_0) | e_0) | e_6) | e_8) | e_7
371	945	0	 !(!(!((!((!(((!e_10 & e_9) & e_1) & e_3) | e_5) | e_2) & e_3) & e_6)))
372	1296	0	(((!(!((!e_4 | e_0) | e_10)) | e_7) & e_9) & e_5) & e_1
373	853	0	((((((e_0 & e_2) | e_4) & e_9) | e_1) & e_8) | e_10) | e_4
374	1237	0	 !(((((!(!(!(!(!(!(!e_3))) & e_1))) & e_10) & e_9) & e_7) & e_8) & e_6)
375	867	0	 !((((!(!(!(!e_2 | e_5))) & e_8) & e_10) & e_1) | e_6)
376	856	0	(!(!(e_5 | e_0)) | e_3) | e_7
377	921	0	(!e_0 | e_1) & e_7
378	443	0	e_8
379	372	0	(((!(e_2 | e_10) & e_3) | e_5) | e_9) & e_3
380	378	0	((!(!(!e_11 | e_11)) | e_7) | e_10) | e_11
381	449	0	(!(e_5 | e_7) & e_0) & e_6
382	476	0	 !(!((((!(e_3 | e_10) | e_2) & e_4) & e_0) | e_1)) & e_4
383	519	0	e_2
384	869	0	((!(!(((e_3 & e_5) | e_0) | e_1)) & e_9) & e_8) & e_4
385	701	0	 !(!(((!(((e_9 & e_0) & e_4) & e_3) | e_8) | e_8) | e_7) & e_2)
386	571	0	 !((!(!(!e_7)) | e_10) & e_6) & e_3
387	639	0	 !(!(!(!(!e_7) & e_6))) | e_10
388	629	0	e_11
389	654	0	(!(e_11 | e_1) | e_9) | e_3
390	649	0	(!(!(!e_11) & e_7) & e_10) & e_2
391	755	0	 !(((e_7 & e_10) | e_5) & e_1)
392	859	0	((!(!e_7) | e_9) & e_4) | e_9
393	1294	0	 !(((!(!((!(e_3 | e_9) | e_0) & e_5) | e_9) | e_6) | e_10) | e_6)
394	724	0	((!(e_1 | e_9) | e_2) & e_11) | e_6
395	763	0	(e_5 & e_1) | e_6
396	2479	0	 !(!(!(!(!(!e_7 & e_9) & e_2) & e_4) & e_11)) | e_3
397	890	0	 !(!e_1) | e_3
398	1055	0	 !((((((!(!(!(!(!e_9)))) | e_11) | e_0) | e_1) & e_6) | e_0) | e_4)
399	1907	0	 !(!((e_7 | e_2) & e_1) & e_1) | e_11
400	4885	0	 !(!(!((!(!(!(((((!(!((e_0 | e_11) & e_3) & e_1) | e_7) | e_4) & e_10) & e_3) & e_8))) & e_10) | e_6))) | e_7
401	941	0	(((((!(!e_8) & e_0) | e_7) & e_10) | e_7) & e_3) | e_5
402	985	0	(((!e_5 | e_0) | e_7) & e_1) & e_1
403	381	0	e_2 & e_9
404	315	0	e_1 | e_4
405	384	0	 !(!(!e_11 | e_5))
406	325	0	 !(!(e_10 | e_12) | e_4)
407	358	0	(!((e_1 | e_3) & e_11) | e_10) & e_2
408	372	0	 !(!(!(!e_6))) & e_2
409	347	0	 !(!(!((!e_8 & e_4) & e_11) | e_9))
410	404	0	((e_8 | e_9) | e_0) & e_12
411	419	0	 !e_5 | e_1
412	383	0	 !(!(!(!e_3 & e_5) | e_4))
413	406	0	 !(((!(!(!e_1) | e_9) & e_12) & e_5) | e_6)
414	467	0	e_11 | e_2
415	381	0	e_7 | e_9
416	499	0	 !(!(!(((!(!(!(!((e_9 | e_8) & e_12)))) & e_3) | e_8) | e_5)))
417	537	0	 !(!(!(!(e_9 & e_10) & e_1) | e_11)) & e_4
418	587	0	(e_3 & e_2) | e_0
419	587	0	(!(!(!((!(((!(!e_11) & e_7) & e_0) & e_7) | e_5) & e_3)) | e_6) | e_6) & e_3
420	621	0	 !(!(!((((!e_1 & e_4) | e_10) & e_9) & e_6) & e_9) & e_5)
421	694	0	 !(!((((((!(!e_0) & e_4) & e_3) | e_10) & e_8) & e_1) | e_2))
422	706	0	 !(!(!((((!(!(!((!(!(((((e_4 & e_12) | e_5) & e_7) & e_7) & e_11)) | e_0) | e_6) & e_12) | e_6) | e_10) | e_8) | e_3) | e_2))) | e_10
423	744	0	 !(e_5 & e_11) & e_3
424	1048	0	 !(!((!(!(!e_10)) & e_11) & e_2)) & e_10
425	843	0	 !((((!(((!(!(e_11 & e_6)) | e_12) & e_6) & e_6) | e_0) | e_12) & e_4) | e_9) | e_0
426	897	0	e_1
427	1170	0	 !e_9 | e_3
428	1195	0	 !(!e_0) & e_3
429	2313	0	 !e_1
430	1218	0	 !(!((((!((!(!(((!((e_9 | e_3) & e_8) & e_7) & e_0) & e_12)) | e_2) | e_3) & e_11) & e_11) & e_6) | e_4)) | e_5
431	2043	0	e_4
432	395	0	 !(!(!e_7)) & e_12
433	355	0	 !(e_12 | e_0) | e_9
434	348	0	((((e_9 | e_3) & e_8) & e_5) | e_12) | e_7
435	368	0	 !(((((!(e_10 | e_3) | e_1) | e_9) & e_12) & e_5) | e_13)
436	348	0	 !(!(!(!e_7 | e_6) & e_1)) | e_10
437	367	0	(((!(!e_12) | e_3) & e_6) | e_2) & e_0
438	372	0	e_8 & e_3
439	392	0	e_1 & e_8
440	370	0	 !((!(!((((!e_9 & e_2) & e_0) | e_4) | e_11) | e_1) | e_12) | e_12)
441	364	0	(!(!e_13 | e_4) | e_0) | e_9
442	493	0	 !((!((e_10 | e_12) | e_4) & e_10) & e_3)
443	430	0	 !((e_9 | e_2) & e_13)
444	471	0	 !(!(!((!(!((!(!(!(((e_11 | e_10) & e_12) | e_2) & e_8) | e_7) | e_1) & e_13)) & e_0) | e_5)))
445	472	0	 !e_0 & e_11
446	425	0	 !(!(!((!((!(!e_6) | e_5) | e_7) | e_9) | e_2) & e_12) | e_13)
447	537	0	(((((e_0 | e_3) & e_6) & e_6) & e_8) | e_3) | e_7
448	645	0	 !(((!(!((((!((((!(!(!e_7)) | e_9) & e_8) | e_5) | e_2) & e_1) & e_3) & e_13) | e_5) | e_10) | e_11) | e_2) | e_6)
449	743	0	 !e_12 | e_11
450	764	0	 !(!(!(!(!((!e_8 & e_6) & e_2)))))
451	625	0	 !(!(!((((!(!(!e_7 & e_0)) | e_5) | e_10) & e_8) & e_0))) | e_10
452	1023	0	e_12
453	890	0	 !(e_2 | e_7)
454	1039	0	(!(!(!(!(!(((!(!e_11) | e_10) & e_7) | e_3))) | e_4)) | e_1) & e_9
455	978	0	 !(((((((e_2 | e_7) & e_6) & e_8) | e_0) & e_12) & e_4) | e_13)
456	996	0	 !((!(!e_4 & e_5) & e_12) & e_8) & e_5
457	301	0	e_1 | e_6
458	309	0	(e_12 | e_5) | e_7
459	327	0	e_6 & e_7
460	306	0	(!(!e_1) | e_7) | e_9
461	329	0	 !(!(e_3 | e_5) | e_6) | e_13
462	347	0	 !(e_11 | e_7)
463	333	0	(!(!(!(!e_2 & e_6)) & e_1) & e_11) | e_14
464	324	0	(!(!(!(!(e_0 & e_2))) | e_8) & e_12) | e_10
465	399	0	 !(!(!e_12 | e_6) & e_10) | e_6
466	367	0	 !(!(!(!(!(!(e_12 | e_10)))) | e_7) | e_4)
467	364	0	 !((!(e_13 | e_4) | e_11) & e_5) & e_3
468	377	0	 !((!(!((e_2 | e_10) & e_9) | e_11) & e_7) | e_3)
469	403	0	e_14
470	380	0	 !((!(!((!(!(e_1 | e_9)) | e_7) | e_6) | e_7) | e_11) & e_8)
471	430	0	 !e_2
472	542	0	(e_5 & e_9) | e_13
473	526	0	 !(!((((e_13 | e_9) & e_5) & e_6) | e_7))
474	594	0	e_4
475	661	0	((((!(!(!(!(!(!(!(!e_0) & e_13) & e_3) & e_4) & e_9))) | e_1) & e_14) & e_5) | e_7) & e_14
476	730	0	((((e_11 & e_8) | e_0) | e_13) & e_9) & e_1
477	617	0	 !(!((!e_4 | e_12) | e_7) & e_13) | e_9
478	653	0	 !(((!(e_10 & e_6) & e_1) & e_12) & e_9)
479	627	0	 !(((e_6 | e_12) | e_3) & e_14) | e_1
480	931	0	 !(!((((!(!e_7) & e_2) & e_10) & e_5) & e_8))
481	838	0	 !(!(((!(!e_7) & e_6) & e_5) | e_3) | e_1)
482	775	0	((!(!e_3) | e_14) & e_0) & e_1
483	818	0	(((((((e_5 & e_8) & e_2) & e_0) & e_9) & e_12) & e_4) & e_13) | e_1
484	724	0	e_3
485	741	0	 !(((((((!((!(!(!(!(e_11 & e_10)) & e_12) & e_8) | e_13) & e_4) & e_1) & e_7) & e_1) & e_0) & e_1) | e_13) & e_7) | e_2
486	770	0	 !(!(!(((((e_6 & e_5) | e_14) | e_11) & e_10) & e_10))) & e_1
487	749	0	 !((!(!((!(!((!(!(!e_2 & e_11)) & e_6) & e_12) & e_5) | e_0) & e_6) | e_0) | e_8) & e_3) | e_7
488	743	0	(((e_1 | e_13) & e_4) & e_0) & e_5
489	843	0	(!(!((e_1 & e_2) | e_9)) | e_0) & e_8
490	1142	0	((!(!e_2) & e_8) & e_11) & e_3
491	857	0	 !((((((e_6 | e_12) & e_0) & e_4) & e_9) & e_4) & e_10)
492	1210	0	 !e_3 | e_10
493	1955	0	 !(!(!(!(!e_13)) & e_0)) & e_2
494	315	0	 !((e_13 | e_15) & e_9)
495	322	0	 !(!e_0 | e_4) | e_13
496	303	0	(!(!e_15) & e_7) & e_11
497	308	0	((!(e_0 & e_14) & e_10) | e_1) & e_7
498	353	0	(((!(((e_12 | e_7) | e_11) & e_8) & e_5) & e_10) & e_1) | e_6
499	330	0	((!(!e_12 & e_11) | e_0) & e_10) | e_8
500	325	0	 !((e_5 | e_8) & e_0)
501	322	0	 !(!(!(!(!(!(!((e_10 & e_4) | e_6)))))))
502	436	0	 !(!((!(!((!e_4 & e_14) & e_11)) & e_15) | e_0))
503	356	0	((((!(!(((!e_6 & e_3) | e_10) | e_2)) | e_7) | e_8) & e_1) | e_0) & e_5
504	358	0	(((!(!(!e_0) | e_1) & e_12) & e_3) | e_5) & e_12
505	444	0	(e_3 & e_15) & e_14
506	427	0	 !(!(!(!(!(!(!(!(!(!(!(!(e_2 & e_8)) | e_10) | e_9)) & e_3)) & e_11)) | e_4) | e_10))
507	462	0	 !(!(((!((!(!e_10 & e_6) | e_14) & e_6) & e_6) & e_11) | e_15))
508	494	0	((((((((e_5 & e_7) | e_9) & e_1) & e_1) & e_1) & e_12) | e_3) & e_13) | e_9
509	538	0	(((e_14 & e_11) & e_5) & e_2) & e_15
510	731	0	 !(((((((e_1 & e_9) | e_10) | e_11) | e_0) & e_7) & e_7) & e_6)
511	594	0	 !((((((!((((e_0 & e_1) & e_13) | e_3) | e_3) | e_6) & e_14) & e_14) | e_6) & e_4) & e_4)
512	665	0	((!(!(!(!((e_10 | e_15) & e_12)))) & e_2) & e_1) | e_9
513	587	0	(!(!(!(!e_10)) & e_9) & e_11) & e_14
514	649	0	e_11 | e_4
515	783	0	 !((!e_9 & e_11) & e_0)
516	654	0	((!(((((((!(!((!(!(((((!(!(e_3 & e_8) | e_1) | e_9) | e_15) & e_7) | e_1) & e_13)) | e_11) | e_4) | e_9) | e_5) | e_9) | e_11) & e_12) | e_2) | e_4) & e_13) | e_0) & e_14) & e_14
517	691	0	((((!(((!(!(!e_15)) & e_14) & e_4) & e_14) & e_11) | e_0) | e_9) | e_0) & e_6
518	685	0	((!(e_4 & e_3) | e_13) | e_11) & e_3
519	684	0	 !(!((e_7 | e_11) & e_1))
520	817	0	(((((((!((e_15 | e_7) & e_3) | e_11) | e_6) & e_9) | e_7) | e_8) & e_13) | e_8) & e_5
521	961	0	 !(!e_12 | e_4)
522	888	0	 !(!(!e_10 & e_10) | e_8)
523	845	0	(((!(((!(((e_7 | e_15) & e_10) & e_14) & e_5) & e_10) | e_4) | e_2) | e_0) | e_4) | e_1
524	1057	0	 !(((((e_6 | e_3) & e_12) | e_8) & e_7) & e_4) & e_10
525	1000	0	 !((e_4 | e_6) & e_3) | e_5
526	372	0	 !((e_5 | e_10) | e_1) & e_11
527	331	0	(((e_7 | e_11) & e_12) & e_0) & e_8
528	355	0	 !(((e_10 | e_4) | e_11) | e_2)
529	378	0	(((!e_16 & e_3) & e_15) & e_11) | e_6
530	407	0	e_6 & e_9
531	378	0	 !(!(((((!(!(e_6 | e_7)) | e_8) & e_12) | e_16) | e_14) & e_10))
532	430	0	(((((!(!(!(!e_4 | e_9))) | e_2) | e_5) | e_2) & e_11) | e_16) & e_14
533	395	0	 !(!((!(!(!(e_7 & e_2) & e_12)) | e_5) | e_4) | e_0) & e_16
534	410	0	 !((!(!(!(!((!e_13 & e_6) | e_12))) & e_1) & e_0) | e_11) & e_4
535	431	0	(((e_4 & e_10) | e_14) & e_8) & e_8
536	404	0	((!(!(!(!(!(!(!(e_5 & e_0))))) & e_1)) | e_2) | e_14) | e_12
537	459	0	 !(!((e_15 | e_11) & e_4)) & e_5
538	413	0	((!(!(!e_14 & e_6)) | e_0) | e_1) & e_16
539	533	0	((((e_14 | e_2) | e_3) & e_8) | e_12) | e_5
540	478	0	e_8
541	519	0	 !(!((((((e_12 & e_9) | e_2) | e_15) | e_7) | e_8) | e_7) & e_11) & e_5
542	528	0	 !(!(!(!(!((!((((((((((((!(e_9 | e_11) & e_16) & e_3) | e_15) & e_1) | e_13) | e_8) & e_12) & e_16) | e_8) | e_11) | e_8) & e_3) & e_3) | e_7) & e_14)) & e_16) | e_2)
543	534	0	 !(((!((!(!(!(!(!(e_3 | e_13)) | e_15)) | e_0) | e_4) & e_14) | e_10) | e_1) | e_13)
544	570	0	 !(!(!(!(!(((((((e_16 | e_15) | e_14) & e_4) | e_12) & e_9) | e_12) & e_13)) | e_12) & e_13) & e_13) & e_7
545	795	0	e_3
546	703	0	 !((e_12 | e_10) | e_9)
547	674	0	 !(((!(!(!((!(!(!(!(!e_1 | e_10))) | e_6) & e_11) | e_0) | e_4)) | e_3) & e_14) | e_12) | e_9
548	808	0	(e_16 & e_6) | e_15
549	1535	0	 !(!(!(!((e_9 | e_0) & e_11))))
550	761	0	 !(!(!(!(!(!(!(e_6 & e_8)) | e_16))) | e_7))
551	723	0	((((((!e_2 & e_9) | e_14) | e_14) & e_8) | e_14) & e_12) & e_9
552	798	0	((((!((((!(!(!e_0) & e_15) | e_6) & e_10) | e_1) & e_7) & e_7) | e_1) & e_9) & e_10) | e_8
553	5125	0	 !(!(!(!(!(e_12 & e_7)) | e_8) & e_11))
554	307	0	e_9 & e_1
555	293	0	 !e_14 | e_6
556	378	0	 !(!e_14) | e_2
557	360	0	 !((!e_5 | e_0) | e_16)
558	368	0	 !((!(((e_13 & e_16) | e_0) | e_7) & e_9) | e_5)
559	432	0	e_0 & e_3
560	486	0	 !((((!(!((e_2 | e_5) & e_0)) & e_10) | e_9) | e_14) | e_14) | e_14
561	472	0	 !((((((e_11 & e_5) | e_14) | e_12) & e_7) | e_2) & e_16) | e_13
562	420	0	 !(((((((!(!(!(e_7 | e_11))) | e_3) & e_15) | e_11) | e_4) | e_14) & e_9) | e_2)
563	429	0	(!(((!(((((e_12 & e_13) & e_9) & e_3) & e_5) & e_5) & e_14) | e_11) | e_4) & e_8) | e_10
564	491	0	 !(!((!(((((!(e_15 & e_3) & e_16) | e_13) & e_1) | e_12) & e_10) & e_0) & e_4)) & e_5
565	461	0	(!e_13 | e_8) | e_15
566	547	0	(!((!(((!e_15 & e_12) | e_16) | e_13) & e_1) | e_5) | e_17) | e_13
567	471	0	 !(!((!((((((!e_9 & e_10) & e_13) | e_12) & e_5) | e_4) & e_8) & e_13) & e_14) & e_11) | e_7
568	487	0	 !(((!(!(!(!((!(!(((((!e_13 | e_16) | e_2) | e_3) | e_17) & e_8) | e_16) | e_14) & e_6))) | e_7) & e_10) & e_10) | e_11)
569	453	0	e_7
570	486	0	 !(((((((!e_9 & e_3) & e_16) | e_4) & e_14) | e_4) & e_8) | e_5) | e_7
571	529	0	((!(!(e_15 & e_17) & e_14) | e_4) | e_11) | e_2
572	638	0	(!(!e_9) & e_13) | e_8
573	631	0	(!((((e_0 & e_2) & e_3) | e_11) | e_4) & e_6) & e_5
574	680	0	(!((!(((!(((((!((((e_3 | e_13) & e_9) | e_0) | e_11) & e_2) & e_6) | e_12) | e_7) | e_13) | e_15) | e_13) | e_1) | e_15) | e_13) & e_5) | e_8
575	837	0	e_5
576	701	0	 !((!(!((!((!((!(!((((!((((((((e_12 & e_1) | e_16) | e_17) | e_4) & e_15) | e_3) | e_13) & e_5) & e_1) | e_3) | e_7) | e_2)) | e_2) & e_15) & e_11) | e_17) | e_9) | e_6)) | e_8) | e_2)
577	735	0	(!e_5 | e_16) & e_11
578	856	0	 !(!(((!e_1 | e_5) | e_2) & e_14))
579	648	0	 !(!((((!((!(((!(e_8 & e_5) | e_7) | e_7) & e_9) & e_13) & e_10) | e_15) & e_12) & e_1) | e_15) & e_9) | e_3
580	858	0	(!(!(!(!(!(!(!e_7) | e_6) & e_10)))) & e_11) & e_2
581	645	0	 !(((((!(e_11 & e_10) | e_4) & e_6) | e_17) & e_8) | e_13)
582	754	0	e_12 & e_3
583	687	0	((!(e_13 | e_15) & e_8) | e_11) | e_0
584	694	0	 !(!((((((!(e_12 | e_0) | e_2) | e_7) | e_14) | e_10) & e_3) & e_17) | e_1)
585	875	0	 !((!((!((e_5 & e_2) | e_0) & e_15) | e_12) | e_0) | e_16)
586	897	0	(!(!(((!(e_13 | e_6) & e_12) | e_5) | e_16) | e_7) | e_17) | e_0
587	2636	0	 !(e_12 & e_1)
588	1865	0	 !((((e_8 & e_10) & e_3) & e_11) | e_0)
589	1130	0	e_9
590	362	0	e_3 | e_12
591	424	0	(e_9 | e_15) & e_2
592	468	0	 !(!(!(!(!(!((((e_10 | e_14) & e_18) & e_5) & e_15) & e_3)))) & e_8)
593	468	0	((e_8 & e_2) & e_16) & e_2
594	395	0	 !(((!(!((!((!(!(e_2 | e_3)) | e_0) | e_11) & e_8) & e_14)) & e_7) & e_10) | e_6)
595	439	0	((!(e_17 & e_1) & e_18) | e_12) & e_15
596	365	0	 !(((!(!(!(!((!(!(!(!e_1)) | e_11) & e_0) | e_14)) | e_3)) & e_10) & e_16) | e_13)
597	436	0	 !(!(!(!((!(((!((((e_7 & e_14) & e_5) & e_8) | e_13) & e_18) & e_0) | e_10) | e_4) | e_15)) & e_2) | e_15)
598	574	0	(!e_14 | e_17) | e_14
599	494	0	(!(!(!(!(!(!((((!(!(e_17 | e_4) & e_0) & e_7) & e_8) | e_3) | e_12)))) | e_10) | e_3) | e_6) | e_18
600	494	0	 !(!(!(!(!(!(!(!((((e_10 | e_1) & e_0) | e_12) | e_5)) | e_17)))) & e_8)) | e_13
601	543	0	(!(!(e_8 & e_2) | e_12) & e_11) | e_6
602	512	0	 !e_8
603	926	0	(!(!(!((((!(((((e_18 & e_6) & e_15) & e_1) & e_5) & e_0) | e_4) & e_10) & e_17) & e_1) & e_12)) | e_3) | e_13
604	730	0	(e_18 | e_6) | e_12
605	540	0	(((!e_6 | e_11) | e_7) | e_3) & e_16
606	444	0	 !((((!e_15 | e_16) & e_12) | e_17) | e_3) & e_18
607	501	0	 !(!(!(!(((!(!(((((e_1 | e_8) & e_16) | e_10) & e_16) & e_11)) | e_12) | e_13) & e_18))) & e_15) | e_10
608	553	0	 !(e_14 | e_16) | e_9
609	566	0	 !(!((!(e_6 | e_18) | e_5) & e_4)) & e_10
610	672	0	 !(!(e_2 & e_9) | e_6) & e_0
611	553	0	((!(!(!e_10)) & e_8) & e_14) | e_0
612	672	0	(((e_8 | e_11) & e_2) | e_0) | e_5
613	680	0	 !((e_7 & e_1) | e_13) | e_9
614	597	0	(((!(!((e_17 | e_16) | e_6) & e_9) & e_9) & e_13) | e_12) & e_18
615	766	0	 !(!(!(!((!(!(!(!((!(!(((((!(!(!(!e_7 & e_14))) | e_18) & e_1) | e_3) | e_13) & e_6)) & e_8) & e_8))) & e_2) | e_15) & e_11)) | e_4) & e_8)
616	687	0	 !(!(e_11 & e_16) | e_18)
617	671	0	 !((e_3 & e_5) | e_15) | e_12
618	783	0	((((((!((!(!((e_5 & e_7) & e_18)) | e_10) | e_0) & e_4) | e_12) | e_1) | e_1) & e_17) & e_16) & e_8
619	1389	0	e_6
620	925	0	 !(((e_6 & e_7) | e_4) & e_3) & e_15
621	948	0	e_1
622	1202	0	e_2
623	1125	0	(!(e_17 | e_11) & e_13) | e_14
624	1715	0	 !((!(!(!(e_6 | e_7))) | e_4) | e_3)
625	4333	0	 !(!(!(!(!(!((e_2 | e_5) & e_13))) | e_16)) & e_1) & e_8
626	960	0	(((((((e_5 & e_11) & e_18) & e_6) & e_18) | e_12) & e_3) | e_8) | e_0
627	307	0	(e_17 & e_1) & e_10
628	322	0	((e_15 & e_14) & e_10) | e_9
629	326	0	 !(!(!e_12)) & e_15
630	324	0	 !((!e_13 & e_2) | e_9) | e_8
631	314	0	((((e_19 | e_14) | e_13) | e_12) & e_1) | e_10
632	327	0	 !(!(((!e_12 | e_8) & e_5) | e_11)) & e_10
633	326	0	(!(!(!(e_5 & e_9)) | e_2) & e_1) | e_6
634	413	0	 !((!e_3 | e_17) & e_16) & e_12
635	361	0	((!(!((((e_7 & e_18) | e_11) & e_6) | e_0)) & e_4) & e_13) & e_14
636	380	0	(e_7 & e_18) & e_16
637	358	0	((((!(((e_1 & e_19) & e_2) | e_10) & e_9) & e_17) & e_15) & e_2) | e_6
638	357	0	((!(((((e_9 & e_6) | e_16) | e_2) & e_14) | e_16) | e_11) & e_17) | e_12
639	390	0	 !(!(!(!(!((!(!(e_2 & e_8)) | e_19) & e_1) & e_9))))
640	388	0	 !(!((e_7 & e_0) & e_6) | e_3)
641	397	0	 !(!(!(!e_17 & e_17)) & e_2)
642	386	0	 !(!(!((((e_5 | e_14) | e_7) & e_4) | e_10)) & e_8) & e_4
643	472	0	((((!(!(((e_17 | e_7) & e_15) | e_13) & e_11) | e_0) & e_18) | e_13) | e_13) | e_16
644	472	0	 !(e_0 | e_7)
645	554	0	((!e_10 | e_17) | e_8) & e_11
646	715	0	 !(e_16 | e_10) | e_2
647	766	0	(e_11 | e_17) | e_9
648	684	0	(((e_11 & e_19) | e_7) & e_3) & e_6
649	639	0	 !(((!(!(((e_13 | e_18) & e_10) | e_17)) | e_18) & e_1) | e_12) | e_14
650	682	0	e_13 | e_7
651	676	0	 !((!(!(((((e_13 & e_19) & e_14) & e_7) & e_19) | e_5) | e_5) & e_8) | e_18)
652	686	0	((((!(!(!(!(((!(!((((!((!(!((e_10 & e_16) | e_6)) | e_9) | e_19) & e_12) & e_4) | e_13) & e_17)) | e_2) | e_0) | e_11) | e_1))) | e_11) & e_17) | e_13) | e_11) & e_7
653	707	0	((!(((((!(!(!(e_13 & e_18))) | e_0) | e_5) | e_1) & e_8) & e_15) | e_7) & e_8) & e_12
654	997	0	(!((e_5 | e_1) | e_10) | e_11) | e_3
655	2122	0	(!((e_2 & e_8) | e_12) | e_10) & e_13
656	1321	0	(!(!(((!(!((e_1 & e_4) & e_17)) | e_5) | e_0) | e_10)) | e_3) | e_16
657	990	0	e_0
658	1957	0	 !e_0 | e_0
659	1177	0	(!e_0 & e_0) & e_0
660	875	0	(!e_0 & e_0) & e_0
661	1074	0	 !e_0
662	1053	0	e_0
663	11006	1	 !(!(!((!((!(!(!(!((!((!(!(!((!((((!(!(((!(!(!(!(!(!(((!((!(!((!(((!e_0 | e_0) | e_0) & e_0) & e_0) | e_0)) & e_0) | e_0) & e_0) | e_0) & e_0) & e_0) | e_0)) & e_0) & e_0) | e_0) | e_0) & e_0)) & e_0) & e_0) | e_0) | e_0) & e_0) | e_0) & e_0)) | e_0) | e_0) | e_0) | e_0)))) & e_0) | e_0) & e_0) & e_0)))
664	11029	1	 !(!(!(!((!(!(!((!(!(!(!(!(!((!(!(((((!(!(!(!(!(((((!(!(!(((((((((((((((e_0 & e_0) | e_0) & e_0) | e_0) & e_0) & e_0) | e_0) | e_0) & e_0) | e_0) | e_0) | e_0) & e_0) | e_0) | e_0)) & e_0) | e_0) | e_0) & e_0) & e_0) & e_0))))) & e_0) & e_0) & e_0) & e_0) | e_0) & e_0) & e_0) & e_0))))) & e_0) & e_0) | e_0))) & e_0) & e_0)) | e_0) & e_0)
665	10393	1	 !(!((!((((!((!(!(!(!(!(!(((!(((!(!((!(((!((!(!(!(!(((!((((!(!(((!e_0 | e_0) & e_0) | e_0) | e_0) | e_0) & e_0) & e_0) | e_0) & e_0) & e_0) | e_0) | e_0) | e_0)) | e_0) & e_0) & e_0) | e_0) | e_0) | e_0) | e_0) & e_0) | e_0) & e_0) | e_0) & e_0) | e_0) & e_0))) & e_0))) & e_0) | e_0) & e_0) | e_0) | e_0) | e_0) & e_0) | e_0))
666	6959	0	e_0
667	11008	1	 !(!(!(!(!((((!(!(!(!((!(!(!(!(!(!((((((((!((!(((((!((((!(!(!(((((!(((e_0 | e_0) | e_0) | e_0) & e_0) | e_0) | e_0) & e_0) | e_0))) & e_0) | e_0) & e_0) | e_0) & e_0) | e_0) | e_0) | e_0) & e_0) | e_0) | e_0) | e_0) & e_0) | e_0) & e_0) | e_0) & e_0) & e_0) & e_0)))))) | e_0) | e_0))) | e_0) | e_0) & e_0) | e_0) & e_0) & e_0) | e_0))) & e_0
668	11009	1	(!(!((!(!(!((((!(!((!(!(!(((!(((((((((((!((!(!(!(!(!((!(!(((!(!(!(!((((((!(!e_0 & e_0) | e_0) & e_0) | e_0) & e_0) & e_0) & e_0)))) & e_0) & e_0) | e_0)) | e_0) | e_0) | e_0) & e_0))) & e_0) & e_0) & e_0) & e_0) & e_0) & e_0) | e_0) & e_0) & e_0) & e_0) & e_0) | e_0) | e_0) & e_0) & e_0) & e_0))) & e_0) | e_0) & e_0) & e_0) | e_0) | e_0) & e_0))) | e_0) & e_0) | e_0) | e_0) | e_0
669	1549	0	((!e_0 | e_0) | e_0) | e_0
670	8323	0	 !e_0 | e_0
671	3403	0	e_0
672	11009	1	(!((!(!(!(!(!((!(!(!(!((!(!(!(!(!(((!(!((!(((!((((((((!(((!(!(!(((((((((((((((((e_0 & e_0) | e_0) & e_0) & e_0) & e_0) | e_0) | e_0) | e_0) & e_0) | e_0) & e_0) | e_0) & e_0) | e_0) & e_0) & e_0) | e_0))) & e_0) | e_0) & e_0) | e_0) & e_0) & e_0) | e_0) & e_0) | e_0) & e_0) & e_0) & e_0) | e_0) & e_0) | e_0) & e_0) & e_0) & e_0) | e_0) & e_0) & e_0)))) & e_0) & e_0)))) | e_0) & e_0)))) | e_0) | e_0) | e_0) | e_0) & e_0
673	1503	0	((!(!(!e_0)) & e_0) & e_0) & e_0
674	9761	0	e_0
675	1816	0	 !e_0
676	11006	1	(((!((!(((!(!((!((!((!((((!(!((((!(!((((!(!(((!((!(((!(!(!(!(!(!(!(((((((!(!(!(!(!(!(!(e_0 | e_0))) & e_0) & e_0)) & e_0) | e_0) | e_0) & e_0) | e_0) & e_0) | e_0) & e_0)))) & e_0)) | e_0) | e_0) & e_0) | e_0) | e_0) | e_0) | e_0) | e_0) & e_0)) | e_0) & e_0) | e_0) | e_0) | e_0) & e_0) & e_0) | e_0) | e_0)) & e_0) | e_0) & e_0) | e_0) & e_0) | e_0) | e_0) & e_0) | e_0) | e_0)) & e_0) & e_0) & e_0) | e_0) | e_0) & e_0) | e_0) | e_0) & e_0
677	11006	1	 !(!(((((((!(!(!((!(!(!((!(!((!(!(!((!(!(!((((((!(((!(!((!(!(!(!((((!(!((((!((!((((!(!((!e_0 | e_0) & e_0)) & e_0) | e_0) | e_0) | e_0) & e_0) | e_0) & e_0) | e_0) & e_0) & e_0) | e_0) & e_0) & e_0) | e_0) | e_0) | e_0)) & e_0) | e_0) & e_0) & e_0) & e_0) | e_0) & e_0) & e_0) | e_0) | e_0) & e_0) & e_0) | e_0) | e_0)) | e_0) & e_0))) & e_0) & e_0) & e_0) | e_0) & e_0)) & e_0) & e_0) | e_0))) | e_0) | e_0) & e_0) & e_0) | e_0) | e_0) & e_0))
678	979	0	 !e_1 & e_0
679	1907	0	e_0
680	1306	0	e_0
681	4901	0	e_1
682	2305	0	 !(!(!e_0 | e_1)) | e_0
683	3710	0	e_1
684	7207	0	e_0
685	5229	0	 !(!e_0)
686	11007	1	(!(((!(!(((!(!((!(!((((!(!(!(((((!(!(!(!(!(!(!(!(((!(((!((((((!(!(!(!(!((((e_0 & e_0) & e_0) & e_0) | e_0))) & e_1) & e_1) & e_1) & e_1) | e_1) & e_0) | e_1) & e_1) & e_0) | e_1) | e_0) | e_0) | e_1) | e_1)))))) & e_0)) | e_0) | e_0) & e_1) | e_1) | e_1))) | e_0) & e_0) & e_1) | e_0)) & e_1) & e_0)) | e_0) & e_1) | e_0) | e_1) | e_1) | e_1) | e_1) | e_0) & e_0
687	4118	0	e_1 | e_0
688	11006	1	 !(!((((!((!(!(((!(!(!(!(!(((((!((!(((((!(!(!((!(!((!(!(!(!(!((((!(((!(!((((e_0 & e_0) | e_0) & e_0) | e_0)) | e_1) | e_1) & e_0) | e_1) | e_1) | e_0) | e_1)))) | e_0) | e_1) | e_0) & e_1) | e_0) | e_0)) & e_0) | e_0) | e_1) | e_0) & e_1) & e_0) & e_0) | e_1) | e_0) | e_0) & e_0) & e_0) & e_0)) & e_1)) & e_0) & e_0) | e_1) | e_0)) | e_0) & e_0) | e_1) & e_1) & e_1) & e_0) & e_1)
689	11008	1	 !(!(!(!(!(!(!(!(!((!((((!((!(((((!(!(!(!(!(!(!((!((((((!(((!(!(!(!(((!(!((((((((((e_1 | e_0) | e_0) | e_1) | e_0) & e_1) & e_1) | e_0) | e_0) | e_0) | e_0)) & e_0) & e_1) | e_1)))) | e_1) | e_0) | e_0) | e_0) & e_1) | e_0) & e_1) | e_1) & e_0) | e_1) | e_0) & e_0)) & e_0))) | e_0) | e_1) & e_1) | e_0) | e_1) & e_1) | e_1) | e_0) | e_0) & e_0) | e_0) | e_1) & e_0) & e_1))) | e_0)))) | e_1) & e_1) | e_0
690	11007	1	 !(!((!(!(((!((((((((!(!(!((!((!(!(!(!(!(!(!(!(!(!((!((!(!((((((((((!((((!(!(!(!(!e_0 & e_0) | e_0)) & e_1) & e_1) | e_0) | e_1) & e_1) & e_0) | e_1) & e_0) & e_1) & e_1) & e_0) | e_0) | e_1) | e_1) & e_0)) & e_0) | e_1) & e_0) & e_0) & e_0))) & e_0) | e_0) & e_0)))) & e_0) & e_1) & e_0) | e_1))) & e_1) & e_1) | e_0) & e_0) | e_1) & e_1) | e_1) | e_0) | e_1) & e_1) | e_1) & e_0) & e_0) | e_1))
691	11005	1	(((!((!(!(!(!(!(!(!(!(!(!(!((!(!(!((!((((!(!(((!(((((!(!((!(!((!((!(!(!(!(!(!((((((!(!(!e_1 & e_1) & e_1) & e_1) | e_0) & e_0) & e_1) | e_1) & e_1) & e_1))))) & e_1) & e_0) & e_0) | e_1) | e_1) | e_0) & e_1)) & e_1) | e_1) & e_1) | e_0) | e_0) & e_1) | e_1) | e_0)) & e_0) & e_0) & e_1) & e_1) | e_0) & e_1) & e_0)) & e_0) & e_1) | e_1))))) | e_1)) & e_0) & e_0)) & e_0) | e_1) | e_0) & e_1) & e_0) | e_0
692	11012	1	 !((!((((((!(!((!(!(((((!(!(!(!(((((((((((!((!((!(!(!(!(!(!(!((((!(!(((((((!(!(!(!(((e_1 | e_0) & e_0) & e_0)) & e_0)) & e_1) & e_1) | e_1) & e_0) & e_0) | e_0) | e_1) & e_0) | e_1) & e_0) & e_1) | e_0) & e_1)) & e_1) | e_1))) & e_1) & e_1) & e_0) & e_0) | e_1) & e_1) | e_0) | e_0) | e_1) & e_1) | e_0) & e_1) & e_1) & e_1) | e_1)))) | e_1) | e_0) & e_0) & e_0) | e_1) & e_1) | e_1) | e_0) | e_0) | e_0) & e_0) & e_0) | e_1) | e_0) | e_1) | e_0) & e_0) | e_1
693	11008	1	(!(!(((!(!(((((!(!(((((((!(!((!(!(((!(!(!(!((((!(!(!((((!((((((((((!(!(!(!(((((((!(!(!((!(!e_1) & e_0) & e_0))) & e_1) & e_1) | e_1) & e_1) | e_0) | e_0) & e_0)))) & e_0) | e_0) | e_1) & e_0) & e_0) | e_0) & e_0) | e_0) & e_0) | e_1) | e_1) | e_1) & e_1) & e_1) & e_0)) | e_0) & e_0) | e_0) & e_0)))) | e_1) & e_0) & e_0) & e_1) & e_0) | e_0)) | e_1) & e_1) | e_1) & e_1) & e_1) | e_0) & e_0) | e_1) & e_0) & e_1) & e_0) | e_1) | e_0) & e_0) & e_0) & e_0) & e_0)) | e_0) & e_0
694	2578	0	e_1 | e_2
695	1172	0	e_2
696	1101	0	 !(!(!e_0)) | e_0
697	1132	0	 !(!(((!e_0 | e_1) | e_0) | e_1))
698	7929	0	 !e_2 | e_2
699	1009	0	e_0 | e_2
700	1947	0	e_2
701	1395	0	 !e_0
702	1397	0	 !e_2 & e_0
703	5536	0	 !e_0 & e_1
704	11010	1	 !(!(((!((((!(!(!(!(!((((((((!(!((!((!(!(((((!(!(!((!(!(!(!(!((!((((((!(!(!(!(!((!(e_0 | e_2) & e_1) & e_0)) | e_1)) & e_1) | e_0) | e_2) | e_2) & e_0) & e_1) | e_0) | e_1) | e_1))) | e_0) & e_2) & e_2) | e_0))) & e_1) & e_0) & e_1) & e_2) | e_0)) | e_0) | e_1) | e_1) & e_0)) & e_0) & e_0) & e_0) | e_1) | e_1) | e_0) & e_2) & e_2))))) | e_2) & e_2) & e_2) | e_2) | e_1) | e_2) | e_0))
705	11006	1	(((!(!(((((((!((((((!((!(((((((!(!(!(!((((!(!(!(!(!(!(!(!(((!(!(!(!(!(!(!(!(!(!e_2 & e_2)) & e_1) | e_1))) & e_1) | e_1) | e_2) | e_1) & e_0) & e_0) | e_0)) | e_1))) & e_2)) & e_1) & e_2) | e_1) | e_0))) | e_1) | e_1) | e_2) | e_1) & e_2) & e_0) & e_2) & e_0) & e_1) | e_1) | e_0) | e_0) | e_2) | e_0) & e_1) & e_1) | e_0) | e_2) & e_2) & e_1) | e_2) | e_1) & e_2)) & e_2) | e_0) | e_0) | e_2
706	2856	0	e_0
707	11009	1	 !((((((!(!(((((((((((((!(((!(!(!(!(((!((!(!(!(!(!(!(!((!(!(!(((((((((!((((((((((e_1 | e_0) & e_1) | e_1) | e_1) | e_1) & e_1) & e_0) & e_1) & e_1) | e_0) | e_0) & e_1) & e_1) & e_1) | e_0) & e_1) & e_2) & e_2) & e_0) | e_0) | e_1) & e_1) & e_2)) & e_0))))) | e_0) & e_2) & e_0) & e_1) & e_2))) | e_1) & e_1) & e_2) & e_1) | e_2) & e_1) | e_2) | e_0) & e_2) | e_0) & e_2) & e_1) | e_0) | e_0) | e_0) & e_0) | e_1)) & e_0) | e_2) & e_0) & e_1) | e_2) | e_2)
708	11007	1	 !((((!((((!((!(!(!(!(!((!(((!(!(!(!(!(((!(!((((!(!(!(!((!(!((!(!((!(!(!((((((((e_1 & e_1) & e_1) | e_0) & e_0) & e_2) & e_0) & e_0) & e_2)) | e_0) | e_0) & e_1) | e_0) & e_2) | e_0)) | e_1) | e_2) & e_1))) & e_0) | e_2) | e_0) & e_2) | e_1) & e_1) | e_0) | e_1))) | e_0)) & e_1) & e_2) | e_1) & e_1) & e_1) | e_0) & e_2) | e_2)) & e_2) & e_1) & e_0) & e_2) & e_1) | e_1) | e_1) | e_1) | e_2) & e_1) | e_1
709	11007	1	((((((!((!(!(!(!(!((!(!(!(((!((!(!(!((!(!((((((((((!((!(!(!(((((!(!(!((((((!(((e_2 | e_1) | e_1) | e_1) | e_0) & e_1) | e_0) | e_0) & e_1) | e_1) & e_2)) & e_2) | e_1) & e_1) & e_0) & e_2) & e_1) & e_0) & e_0) | e_2) & e_2) & e_1) & e_1) & e_0) & e_0) | e_2) | e_0) & e_1) | e_0) | e_0) | e_2) & e_1) | e_2) & e_0)) & e_0) | e_1) & e_0) & e_2) | e_1))) & e_1) | e_2))))) & e_0) & e_0) | e_2) & e_1) & e_1) & e_2) & e_0) & e_2) | e_0
710	3385	0	e_2
711	11009	1	 !(!(!(((!(!(!((!(!((!(((!((((((((!(!((!(!(!(((!(((!(!(!(((((((!((!((!(!(!(!(!(!((!(((!(e_1 & e_0) | e_1) | e_0) & e_2) | e_0) | e_1) | e_1)))) & e_2) & e_0) & e_0) & e_2) | e_0) & e_2) & e_0) | e_1) & e_1) | e_2) & e_0) | e_2))) & e_2) | e_2) | e_0) | e_0) | e_0) | e_0))) & e_2) & e_2)) | e_0) | e_2) & e_0) & e_1) | e_2) & e_0) & e_2) & e_0) | e_0) | e_2) | e_0) | e_1) | e_0) | e_1) | e_2) & e_0)) & e_1) & e_1) | e_1) & e_2)))
712	1216	0	(!e_0 | e_1) & e_3
713	5008	0	 !(!(!(!((!e_2 & e_0) & e_3)))) & e_2
714	5557	0	e_3
715	11009	1	((!(((((!((!(!(!(!((((!(!((!(!(!(!(!(!((!(!((!(!(((!(!(((((!(!(!(!(!(((((!(!e_3) & e_0) | e_3) | e_0) | e_0) & e_1))) | e_1) | e_3) & e_1) & e_2) | e_1) | e_1) & e_2)) & e_0) | e_1) & e_0) | e_2) & e_3) & e_1) | e_3) | e_3) | e_3) | e_3))))) & e_3) & e_2)) | e_1) | e_1) | e_1) | e_2) | e_2))) | e_1) & e_0) & e_3) & e_0) & e_0) & e_1) & e_0) & e_0) | e_3) | e_2
716	1872	0	 !((e_1 & e_0) & e_3)
717	3204	0	 !(!(!((!(!(e_1 & e_0)) & e_3) & e_3))) & e_3
718	4437	0	 !(!(!(!(!(!(!((e_3 & e_1) & e_1) & e_0)))))) & e_1
719	11004	1	(!(((((((!(!(((!(!(((((!(!(!(!(!(!(!(!(!(((!(!(!((((!(!(((!(!(!((!((((!(!(!(!((!e_3 & e_3) & e_1))) | e_3) & e_1) | e_2) & e_3) & e_3) & e_1) | e_3) & e_3) | e_0) | e_2) & e_3) & e_3)) & e_0) | e_0) & e_0) | e_3))) & e_0) & e_1) | e_1)) | e_2)))) | e_0))) | e_2) & e_3) & e_0) & e_1) | e_3) | e_0) | e_2) | e_0) | e_3) | e_2) & e_3) | e_2) & e_1) | e_1) & e_1) & e_1) | e_0) | e_0) | e_0
720	11012	1	((!(((((!(!(!((((!(!((!(!(!(!(((!(((((((!(!(!(!(!(!(!(!(!(!(!(!(!(!((((!(!(!(!(((((((!(!((e_2 | e_0) & e_2)) & e_1) | e_0) & e_2) & e_1) & e_3) | e_2) | e_3)) | e_3)) & e_0) | e_3) | e_1) & e_2)))) | e_0)))) | e_0)))) & e_1)) & e_1) | e_0) | e_3) & e_0) | e_1) | e_1) | e_1) | e_2) | e_2) | e_1)))) | e_2) & e_0)) | e_0) | e_3) & e_1) & e_0))) & e_3) | e_1) & e_0) | e_0) | e_0) | e_2) & e_0) & e_2
721	11009	1	(((!((!(!(!(((!(((!((((((!(!(!(!(!(((!((!((((!(!(!(!(((!(!((((!(((!(((((((!((!(!(!((!e_1 & e_1) | e_3) & e_3)) & e_2) & e_0) | e_3) & e_3) & e_1) & e_0) | e_0) | e_2) & e_1) | e_1) & e_1) & e_1) & e_1) & e_3) | e_1) | e_1)) & e_3) & e_1) | e_2))) & e_1) & e_0) | e_3) | e_0) | e_3) | e_3) | e_3) | e_3) | e_0) & e_2) | e_3)))) & e_0) & e_0) | e_1) | e_1) & e_0) & e_0) | e_1) & e_3) | e_3) & e_3) & e_0) | e_2)) | e_1) & e_3) | e_2) | e_0) & e_0) | e_0) | e_3
722	1120	0	(!((!e_0 & e_4) & e_4) & e_3) | e_1
723	1450	0	 !(e_1 | e_0) | e_4
724	984	0	(((e_2 | e_0) | e_4) & e_1) & e_3
725	4103	0	e_2
726	5375	0	 !(!(((e_1 & e_4) | e_3) & e_4)) & e_2
727	971	0	 !(!e_3) & e_4
728	6336	0	 !((e_2 & e_3) & e_1)
729	1580	0	 !(e_1 | e_4)
730	9296	0	(e_4 | e_0) | e_1
731	1643	0	(!(!(!(!e_2 & e_1)) & e_0) & e_0) | e_4
732	11004	1	 !(!(!(!(!(!(((!(((((!(((!(!((((!((!(!((!((!(((!(!(!(((((!(((!(!(((((!((e_1 | e_4) & e_1) | e_1) | e_2) & e_0) | e_3) | e_4) & e_3) & e_0) | e_2) & e_2) & e_0) | e_1) & e_4) | e_2) & e_4))) & e_2) & e_4) | e_4) & e_4) | e_0) | e_0) | e_4)) | e_4) | e_1) & e_3) | e_2) | e_0) & e_1)) | e_1) & e_0) & e_4) | e_2) & e_3) | e_1) & e_0) | e_3) | e_4) & e_2) & e_4) & e_1)))) & e_0)
733	6612	0	e_2 & e_1
734	11004	1	((!(((((!(!(((((!(!(!(!((!(!(((((!((!(!(!(!(!(((!((!((!(((!(((!((((!(!(!(!((e_2 | e_2) | e_4)))) | e_3) & e_1) | e_3) | e_4) | e_0) & e_4) | e_3) & e_0) & e_4) & e_0) | e_1) & e_0) | e_4) | e_2) & e_0) & e_0) | e_3))))) | e_4) | e_4) | e_0) & e_2) | e_2) | e_3) & e_1)) & e_4) | e_3) | e_4))) & e_1) & e_2) | e_4) | e_0) | e_2)) | e_2) | e_4) | e_0) | e_1) | e_2) | e_1) | e_4) | e_2
735	6562	0	 !((!(!e_1) & e_0) & e_4)
736	1334	0	e_0
737	7070	0	 !(e_3 | e_0)
738	11005	1	 !(((((!(!((((!(!(!(((((((!(((!(!(!(!(!(!(!((((((!(((!(!(!(((((((((((((!(!(!(!(!(!(((!(!((e_0 | e_0) | e_4)) | e_1) & e_3) & e_4)) | e_0)) & e_0)) & e_2) & e_0) & e_0) | e_0) | e_4) & e_4) | e_0) | e_1) & e_0) | e_2) & e_1) | e_1) | e_1))) | e_4) & e_0) & e_1) & e_0) | e_4) | e_2) | e_2) | e_3) | e_2)) & e_0))))) | e_1) & e_4) & e_0) & e_2) & e_1) | e_0) | e_0) | e_3) | e_4) & e_2))) & e_3) | e_0) | e_3) & e_4)) & e_2) | e_0) | e_2) & e_2) | e_1) | e_1
739	11008	1	 !(((!((!(((((((((((((!((!((!(((!((!(!((!((!(!(((((!(!(!((!(!(((!(((!(!(!((!((!(!(!(e_0 | e_3) & e_3)) | e_0) | e_1) & e_3) | e_1))) & e_0) | e_1) | e_1) | e_4) | e_4) & e_2) & e_2) | e_0) | e_1))) | e_2) | e_2) | e_1) & e_0) & e_1)) & e_3) | e_4) | e_1) & e_3)) & e_1) & e_1) | e_3) | e_1) | e_1) | e_0) | e_4) | e_0) & e_1) | e_0) & e_4) | e_3) & e_3) | e_0) & e_2) & e_2) | e_2) | e_3) & e_3) | e_2) | e_3) & e_3) | e_0) | e_2) & e_1) & e_1) & e_3)
740	9975	0	((!e_1 & e_0) | e_3) & e_0
741	945	0	((((!(e_5 & e_1) & e_0) | e_3) & e_4) | e_2) & e_1
742	11009	1	(((!(!(((((((((!(!(!(!(!(!(!(!(!(((!((!(!(!(!(!(!((!(((((!(!((!(!(((e_1 & e_1) & e_3) | e_1) & e_4) & e_1) & e_2) & e_3) | e_5) | e_2) | e_5) | e_0) & e_2) & e_5) & e_0) | e_2))))) | e_3) | e_4) & e_3) | e_2) | e_3)) & e_0))) & e_3))) | e_2) | e_2) & e_2) | e_0) | e_0) & e_3) | e_1) & e_0) & e_4) & e_1) | e_5) & e_3) & e_1) & e_3) & e_0
743	11011	1	 !((!(!(!(((((((((!(!(!(!(!(!(!(!(((!(!(!(!((!((!(!(!((((!(!(!(((((!((!e_3 | e_5) & e_4) | e_4) | e_1) | e_3) | e_5) & e_2))) | e_2) | e_2) | e_1) & e_3))) | e_3) | e_4) | e_5) & e_5)) | e_3) & e_1) & e_3) | e_1) & e_4) | e_3) & e_2))) & e_3) & e_1)) | e_2) & e_3) | e_3) & e_3) | e_5) | e_4) | e_0) | e_0) & e_5))) | e_3) & e_0) | e_2
744	1324	0	 !e_2 & e_1
745	3285	0	((!(!(e_4 & e_1)) & e_3) | e_2) & e_0
746	11007	1	((((!(((!(((!(!(!(!(!((((((!(!((!((((!(!((!(!(!(!(!((!((!((((!(!((((!((((e_3 & e_4) & e_4) & e_4) | e_1) | e_4) & e_5) & e_3) & e_3) & e_3) & e_3) & e_1) & e_0) | e_5) & e_4) | e_0) & e_4) & e_4))) | e_2) & e_0) & e_1) & e_4)) & e_0) & e_0) | e_4) | e_3) & e_2) | e_2)) | e_2) | e_3) & e_2) | e_1) & e_3) | e_1) & e_3)))) | e_3) & e_5) | e_4) & e_0) | e_0) | e_4) & e_1) & e_4) | e_4) & e_0) & e_5
747	1353	0	 !(!(!e_3 | e_2) | e_0)
748	11003	1	 !((!((((!((((!(!(!(((((!(!(!((!(!((((!(!((!((!(!(!((!((((!(!((!(!(!(!(!(((((!((!(!e_5) & e_4) | e_1) & e_0) & e_1) & e_1) & e_4) | e_0) & e_0)) & e_5)) & e_0) & e_5)) | e_0) & e_2) | e_5) | e_5) | e_2) & e_3) | e_2)) & e_3) | e_3) & e_3) | e_4)) | e_2) & e_5) | e_3) & e_4) & e_4) | e_2) & e_3))) & e_3) & e_0) & e_3) | e_5) | e_3)) | e_4) & e_4) | e_2) & e_1) | e_3) & e_5) | e_2) & e_2) & e_4) | e_3) | e_3)
749	11006	1	(((!(!(!((((((!((!(((((((((!(!(!(!((((!(!(!(!(!(!((((((!(!(!(!(!((!(!(!(!(!(!(!(!(!(!(!(!(!e_5)))))) & e_0) | e_2)) & e_0))) | e_1) | e_1)) & e_1))) & e_0) | e_0) | e_5) | e_0) & e_0) & e_5))))) & e_1) | e_5) | e_2) & e_5) & e_0)) & e_2) | e_2) | e_1) & e_5) & e_4) & e_5) | e_4) | e_4) & e_3) | e_2) | e_3) & e_1) | e_3) | e_0) & e_1) & e_1) & e_3) & e_0) & e_4)) | e_0) | e_4) & e_2) | e_3) | e_0
750	11006	1	 !(!(!(!(!(!(((((!(!(!((((((!(!(!(((!((!(!(!(!(!(((!((((!((!((((((!(!(!((!(!(!(!(!e_5) & e_5) & e_5) | e_2) & e_4) & e_5) & e_5) & e_4) | e_5) | e_4) | e_5) | e_2) & e_1) | e_4) & e_0) & e_2) | e_3) | e_5) | e_0) | e_4) | e_4) & e_2) | e_4)) & e_0)) | e_0) & e_5) & e_1) | e_4) | e_3) | e_5) | e_3)) | e_5) | e_4) | e_0) & e_2) | e_4) & e_1) & e_4) & e_5) & e_1) | e_4) & e_3) | e_2) & e_3) & e_2) & e_5))))
751	11010	1	 !(!((!((((((!(!(!(!((!(!(!((((!(!(((((((((((((!(((!(((!(!(!(!(!(!(((!(!((!(((((!(!(!e_2)) & e_0) | e_2) | e_4) & e_5) | e_4) & e_2) & e_1) | e_1) & e_2) | e_5) | e_4) & e_2) & e_1))) & e_1) | e_4) & e_4) & e_0) | e_5) | e_5) | e_1) | e_4) | e_0) & e_4) | e_3) | e_1) | e_0) & e_3) | e_1) & e_2) | e_2) & e_0) | e_2) & e_3) | e_0) | e_4) & e_0) | e_1) & e_5) & e_3) & e_2) & e_3) & e_4))) & e_5) | e_4) & e_0) & e_2) | e_2) | e_5) | e_2) | e_3) | e_5))
752	1833	0	 !(e_1 | e_3) & e_4
753	11005	1	((((!((!((!(!(((!(!(!(!(!(!(!(!((!((!(!(!(!(!(!(!(!((!(!(((!(e_1 | e_3) & e_0) | e_3) | e_6) | e_4) & e_6) | e_6))) & e_6)) | e_6))) & e_0) | e_0) | e_5) | e_4) | e_3) | e_2) | e_1))) | e_4)) & e_1) | e_3) | e_2)) | e_0) & e_3) | e_1) | e_4) & e_6) | e_6) & e_5) | e_0) & e_3
754	1107	0	(e_2 & e_4) & e_5
755	6171	0	 !((e_2 | e_3) | e_4)
756	1201	0	(((!e_4 | e_3) & e_5) | e_2) | e_0
757	5217	0	 !(!(((!e_6 | e_0) | e_3) | e_3)) | e_1
758	1581	0	 !e_4 & e_3
759	5493	0	(((e_4 & e_2) | e_0) | e_6) & e_3
760	11006	1	 !(!(!(((!((((((((!(!(!((!(!(!(!(!(!(!(!(!(!(!((((((!(!((((((!((!((!(!(!(!(!((!(!(!(!((!(!((e_0 | e_6) | e_3) & e_1) | e_2) | e_1) & e_5))) & e_5) & e_5) & e_1) | e_0)) & e_1) & e_3) | e_5) & e_1) | e_4) & e_0) | e_2) & e_2) | e_4) & e_6) & e_3)) | e_0) | e_4) & e_3) | e_3) | e_5) | e_3) & e_0))))) & e_1)))) & e_5) & e_6) | e_6))) & e_0) & e_4) & e_4) & e_3) | e_5) | e_1) | e_4) & e_3) | e_3) | e_4) & e_0)))
761	11004	1	 !((!((!(!((((!((!(!(((!(!(!(!(!(!((!(!(((!(!(((((!(((((((((!(!((!(!((((!((!((((!(!(e_0 | e_6) & e_3) | e_3) | e_0) & e_3) & e_3) | e_3) | e_2) | e_1) & e_5) | e_4) | e_3) | e_5) & e_0) & e_0)) & e_3) | e_6) | e_0) & e_6) | e_2) | e_2) | e_4) & e_2) & e_0) & e_1) & e_6) | e_5) & e_5) & e_0)) & e_2) | e_2) | e_4) | e_6) & e_3) | e_6) | e_0))))) & e_4) & e_1) & e_4) | e_1) | e_5) & e_1) | e_4) | e_4) | e_0) & e_1) & e_0) | e_2) & e_5) & e_3) & e_5)
762	11009	1	 !(!(!(!(((!((!(((!(!(((((!(!(((!((!((((!(!(!((!(!(!(!(!((!(!(!(!(((((((((!(!(!(!(!(!(!(e_2 & e_4) | e_1)) & e_4)) | e_1) | e_1) & e_0) | e_5) & e_4) & e_0) & e_0) | e_1) | e_5) | e_6) & e_5)))) & e_1) & e_4) | e_5)) & e_5)) | e_2) | e_6)) & e_2) & e_4) & e_2) | e_3) | e_5) & e_1) & e_4) & e_5) | e_2) & e_2) | e_1) & e_4) | e_3) & e_0) | e_6) | e_2)) | e_3) & e_6) & e_0) | e_1) | e_3) & e_6) | e_5) & e_4) & e_5) | e_3)) & e_0
763	11011	1	 !(((((((!(!(!(!(!(!((!(!(!(!(!(!(!(((!(!((!(!(!((((((((!((!(!(!(!((((!(!(!(!((!(!(!(!(!((!(e_4 | e_5) | e_0) & e_2)) | e_0) & e_6) & e_4) & e_2) & e_1)))) | e_6) & e_2) | e_6) | e_5)) & e_4)) | e_2) | e_0) & e_3) & e_0) & e_4) | e_5) & e_4) | e_5) | e_3) & e_4))) & e_2) | e_2)) & e_2) & e_2) | e_5) & e_3) & e_6)) | e_5)) & e_0) & e_0) | e_1) & e_5))) | e_6) & e_5) & e_6) | e_6) | e_3) & e_1) & e_6) & e_4) & e_1)
764	11009	1	(!(!((((!(!(!((((!(!((((((!(!(((!(!(!(((!(!(((!((((!(((((!(!(!(((!(!(((!(!((!(!(!(!(!(!e_1) & e_3) | e_5) & e_2)) | e_0) & e_2)) | e_2) & e_1) & e_5)) & e_3) | e_6) | e_5))) & e_6) & e_1) & e_1) | e_0) | e_2) | e_2) | e_5) | e_0) & e_0) & e_3) | e_5) | e_5) | e_1) & e_1) & e_2) & e_2))) | e_4) | e_3) & e_4) | e_6) | e_6) | e_6) & e_0) | e_6) & e_3) | e_0) | e_3) | e_2) & e_3) | e_1) | e_4) & e_3)) | e_3) & e_5) | e_4) & e_3) & e_3) | e_1) | e_1
765	11010	1	((!(!(!((((((((((!(((!(!(!((((!((!(((((!((((((!(!((!(!(!((!(!(!((((((((!(!(!(!(((((!(((!e_2 & e_1) & e_4) | e_6) & e_4) & e_5) & e_2) | e_4) & e_5)) | e_0)) & e_2) & e_1) | e_1) | e_1) | e_2) & e_3) & e_6) | e_2))) | e_6) | e_6))) & e_6) | e_4)) & e_0) & e_0) | e_6) & e_0) | e_2) & e_4) | e_6) & e_0) & e_0) & e_3) & e_3) | e_2) | e_5) | e_4) | e_6) | e_3) & e_1) & e_5)) & e_1) | e_4) | e_1) & e_3) & e_6) & e_0) & e_5) & e_3) & e_5) & e_2) & e_4) & e_4) | e_5))) & e_3) & e_2) & e_2
766	1577	0	(!((!(!(e_5 | e_2)) | e_2) | e_2) & e_5) & e_6
767	3443	0	(e_4 & e_5) | e_0
768	11010	1	 !(!(!((!(!(!(!(((((!((!(!(((!(!(!(!(((!(((!((!(!((!(!(!(!(!(!(((((e_0 & e_0) | e_1) & e_0) & e_7) & e_5))) & e_4)) & e_2) & e_7) | e_7)) | e_3) & e_4) & e_1) | e_6) & e_4) & e_0) | e_6) | e_0))) & e_6) | e_0) | e_0) & e_1)) & e_7) & e_3) & e_3) | e_1) & e_7) & e_4) & e_4) | e_1))) & e_2) | e_4) & e_7))
769	3547	0	 !(!(!e_5)) | e_4
770	3920	0	((!(e_4 | e_0) & e_7) & e_4) & e_4
771	1435	0	 !(!(!e_4) & e_3)
772	1959	0	(((!(!e_2) | e_4) & e_0) & e_1) | e_7
773	1425	0	(((e_4 | e_1) & e_5) & e_0) | e_2
774	11009	1	 !(!((!(!((!(((((((((((!(!(!(!(!((((((!(!((!(!(!(!(!(!(!(!(!(!(!(!(!(((((((!e_4 & e_6) | e_2) | e_6) & e_5) & e_7) & e_2) | e_2)) | e_2))) | e_7))) | e_1))))) & e_5) | e_4)) & e_5) | e_5) | e_4) | e_3) & e_4) | e_7)) | e_1) & e_1)) | e_3) | e_4) & e_0) & e_5) | e_1) & e_0) | e_4) & e_4) | e_1) & e_2) | e_5) & e_7) & e_1) & e_1) | e_4) | e_0) | e_5)
775	5092	0	 !(((!e_1 & e_6) & e_5) & e_3) | e_2
776	3082	0	 !(!((e_2 & e_6) | e_7) | e_0)
777	1136	0	((e_2 | e_0) | e_6) | e_4
778	1409	0	(e_4 & e_3) & e_7
779	1497	0	 !((((!(!e_0) | e_1) | e_5) | e_5) & e_2)
780	2436	0	 !(!(!(((e_3 & e_7) & e_4) | e_1))) & e_4
781	11010	1	 !(!(!((!(!((((!(((!(!(((!(((!((!((!(!(!(!(!(((((!(!(!(((!((!(!((((!((!(!((e_4 & e_5) & e_0)) & e_2) | e_5) | e_4) | e_3) & e_5) | e_4)) & e_5) & e_0) | e_3) & e_6) | e_3))) & e_6) & e_1) & e_5) | e_6) | e_0)) | e_4) | e_2) | e_2) | e_4) & e_0) | e_7) | e_7) | e_4) & e_4) | e_4) | e_7) & e_7) | e_3)) | e_7) | e_0) & e_1) | e_4) | e_0) & e_4) | e_0) & e_3) | e_5) & e_0)) | e_3)
782	3688	0	((e_0 | e_5) & e_3) & e_6
783	11006	1	 !(((((!(!(!(!((!((!(!(!(!(!((((((!((((!(!((((((!(((!(!(!(!(!(!(!(!(!(((((!(!(!((!(((!(!(!(e_5 | e_1))) & e_3) | e_7) & e_1) | e_7) & e_4))) & e_0) & e_3) | e_0) | e_5) & e_0)) | e_5)) | e_3)) & e_3) & e_4)) | e_5) & e_3) | e_7) & e_2) & e_5) | e_2) | e_7) & e_0) & e_2)) | e_7) | e_2) & e_6) & e_5) & e_5) | e_6) | e_3) & e_2) | e_3) | e_0))))) | e_7) | e_0) | e_2) & e_1) | e_4)) & e_3) | e_3) & e_4) | e_5) | e_3) & e_2)
784	4045	0	e_6 & e_1
785	10209	1	 !(!(!(!(!(!(!(((((!(!(((!(!(!((!(!(!(!(!(((!(((!((!(!(((!((!(!e_2) | e_0) | e_4) | e_0) & e_3) & e_5)) & e_8) | e_0) & e_1) | e_6) & e_0) | e_0) | e_2) & e_8))) & e_7) | e_0) & e_6) | e_4)) | e_6) | e_2) & e_8) | e_7)) & e_3) & e_5) | e_6) | e_6) | e_4))) | e_7))) | e_0)
786	918	0	 !(((e_4 & e_2) | e_1) | e_5)
787	2529	0	((((e_4 | e_1) & e_5) | e_1) | e_6) | e_2
788	8944	0	 !(((!(((!(!(!(!(e_8 & e_5))) & e_1) | e_6) & e_4) | e_0) | e_0) | e_7) & e_3)
789	11006	1	 !(!(((!(!(!((!((!(!(!(!(!(!(!((((((((!(!(((((((!(((!(!(!(!(!(!(((!(!(!(!(!e_8 & e_6))) | e_7) | e_1) | e_2) & e_6) & e_2)) | e_8))) & e_1) & e_0) & e_2) & e_2) & e_7) & e_2) | e_0) | e_7) & e_7) | e_0)) | e_0) | e_5) | e_1) | e_0) | e_2) & e_2) & e_5) & e_5))))))) & e_3) & e_2) & e_2) & e_6))) | e_4) & e_3) & e_5) | e_8)
790	1632	0	(((!(!(!(e_1 & e_3) & e_8)) | e_6) & e_5) | e_7) | e_2
791	1303	0	(e_7 | e_0) | e_5
792	11006	1	(!(!((!((!((((!(!(!(!(((!(!(((!(!(!(!(!(!((!((((((!(((!(!(((!(!(((!(((!(!((!(e_5 | e_3) | e_3) | e_1)) & e_0) | e_5) & e_8) | e_0) | e_4) & e_2)) | e_2) | e_0) & e_5) & e_5) | e_0) | e_4) & e_0) | e_4) & e_8) | e_6) & e_3) & e_1) & e_6) & e_7) | e_2))) | e_6) | e_5)) | e_7) & e_2) & e_5)) & e_5) | e_8) | e_8)))) & e_7) | e_1) | e_5) & e_4) & e_3) | e_4) | e_0) & e_1)) & e_5) | e_5
793	9354	0	 !(!(!(((e_8 | e_6) | e_2) & e_3)) & e_4)
794	11005	1	((!(!(!(((!(!(!(!(!(!(!((!(!(!(!(!(!(!(!(((!(!((!(!(!(!((!(!(((((!(!(((((((((!((!(!((!e_8 & e_7) | e_2) & e_1) | e_8) & e_6) & e_2) & e_6) & e_1) & e_0) & e_5) | e_4) | e_4) & e_5) | e_7) & e_4) & e_1) | e_0) | e_2) | e_3) | e_2)) & e_5) & e_2))) & e_4) | e_8) | e_7)) | e_7) | e_5) | e_7))) & e_4) | e_7)))) & e_7) & e_7)))) & e_5))) | e_4) | e_5) | e_2))) | e_8) & e_1) & e_5
795	8041	0	 !(!(((!((e_5 & e_3) & e_2) | e_7) & e_8) & e_3) & e_8)
796	11006	1	 !(!(!(!((((((!(!(!(!(!((!(!(!((!(!((((!(!(!(!(!((!(!((!(!(!(!(!(!(!(!((((!(!(!((!(!(!(!((!(e_1 & e_6) | e_2) & e_8) | e_7) | e_7)) | e_4) & e_7))) & e_1) & e_3) | e_0) & e_7))) & e_6)) | e_5))) & e_6) & e_4)) & e_1) & e_3) & e_3))) & e_5) | e_1) & e_0) | e_4) & e_1) & e_0) | e_0) & e_0) & e_8)) | e_5) & e_2))))) & e_5) & e_1) & e_0) & e_5) & e_4) & e_8))))
797	11005	1	 !((((((((!((((!(!(!(((!(!((!((((!(!(((((!(!(!((!(!(!(!((!(!((((((((((!(!(!(!(!(((((!e_8 | e_3) & e_3) & e_4) | e_7) & e_5))) | e_4)) & e_7) & e_5) & e_6) & e_3) | e_7) & e_2) | e_7) & e_8) | e_5) | e_5)) & e_0) & e_5) & e_3)) | e_3) & e_3) & e_0))) & e_6) | e_2) | e_8) & e_4) | e_5)) | e_8) & e_7) | e_6) & e_2) | e_2) | e_5) | e_8) | e_7) | e_8) & e_5) | e_2)) | e_2) | e_2) | e_3) | e_4) | e_6) | e_1) | e_0) | e_5) & e_7) | e_4) | e_6) | e_6)
798	9544	0	(!(((e_6 | e_1) & e_2) & e_8) & e_4) & e_8
799	11008	1	 !(!(!(!((!((((((((!((!(!(((!((!(!((((!((!(!(((!((!(!(!(!((((!(!(!(!(!(((((!(((((!e_6 | e_4) & e_6) | e_5) | e_4) | e_4) & e_7) & e_7) | e_6) | e_3) & e_1))) & e_5) & e_7) & e_1) | e_3) & e_4) & e_0)) & e_8)) | e_6) | e_0) & e_7) & e_7) | e_8) | e_1) | e_2) | e_7) & e_5) | e_8) & e_7) & e_3) & e_3) | e_6) | e_3) | e_8) | e_7) & e_5) | e_1) & e_3) & e_3) | e_4) & e_8) & e_8) & e_5) | e_8) & e_6) & e_2) | e_4) | e_8) | e_4)) & e_3)) & e_4
800	11005	1	 !(!((!((!(!((((!(!(!(!(!((!(!(((((((!(((!(((!(!(!(((((((((!((((!(!(((((!(!(((((((!(!(e_2 | e_2)) & e_6) | e_7) | e_3) & e_8) | e_3) & e_6) & e_7)) & e_2) & e_7) | e_3) & e_5) & e_1)) | e_3) | e_0) & e_2) & e_5) | e_4) & e_2) & e_5) | e_2) | e_7) & e_7) & e_1) & e_1) | e_3))) | e_0) | e_6) & e_5) | e_2) | e_5) | e_7) & e_7) | e_2) & e_8) & e_6) & e_3) & e_0) | e_5) | e_8) | e_8) & e_4)) | e_3) & e_4) | e_4) & e_6) | e_1) | e_1) | e_3) | e_0) & e_8) & e_7) & e_0) & e_6) & e_5) & e_8
801	3497	0	 !(!(!(!((!(!e_9) | e_4) & e_7) & e_2) & e_3))
802	3154	0	 !(!(e_1 & e_9))
803	1226	0	 !((e_4 | e_9) | e_5)
804	2049	0	 !(!e_2) | e_0
805	2525	0	((!(!((!((((!(!(!(!(e_8 & e_1) & e_3) & e_7) & e_0) & e_4) & e_7) & e_9) & e_6) & e_6) | e_2)) & e_0) & e_0) & e_1
806	3438	0	e_2 | e_5
807	4050	0	 !(((!(((e_8 & e_2) | e_4) | e_0) | e_4) & e_1) | e_0)
808	2117	0	(e_2 & e_7) | e_3
809	7253	0	 !(!(!(!(!(e_0 | e_5) | e_6) & e_1))) & e_3
810	2316	0	 !(!(!(e_2 & e_4)) & e_9)
811	11005	1	((((!(!(!(!(!((!(((((((((((!(!(!(!(!(((!(!(!(!((!(!(!((((!(((((!(!((!((((!((!(!(!e_1 & e_0)) & e_7) | e_0) | e_9) & e_6) | e_6) | e_6) | e_4) | e_4) | e_6) | e_8) | e_7) & e_3) & e_7) | e_5) | e_1) | e_4) | e_5) & e_1)) & e_0) | e_2) & e_3)))) & e_3) & e_2) & e_4)) & e_0))) & e_0) & e_2) & e_2) & e_5) | e_8) & e_1) | e_7) | e_7) | e_8) | e_3) | e_8) & e_7) & e_3) | e_0) | e_0))) | e_1) & e_9) | e_2) | e_6) | e_9
812	11009	1	((!((((!(!(!(!(((!(!(!(!(!(((!(!(!((!(!(!((((!(!(!(!(!(!(!(!(!(((!(!(!((((((!(((!(!(!(!(!((!e_7 | e_9) & e_2)) & e_1)) | e_8) | e_8) | e_7) & e_3) | e_7) & e_2) | e_7) & e_6) | e_2) | e_9) & e_2)) | e_2) | e_0) | e_4)))))) & e_6) | e_5)) | e_9) & e_5) | e_6) & e_3) & e_2)) | e_1) & e_9)) & e_5) & e_0) | e_6) & e_6))))) | e_0) | e_1) & e_8)))) | e_9) & e_6) & e_0) | e_2) & e_4) | e_3) | e_9
813	11010	1	 !(!((((!((((!(!(((((((!(((((((!(!(!(((!(!(!((!(!(!((((!(!(((!((!((!(!(!((!((!(!((((e_7 | e_6) | e_8) | e_2) | e_6)) & e_9) | e_9) & e_1) | e_2)) & e_1) & e_2) | e_5) | e_3) & e_0) & e_6) | e_2) & e_4)) & e_2) | e_4) & e_7) & e_3) | e_0) | e_2) & e_7) & e_5))) & e_0) | e_7) & e_2) | e_6) | e_6) & e_0) | e_0) & e_8) | e_9) | e_4) | e_7) & e_7) | e_7) & e_4) | e_1) & e_5) | e_4) | e_3) & e_6)) | e_5) & e_4) & e_4) | e_4) & e_0) & e_8) & e_3) | e_5))
814	11005	1	 !(((!(((((((!((!(!(!(!(!((((!(!(!(!((((!(!(((((!(!(!(!(((((!(!((!((!(((!(!(!(((((((!((!((e_3 & e_0) & e_8) | e_0) & e_3) & e_9) & e_2) | e_9) & e_6) & e_1) | e_2) & e_9))) & e_0) | e_6) | e_3) & e_8) | e_2) | e_3) & e_5) & e_0) | e_8) & e_5) & e_5) | e_6) & e_9)) | e_0)) & e_3) | e_1) | e_9) | e_9) & e_1) | e_7) | e_7) | e_2) & e_3) & e_7) | e_7))) | e_6) | e_2) & e_5) & e_0) & e_6)))) | e_8) | e_2) | e_4) & e_3) | e_3) & e_3) & e_9) | e_5) | e_9) | e_3) & e_3) & e_1)
815	2061	0	(!(!(!(e_4 | e_3))) | e_9) & e_8
816	5944	0	(((!(!(((!(((e_4 & e_3) | e_9) | e_2) | e_7) | e_0) | e_0)) & e_8) | e_5) & e_1) | e_2
817	11006	1	 !(!((((((!(!(!((((((((!((!(!((((!((!((((!(!((!(!(!(!(!(!(!(!(!(!(!((((e_7 | e_9) & e_9) | e_0) & e_6) & e_0))) | e_0) & e_10))))) | e_4) & e_0) & e_0)) | e_3) | e_1) & e_3) | e_7) & e_0) | e_2) & e_1) & e_5) & e_8) & e_4)) | e_8) & e_2) & e_9) | e_10) & e_7) & e_5) & e_3) | e_9) & e_2) & e_5)) & e_0) & e_9) & e_8) | e_0) | e_8) & e_10) & e_9) | e_5)
818	4148	0	 !(!((((e_8 | e_4) | e_4) | e_2) & e_9)) | e_3
819	11004	1	 !(!(!(!(!(!(!(!(!(((!(((((!(!((!(!(((!(!(!((!(!(!((!((!(!(!(!(((((((((e_2 & e_1) & e_0) | e_0) & e_9) & e_8) & e_7) & e_3) | e_3) | e_5) & e_1) & e_9)) & e_2) | e_6) | e_9) & e_1)) & e_10) & e_3) & e_1))) | e_5) & e_5) & e_5) & e_3) | e_6) | e_5)) | e_3) & e_3) & e_8) & e_10) | e_10) | e_4) | e_3) & e_8))))) | e_1) | e_7) & e_0) | e_1) & e_7
820	11010	1	 !((!(!((((((!(!((!(!(((!(!(!(!((!(!((((!(!(!(!(!(!(!(!(((!(!((((!(!(!(((e_4 & e_6) | e_4) & e_7)) | e_6) & e_2) & e_8) | e_7) | e_1)) | e_1) | e_7) & e_6) & e_6)) & e_3)) & e_6))) & e_5) | e_6) & e_6) & e_7) & e_1) & e_3) & e_3) & e_3))) & e_6) & e_8) & e_5) | e_10) | e_9) | e_8) | e_10) | e_6) & e_2) | e_7) & e_9) & e_8) | e_8) | e_10) | e_6) & e_9) | e_7
821	3217	0	 !(!(e_1 & e_6)) & e_9
822	11005	1	 !(((!(!(!(!(!(((!(!((!((!((!(!(!((!(!((!((!(!((((((!((!(!((!((((!(!((!((e_3 | e_6) & e_6) | e_8) | e_4) | e_6) & e_7) & e_10) & e_4) & e_1) & e_9) | e_1) & e_4) | e_6) & e_5) & e_10) & e_0) | e_6) & e_1) & e_4) & e_3)) | e_4) & e_0) & e_10) | e_10)) | e_4) | e_3))) | e_6) & e_0) | e_8) & e_10) & e_10) & e_9)) | e_8) | e_2) & e_6) & e_8) & e_0) | e_8) & e_2) & e_1) | e_6) | e_3)
823	11009	1	((!(!(!(!(((!(!((((((!(!(((((!((!(!(!(!(!(!(!(!(!(!(!(!(!(!(!(!(!(!((!(((!(!(!(((((((e_8 & e_2) & e_0) | e_3) | e_5) | e_8) & e_10) | e_3))) | e_8) & e_2) | e_8) & e_2) | e_3))))))))) | e_1) | e_1) | e_3))))))) & e_1) & e_3) & e_7) | e_6) & e_9) & e_6) | e_7) | e_6) & e_7) & e_6) & e_4) | e_7) | e_3) | e_4) & e_10) & e_9) | e_5) & e_4))) & e_4) & e_5) | e_1) | e_4
824	2794	0	(((e_7 & e_4) & e_4) & e_8) | e_1
825	11004	1	 !(!(!(!(!((!(((((!((((!(!((!(!(!(((((!((!(!((!(!(((!(!(((((((!(((((!(!((!(e_1 & e_5) | e_6) & e_6) | e_4) | e_5) & e_4) | e_8) | e_1) | e_10) | e_6) & e_9) | e_4) & e_6) | e_4) | e_2) & e_9) & e_6) & e_4) & e_6) | e_1)) | e_3) | e_10)) & e_1) & e_7) & e_6) | e_8) & e_6) & e_5) & e_10) | e_1) & e_7) | e_4) | e_4) | e_4) & e_1) & e_6) | e_0) & e_10) | e_3) & e_8) & e_3) & e_1) | e_7) | e_2) | e_8)) | e_7)) | e_9)
826	11007	1	((!(!(!(!(!(!(!(!(((((!((((!((!(!(!(!(!(!((!(!(((((!((!(((!(!(!(((((((!(((!(!(e_7 | e_6) & e_1) & e_1) | e_6) | e_3) | e_2) & e_7) & e_10) | e_8) & e_1) & e_5) | e_1) & e_4) | e_9) & e_6) & e_6) | e_7) & e_3) & e_5) & e_7) | e_8) | e_8) & e_8) | e_2)) | e_6) | e_8) & e_3) & e_0)))) & e_5) & e_10) | e_5) & e_0) & e_5) & e_3) | e_6) | e_0) & e_3) & e_2) & e_8))) | e_9) | e_5)) & e_1)) | e_1) | e_10) & e_7
827	9138	0	((((e_6 | e_1) & e_5) | e_2) | e_7) | e_7
828	11005	1	(!(((((((!((!(!(!(!(!(!(!((((!((!((!(((((!(!(!(!((((((!(((((!(!((!(((((!(!(!(!(!(!(!((((e_3 | e_9) | e_9) & e_5) & e_2))) & e_6)))) | e_2) | e_7) | e_6) | e_1) & e_2) | e_7) & e_5)) & e_1) & e_3) & e_10) | e_0) & e_6) & e_6) & e_10) & e_4) | e_3) & e_6) & e_0) | e_9))) & e_5) & e_6) & e_1) | e_2) & e_6) & e_0) & e_10) | e_0) | e_3) & e_7) & e_1) & e_5) & e_1))) & e_6)))) & e_5) | e_1) & e_2) & e_8) | e_4) | e_5) | e_7) & e_4) | e_7) & e_10) & e_4
829	11007	1	 !((!(!(!(!(!((!((((((((!(!(!(((!((!(!((((!(!((((!((!((((!(((((!(((((((!((!(!(!((((e_7 & e_9) & e_4) & e_10) & e_2))) | e_8) & e_8) & e_10) & e_9) & e_8) | e_10) & e_6) | e_5) & e_4) & e_2) & e_7) & e_3) & e_6) & e_4) & e_3) & e_1) & e_6) | e_3) | e_8) | e_0) | e_10) & e_2) & e_0) & e_0)) | e_6) | e_10) & e_6) & e_3)) & e_4) | e_0) | e_4) | e_9) | e_8)) | e_1) & e_8) | e_4) & e_1) & e_8) | e_4) & e_10) | e_9) & e_4) | e_9) | e_8) | e_2) | e_5) | e_0)) | e_4) & e_2) & e_2
830	1654	0	 !e_9 & e_11
831	3077	0	 !(!(!(!(!(((!(!((e_9 | e_11) | e_6)) | e_3) & e_10) | e_6)) | e_3)))
832	1033	0	((!(!e_5 & e_7) | e_8) | e_8) | e_9
833	1206	0	 !(!(!e_9 & e_2)) & e_1
834	1535	0	 !(!(((!((!(e_1 & e_3) | e_2) & e_3) | e_7) | e_2) & e_11))
835	7447	0	 !((e_8 & e_7) & e_5)
836	1899	0	 !(e_3 | e_11) & e_8
837	3555	0	((!(((((((e_6 | e_3) | e_7) & e_0) & e_0) | e_8) | e_11) | e_7) & e_10) & e_10) & e_4
838	4722	0	 !(!(!(!(!(!(!(!(!((((((!((e_3 | e_7) & e_5) & e_5) | e_10) | e_1) & e_4) & e_5) & e_8)))) & e_2))))) & e_8
839	8934	0	 !(!((((((((!e_4 & e_8) & e_3) & e_9) & e_10) | e_7) & e_8) | e_11) & e_6))
840	4278	0	 !(!((!e_8 | e_2) & e_7) | e_9) | e_5
841	2998	0	(!e_3 | e_2) & e_7
842	11008	1	 !(((!(!((((!(!(((!((!(!((((!(!((((!(!((!((!(!(!(!(((((!(!(!(!(!((!(((!((((!((!(!(!e_1)) | e_3) | e_9) | e_11) & e_0) & e_0) | e_3) & e_11) | e_5) & e_8) | e_11) & e_2)) & e_1) | e_8)) & e_3) & e_9) & e_6) | e_4) & e_10) & e_7))) & e_8) | e_11) | e_3) | e_6)) | e_1) & e_4) | e_6) & e_6)) | e_4) | e_11) | e_0) & e_10)) | e_2) & e_9) & e_10) & e_8) | e_10) & e_3) | e_11) | e_11) | e_11) & e_11)) & e_3) & e_11) & e_1)
843	4490	0	 !(!((!(!(e_11 | e_10)) | e_2) & e_3)) | e_5
844	11006	1	 !(((((!(!(((!(!(((((!(!(!(!((((((((!(!(!(!(!(!(!(!((!((!(!((((!((!((!((!(!(!(!((((((!(!(e_5 & e_9)) | e_10) | e_8) & e_8) & e_0) & e_2) | e_11)))) & e_5) & e_7) & e_1) | e_9) | e_1) & e_0) & e_11) & e_5) | e_4) | e_4)) & e_4) | e_7) & e_7) & e_8))))) | e_3)) | e_3) & e_6) & e_6) | e_4) | e_8) & e_9) | e_9) | e_7) | e_1) & e_6) | e_5)) | e_2) | e_3) & e_11) | e_5) | e_9) | e_4) & e_3) & e_0) & e_6) & e_8) | e_11) | e_10) & e_11) & e_7) & e_9)
845	5781	0	(!((!(((!(!(e_6 & e_4) & e_5) & e_9) | e_2) & e_11) & e_8) & e_9) & e_5) | e_2
846	11004	1	((((!(!(!((!(!(!(((!((((((!(!(!(!(!((((!((((((((((!(!(!((!(!(!((!(!(!(((!(!(!(((!(!(!e_4 & e_9) | e_10) | e_0) & e_9) | e_0) | e_11)) | e_5) | e_6) | e_2) | e_1) & e_4) | e_8) & e_5))) & e_0) | e_2))) | e_1) & e_5) | e_2) | e_2) | e_0) & e_3) | e_6) | e_1) | e_9) | e_4) & e_2) | e_8) & e_5) & e_10) | e_1) & e_1) | e_2)) | e_0) & e_1) & e_4) | e_4) | e_2) & e_6) & e_9) & e_11) | e_7) | e_7) | e_3) | e_8) & e_10) & e_5)) & e_6) & e_7) | e_1) & e_10) | e_10
847	3507	0	(!e_7 | e_6) | e_2
848	11008	1	(((!(!(((!(!(!(((((!(!(!(!(!(((!(!(((!(!(!(!((!(!(!((((((!(!(!(!(!(((!(!(((!(((!(!(!((((((e_1 | e_8) | e_11) & e_5) & e_11) & e_0) | e_4)) & e_9) | e_10) | e_6) & e_8) | e_5) & e_9) | e_2)) | e_5) & e_8) | e_2) | e_11) & e_4) | e_11)) & e_11) & e_7) | e_5) | e_5) | e_0) | e_2)) | e_9) | e_11) & e_2) & e_1) | e_0)) & e_11) & e_4) | e_6)) & e_11) & e_3) & e_2)) | e_11))) | e_9) | e_1) | e_10) | e_9) | e_2))) | e_11) | e_8) | e_7) | e_1) | e_6) | e_11) | e_3) | e_7
849	11008	1	(((((((((((((!(!(((!(!(!(!(((!(!(((!((!(!(((!((!(!(!(!((!((!(!(!((!(!((((!(!(!(((!((e_5 & e_10) | e_2) & e_9) & e_4) | e_6) & e_10)) | e_1) | e_10) | e_11) & e_9) & e_0) | e_3) | e_4)) | e_6) | e_0) & e_1) & e_9) & e_11) | e_6)) & e_11) | e_3) | e_11) | e_1) & e_9) & e_0)) & e_3) & e_5) | e_2) | e_10) | e_7) & e_1) & e_11) & e_7) & e_0) & e_0) | e_8) & e_11) | e_11) | e_6) & e_5)) & e_1) & e_3) | e_2) & e_7) & e_1) | e_4) | e_4) & e_1) | e_11) | e_8) & e_1) & e_2) & e_9) | e_7
850	1896	0	 !(!(e_7 & e_9) | e_2) & e_9
851	1258	0	e_12
852	2336	0	(((((!((!(!e_4) & e_9) | e_3) | e_7) & e_6) & e_8) & e_6) & e_1) | e_5
853	8152	0	(!e_11 & e_5) & e_3
854	1099	0	e_9
855	3409	0	(!((!(!((((!e_12 & e_3) | e_1) | e_2) & e_4)) | e_2) & e_10) & e_4) | e_8
856	5753	0	 !((((!(!(!(!e_8) | e_5) | e_9) & e_2) | e_0) | e_12) | e_6) & e_2
857	11008	1	 !(!((((((((!(!(!(!(!(!(((((!((((!(!((!(!(!((!(!(!(!(!(!(!((!(((!(!((!(e_1 & e_7) | e_11) & e_4)) | e_2) | e_10) | e_9) & e_1) | e_2) | e_1))) | e_1) | e_3)) & e_10) | e_9)) | e_4) & e_12) & e_9)) | e_10) | e_9) & e_10) | e_6) & e_9) & e_7) & e_12) | e_6) & e_1) & e_2) & e_10)))) | e_6) & e_12) | e_3) & e_6) | e_11) | e_2) & e_8) & e_7)) | e_0
858	1397	0	 !((!(((((e_8 | e_0) | e_3) | e_1) | e_1) & e_6) & e_4) | e_11) & e_10
859	1899	0	 !(e_3 | e_8)
860	7301	0	(!(!(((!(!(!(!(!e_4)))) | e_8) & e_0) | e_10)) & e_12) & e_5
861	6350	0	e_7 | e_10
862	9023	0	 !((!(e_8 & e_3) | e_0) & e_10) | e_4
863	10611	1	((!(!(!((((!(!((((((((((!(!(!((!(((!((((!(!(!(!((!(!(!((((((!(!(!(((!(((((((e_12 & e_5) & e_5) & e_7) | e_12) | e_10) | e_12) | e_12) & e_9) & e_12) | e_3)) | e_3) | e_0) | e_2) | e_3) & e_2) & e_10) & e_7) & e_8)) | e_10) | e_1) | e_7))) | e_4) | e_11) | e_0) | e_10) | e_9) & e_6) & e_0) & e_5) & e_11) | e_12)) | e_4) | e_8) & e_8) & e_3) & e_4) | e_8) & e_0) | e_12) | e_7) | e_9) | e_5) | e_3) | e_2) & e_4) & e_3))) | e_9) & e_1) & e_8
864	2322	0	((((((e_11 | e_0) | e_8) | e_8) | e_2) & e_12) | e_2) & e_7
865	2923	0	 !((((((((!(((!((e_1 & e_12) & e_0) & e_12) | e_5) | e_9) | e_11) | e_6) & e_7) | e_6) & e_0) | e_3) | e_3) | e_9)
866	11008	1	(!((!(!(((!(!((!(!(!(!(!(!(!(!(((!(!(!((((!(!(!((((!(!(!(!((!(!((((((!((((!((!(!((((!(!(!(!e_2))) & e_5) & e_12) & e_10) & e_2)) | e_0) & e_8) & e_2) & e_9) & e_0) & e_2) | e_0) | e_0) | e_7) | e_8) | e_10) & e_0)) | e_0) | e_1)) | e_1) & e_9) & e_8) | e_12) | e_2) & e_8)) & e_12) | e_10) & e_6) & e_8) | e_11)) | e_2) | e_9) & e_9) & e_11) & e_9)) & e_3)) | e_11))) & e_12) & e_1)) | e_12) | e_8) | e_11)) & e_10) & e_1) | e_5) | e_4
867	6384	0	 !(!(!(!(!((((!e_7 & e_5) & e_13) & e_13) | e_11)))))
868	1924	0	 !(!((e_5 & e_1) & e_12)) & e_11
869	6347	0	(!(!(e_12 | e_10) & e_8) & e_1) | e_4
870	1295	0	e_8
871	2907	0	 !(!e_3 | e_5)
872	1509	0	((((!((((e_6 | e_12) & e_8) & e_1) & e_1) & e_1) & e_8) & e_1) & e_13) | e_0
873	3714	0	 !e_5 & e_1
874	1720	0	(((e_10 | e_8) & e_12) | e_6) & e_5
875	3909	0	e_4 | e_6
876	11008	1	(((!(!(((((!(!(!((((!(!(!(!(((!(!(!((((!(!(!(!((((((((!(!(!(!(!(!((((((!(!e_8) | e_9) | e_4) | e_12) & e_2) | e_12) & e_6)) | e_2)))) & e_4) | e_1) | e_11) & e_4) | e_0) | e_8) & e_2) | e_0))) & e_1) & e_11) | e_13) | e_2) | e_2))) | e_2) | e_9) & e_7)) & e_12)) | e_8) & e_13) | e_8) | e_3))) & e_9) | e_13) & e_8) | e_1) & e_10)) & e_11) | e_13) & e_11) & e_3
877	1982	0	((!e_1 & e_12) | e_3) & e_11
878	11004	1	 !((!((!(!(!(!(((((!((!(!(((((((!(!(!(!(!(!(((!(!(!(!(!(!((!(!(!(!(((!((!e_10 & e_1) | e_10) & e_11) & e_5) & e_11)) | e_11) & e_1) | e_10) | e_2) | e_9) | e_2)))) | e_1) | e_1) | e_1)) | e_5) | e_9)) & e_0) & e_11) & e_10) & e_13) | e_9) | e_12) | e_11) | e_8) | e_9) | e_9) & e_2) | e_2) & e_11) | e_10) & e_5) | e_12)))) | e_12) & e_1) | e_5) | e_2)
879	5961	0	(!(!(!(e_2 & e_6) & e_9) | e_4) & e_6) & e_9
880	11004	1	 !(!((!((((((((!((!(!(!(!(!((!(!((!((((!((!(!(((!(!(((!(!(!(!(!(!(!((!(((e_11 | e_9) & e_8) & e_0) & e_0) & e_1) | e_4))) | e_12))) & e_6) | e_12) | e_9)) | e_8) | e_0) & e_6) & e_3) | e_2) & e_2) | e_11) & e_6) | e_12) & e_8) | e_5) & e_6) | e_3) | e_12) | e_2) & e_5) & e_11)) & e_5) & e_13) & e_10) | e_9) | e_7) & e_6) | e_10) | e_12) & e_8) | e_3) | e_8) & e_5) & e_6))
881	1579	0	 !(((!(((e_2 & e_8) | e_1) & e_0) | e_5) & e_12) & e_9)
882	8154	0	((((((((!(!((!(!e_2 | e_6) & e_7) | e_5)) | e_12) | e_9) | e_6) | e_8) | e_9) | e_10) & e_11) & e_13) | e_4
883	4346	0	 !((e_10 & e_13) | e_1) | e_0
884	11008	1	((((!((((!(!((((((!(!((!(!(!(!(!(!(!((((!((!(!((!(!(!((!((!((((!(((((((!(!(!(((e_4 | e_12) & e_2) & e_2) & e_0)) & e_2) & e_10) & e_5) | e_3) | e_4) & e_4) & e_9) & e_9) | e_3) & e_7) & e_5) | e_7) | e_1) & e_2) & e_7)) | e_4) | e_10) | e_8) & e_10) | e_1) | e_10) | e_0) | e_7) | e_6) | e_8) | e_7))) | e_9) & e_7) & e_7) | e_0) | e_3) & e_3) | e_12) | e_1) | e_12) | e_0) | e_3) & e_4)) | e_5) | e_6) | e_3) & e_3) | e_7) | e_7) & e_6) | e_3) & e_2
885	1845	0	((e_6 & e_2) & e_4) & e_1
886	11007	1	 !(!((!((!(!(!(!((((!(((!(!(!((!((!(!((!(!(((!(!((!(!(!(!(((!((((((((((!((((!(((((e_3 & e_9) & e_1) | e_3) | e_3) | e_2) | e_11) | e_1) & e_3) | e_11) & e_8) | e_4) | e_3) | e_8) | e_3) | e_5) | e_12) & e_0) & e_12) & e_1) & e_4) & e_4) | e_8) | e_3)) & e_8) & e_11) | e_8) & e_7) | e_6) & e_4) & e_3)) | e_0) | e_11) | e_8) & e_9) & e_4) | e_4) | e_3))) & e_12) | e_12) | e_9) | e_1) & e_6) | e_6) & e_10)) & e_11)) & e_10) | e_11) & e_1) | e_3)) | e_5
887	10249	1	 !(!((!(!(!(((!(((((!((((((!(!(!(((((((!(!(!((((!(!((((((!((((((!(!(!((((!((((((((e_0 & e_7) | e_4) | e_10) & e_11) & e_9) & e_0) | e_1) | e_11) & e_11) & e_9) | e_13) & e_10))) | e_0) & e_3) & e_4) | e_5) & e_5) | e_3) | e_12) & e_11) & e_5) & e_4) | e_2) | e_10)) | e_11) | e_13) & e_9) | e_13) | e_9) & e_6) & e_10) | e_12) & e_5) | e_4) & e_2) | e_2) | e_3) | e_1)) & e_13) & e_9) & e_5) | e_13) | e_2) | e_6) | e_7) | e_12) & e_7) | e_7) & e_8) | e_8) | e_7) & e_6)) | e_1) & e_9) & e_2)) | e_5
888	11007	1	((!(((((!(!(!((((!(!((((((!(!((!(!((!(((!(((!(((((!(!((!((!(!(!(!(!(!(!((((((!(!((((!(!(e_12 | e_5)) & e_5) | e_11) | e_12) | e_10) | e_1) & e_9) & e_12) | e_13) | e_12) & e_7) & e_2)))) | e_11))) & e_7) & e_7) | e_6) | e_1)) | e_13) & e_10) & e_12) | e_0) | e_9) | e_4) & e_0) | e_7) | e_5) | e_3) & e_9) | e_5) | e_6)) | e_0) | e_13)) & e_7) & e_13) & e_10) & e_8) & e_0) | e_1)) & e_6) & e_13) | e_12) & e_6) & e_5) & e_3) | e_8) & e_1) | e_13) & e_4) | e_3) & e_13) & e_7) | e_10
889	11005	1	((!(!(!((!(!(!(!(((!((!(!(((((!(((((!(!(((!(((!(!(((!(!(((!((!(!(!(!(!(!((((((((!(!(!(e_12 & e_0) | e_11)) | e_11) & e_4) & e_6) | e_3) | e_3) | e_7) & e_0) | e_7) | e_9))))) & e_1) & e_2) & e_7) & e_9) | e_12) & e_0) & e_12) & e_2) & e_4)) & e_8) | e_8) | e_4) & e_8) & e_0) | e_8) | e_5) & e_1) | e_11) & e_8) & e_5) | e_13) | e_6) | e_0) | e_8) & e_4) & e_5)) | e_2) | e_9) | e_4) | e_11) | e_4) | e_1) | e_7) | e_1) & e_0) | e_11) | e_7) & e_2) & e_2) | e_8) | e_6
890	3034	0	(!((!((e_10 | e_0) & e_5) & e_1) & e_12) | e_8) & e_2
891	1105	0	(!(!(!(!(e_3 | e_5))) & e_3) | e_12) | e_2
892	2165	0	 !((!(!(!(((!e_11 | e_7) & e_3) | e_2) & e_0)) & e_0) | e_9) | e_1
893	1285	0	 !(!(!(!((!e_14 & e_1) | e_11))) | e_6) | e_4
894	1155	0	(!(!((((((!((((!e_10 | e_13) | e_1) | e_4) & e_12) & e_2) | e_4) & e_3) | e_13) & e_0) | e_6)) & e_5) | e_8
895	11009	1	((!((((((!((!((((!(!(!(!(((!(!(((!(!(!(!(!(!(!(!(!((!(!((!(!((((!(!(!(!e_6)) | e_3) | e_13) | e_0) | e_7) | e_0)) & e_12) & e_7)) | e_10) | e_14) | e_12)))) | e_6)) | e_6) | e_1) & e_7) | e_14) & e_13) & e_2) | e_2) & e_6) | e_3)) | e_3) & e_3) | e_12) | e_13) & e_10) & e_5) & e_11) & e_6) & e_2) | e_13) & e_6) | e_14) & e_9) | e_13) & e_12) & e_11) & e_14
896	7479	0	 !(((!(!(!(!e_3)) | e_6) & e_0) & e_1) | e_6) & e_1
897	1179	0	 !((e_0 | e_8) | e_11) & e_3
898	11004	1	 !(!((((((((((((!(!((!(((!(((!(!(!(!((((!(!(!(!(!(!(!(!(!(!(!((!(!((((((!((((!(((!(!e_3) | e_6) & e_0) & e_0) & e_13) | e_11) & e_7) & e_7) | e_6) & e_11) & e_12) | e_13) | e_9) & e_12)) & e_6) | e_11))))))))) & e_7)) | e_6) & e_2) & e_7) & e_1) & e_2))) & e_4) | e_6) & e_14) | e_13) | e_7) & e_8) & e_1) | e_8)) & e_2) | e_6) | e_7) | e_14) & e_6) | e_9) | e_6) & e_6) | e_10) | e_0) | e_0) & e_10))
899	3427	0	 !(!((!(((e_14 | e_5) & e_12) | e_11) | e_6) | e_1) | e_9) | e_10
900	11007	1	(!(!((!((((((!(!(!(!((!(!(((((!(((!(!(!(((!(((!(!(!(((!((((!(!(!(!(!(!(((((((!e_11 & e_0) | e_5) | e_13) & e_5) | e_3) & e_11) & e_14) & e_11) & e_11) | e_11) & e_0)) & e_7) & e_3) & e_0) & e_4) | e_5) & e_11) & e_12))) | e_8) & e_10) & e_3) | e_12) & e_4) & e_4))) & e_8) & e_5) | e_9) | e_0) & e_12) & e_4) & e_8) & e_0)) | e_12) | e_13))) & e_3) | e_13) & e_11) | e_0) & e_7) | e_13) & e_9) & e_8) & e_0) | e_4) | e_5) | e_7
901	11009	1	 !((((!(!(!(((!((!(!((!(!(!((!(!(!(!(!(!(((((!((!(((!(!(!(!(!(!(!(!(((((!((!((((e_12 & e_13) | e_10) | e_3) | e_0) | e_8) & e_9) | e_2) & e_3) & e_14) | e_4) | e_14) | e_3) & e_11)) & e_7) | e_2) & e_9)) | e_6) | e_3) & e_6) | e_3) & e_11) | e_13) | e_13) & e_14) & e_2) | e_12))))) & e_13) | e_11) & e_4) | e_13) | e_7) | e_0) & e_2) & e_9) & e_14) & e_13) | e_8) | e_11) & e_0) & e_3)) | e_3) & e_7) & e_3) | e_9)
902	11007	1	 !((!(!(!(!(!(((((!(((!((!(!(!(((((!(!(!(((!((((!((((!(!((!(!((((((((((((!(!(!(((!e_4 & e_11) | e_8) | e_3) & e_5)) & e_6) | e_9) & e_8) | e_14) | e_8) | e_6) | e_4) & e_4) | e_8) & e_11) | e_3) | e_0) & e_7) | e_5) | e_11)) | e_14) & e_1) & e_12) & e_9) & e_12) & e_13) & e_5) & e_11) | e_4) & e_12) | e_6))) & e_8) | e_0) & e_0) & e_12) & e_9)) & e_4) | e_8) | e_5) | e_3) & e_11) & e_6) | e_6) | e_2) & e_9) & e_5) | e_9)))) & e_8) | e_0) & e_11)
903	11004	1	 !(((!(!(!(!(!((!(((!(!(((((!(!((!((((((!(!((((!(!(!(!(!(!(!(!((((!(!(!(!(((!(!((!e_14 & e_9) | e_12) | e_8) | e_11) | e_12) | e_9)) & e_10) & e_13) & e_6) & e_13) | e_10) | e_0) | e_4)) | e_11))) & e_9)) | e_2) | e_4) & e_10) & e_10) | e_3) | e_14) | e_12) | e_12) & e_6) & e_3) | e_6) & e_1) | e_9) & e_1) | e_6) | e_12) & e_12) | e_5) | e_13) & e_11) | e_4) & e_9) | e_12) & e_11) | e_11))))) & e_14) | e_7) | e_10) & e_4
904	11005	1	 !(!(!((((!((((!(!((!(!(!(!((!((((!((!(!(!(((!(!(((((!(!(!((!(!(!(!(!((!((!((((((!(((e_3 & e_3) | e_1) & e_2) | e_10) | e_10) | e_3) & e_14) & e_2) | e_10) | e_6) & e_14) | e_10) & e_2)))) | e_13) | e_11) & e_9)) & e_0) | e_3) & e_14) | e_12) & e_3) | e_4) & e_4) | e_9) | e_11) | e_12)) | e_12) | e_11) | e_13) | e_7) & e_14) & e_1) & e_1) & e_4) & e_11) & e_3))) & e_1) | e_9) | e_10) & e_5) & e_13) & e_9) | e_14) & e_5) & e_2) & e_14) & e_12) & e_14) & e_6)
905	11008	1	(!(!(((!(((((!(!(!(!(!(!((((!(!(!(!(!(!((((((!(!(((((!((((!(!((!(!(((!(!((((!((!((e_11 | e_5) & e_1) | e_4) | e_1) | e_3) | e_8) | e_7) & e_0) & e_12) | e_1) & e_2) & e_12)) | e_3) & e_14) & e_14) | e_6) & e_4) & e_6) & e_4) & e_10) | e_0) & e_8) & e_5) | e_6)) | e_4) | e_1) | e_0) | e_12) | e_4) & e_11) & e_0) & e_9) & e_1) | e_7) & e_3) | e_4) & e_3) | e_11) | e_4)) & e_4) | e_5) | e_4) | e_1) & e_2) & e_10) | e_8) | e_3) & e_14) | e_10) | e_1) & e_4)) & e_13) & e_7
906	1259	0	 !(!((!(((!(!(!e_13 | e_1)) | e_8) & e_4) & e_3) & e_3) & e_3) | e_9)
907	1087	0	((((e_2 | e_14) | e_12) & e_0) & e_1) | e_3
908	9350	0	 !(!(!e_8) & e_14)
909	1398	0	 !(!(((((!(!e_5) | e_11) & e_3) & e_1) & e_4) | e_9)) | e_7
910	1706	0	 !((!(!e_8) | e_5) | e_1)
911	1593	0	(!(!((((!(!(!(e_4 | e_10)) & e_15) & e_5) & e_13) & e_2) | e_8)) & e_3) | e_10
912	1347	0	 !(!((((((!(!((((((!((e_8 & e_5) & e_10) & e_10) & e_9) & e_11) & e_13) | e_2) & e_14)) & e_5) | e_12) & e_11) | e_6) & e_0) & e_4))
913	1456	0	((e_5 | e_9) & e_12) & e_3
914	11008	1	(((!(!(!(((!(!((((((!(!(!(!(!(((!(!(!(!((!((((!(!(!(!(!(!(!(!(!(!(!((!(((((!(((((e_14 | e_2) | e_4) & e_3) & e_15) & e_7) | e_11) & e_15) & e_13) & e_9) | e_1) & e_5) | e_13)) & e_8))) | e_5)))) | e_10)) & e_6) | e_12) | e_15) | e_14) | e_7) & e_15))) & e_4) & e_14) | e_2) | e_7))) | e_5)) & e_12) & e_2) & e_5) | e_2) & e_0) & e_3)) & e_0) | e_9) | e_0)) & e_14) | e_10) & e_6) & e_6) | e_1
915	4370	0	((!(((!(!(!(!((e_7 | e_9) & e_10) & e_1))) & e_1) & e_8) & e_15) & e_13) | e_6) | e_14
916	11006	1	 !((!(!(!(((((!((((!(((((!(!(!(!(!(!((((!((((!(!((((!(!((((!((!(!(!(!(((!((((!(!(!((((e_6 & e_0) & e_8) & e_2) & e_12)) | e_10) | e_4) & e_11) & e_14) & e_4) | e_1) | e_4) | e_9) | e_5))) | e_7) & e_9) & e_15) & e_11) | e_12) | e_9)) | e_12) & e_13) & e_5) | e_3) & e_10) & e_9) | e_12) & e_5) & e_5) & e_9) & e_11) | e_13) & e_12)))))) | e_2) | e_11) | e_11) & e_1) | e_4) | e_1) & e_11) & e_10) | e_12) | e_9) & e_0) | e_15) | e_8) | e_11)) & e_15) & e_7) & e_1)
917	11007	1	 !(!(!(!((((!(!((!(!((!(!((((!(!((((!(!(!(!(((!(!(!(!((!(!(!(!(!((((!(((((!(!(!((((((!(!(((e_3 | e_14) & e_5) & e_7)) | e_11) & e_2) & e_0) | e_3) | e_12) & e_2) & e_5)) | e_2) | e_11) | e_5) & e_1) | e_11) | e_5) | e_5) & e_12) | e_2) & e_9)))) | e_5) | e_7) | e_9) | e_0)) | e_5) | e_9) | e_6)))) | e_3) | e_6) & e_2) & e_4)) | e_0) | e_3) & e_13) | e_13) | e_6) & e_13) & e_11) & e_3) | e_7) | e_4)) & e_6) & e_5) | e_5) & e_10) | e_10)))
918	3878	0	((((!(((e_13 & e_7) & e_9) | e_4) | e_0) | e_15) | e_0) | e_3) | e_6
919	1162	0	 !(!((((!(!(!(e_8 | e_5) | e_11)) & e_9) & e_4) | e_16) & e_2) | e_7)
920	999	0	 !(!((((((e_3 & e_10) & e_12) & e_4) & e_9) & e_7) & e_6)) & e_5
921	1159	0	(!(((((!((!(!((!e_6 & e_1) & e_3)) | e_4) & e_14) & e_16) | e_5) & e_12) & e_1) & e_9) & e_13) & e_1
922	1834	0	 !(!(!(!(e_10 | e_13) | e_15)))
923	1876	0	(((!(((!(!(!(!(((((((!(((e_15 & e_12) | e_3) & e_14) & e_8) & e_0) & e_12) & e_12) | e_11) | e_4) | e_11)))) & e_1) | e_4) & e_5) & e_9) & e_6) & e_16) & e_8
924	4857	0	(e_3 & e_5) & e_12
925	8820	0	 !(e_13 & e_2) | e_13
926	1778	0	 !((e_10 | e_12) & e_13)
927	11008	1	 !(!(((!(!((!(!(!(((!(!(((((((((!(!((((((!((!(!(!(!(!((((!(!(!((!(!((((((e_3 | e_15) | e_8) & e_10) & e_0) | e_3) | e_12) & e_0) | e_13) | e_9) | e_14) | e_6) & e_0) | e_15) & e_2) | e_0)) & e_0))) | e_8) | e_13) & e_3) & e_6) & e_4) | e_2) | e_0) & e_6) | e_6) & e_6) | e_11) & e_9) & e_3) & e_1) & e_11) | e_6) & e_16) & e_16)) | e_4) & e_1) & e_5) | e_9)) & e_13) & e_0)) | e_11) | e_2) | e_15))
928	11011	1	 !(!(((((((!(!((((!(!(!(!(!(!(!((!(!(!(((((!(!((!(!(!((!(!(((!(((!(((((!((((e_8 | e_10) | e_12) & e_11) | e_10) | e_1) | e_16) & e_14) & e_14) | e_16) & e_13) | e_10) & e_14) | e_16) & e_10) & e_6) & e_4) & e_0) & e_8)) | e_5) & e_6) | e_12)) | e_15) & e_10) | e_1) & e_16) & e_7)) & e_1) & e_14) & e_8)) | e_14))) | e_16)) | e_4) & e_13) & e_11) & e_6)) & e_3) | e_7) & e_2) | e_14) & e_12) & e_7) | e_13) | e_1)
929	11006	1	(((!(((!(!((!((((((!(!(!(!((((!((!(((!(!(((!(!(!(!(!(!(!(!(!(!(!(!(!(!(!(((((((e_6 | e_14) & e_16) | e_14) & e_0) & e_9) | e_8) | e_16)) & e_14)) | e_9)) | e_6) | e_1) | e_2)) & e_13) & e_15))) & e_3) | e_15) & e_9) | e_2) & e_8) & e_9) | e_5) | e_7) | e_0) | e_14) | e_1) & e_8) & e_10) | e_7)))) | e_11) & e_5) & e_14) | e_5) & e_1) | e_10) | e_4) & e_15) & e_14) & e_15) | e_11) & e_10) & e_8) & e_16) | e_5) & e_0
930	11004	1	 !(((!(!((((!(!(!(((((((((((!(!(!(!(!((((!(!(!((!(!(!(((!(!(!(!(!(((!((!(!(!(!(!(!(!(e_3 & e_5) | e_3)) | e_1)) & e_16) & e_8) & e_11) | e_12) & e_10) | e_9) & e_11)))) | e_4) & e_0) | e_16) & e_3) & e_15)) & e_4) | e_9))) & e_2) & e_16) & e_3) | e_6)) & e_16)) & e_1) & e_6) | e_16) & e_7) & e_10) & e_10) | e_9) | e_1) & e_12) & e_6) & e_2) | e_0))) | e_9) | e_1) | e_9) | e_0) | e_4) & e_16) | e_2) | e_10) & e_0
931	11020	1	 !(!((((!(!(!(((!(((!(!((((((!((((((((((!(!(((!(!(!(!((!(!((!(!((((!(!(!((!((!(!(!(!e_16) & e_5) | e_8) & e_9) | e_0) & e_10) & e_15)) & e_12) & e_4) & e_6) | e_7) | e_0) | e_16) | e_8) | e_16)) | e_12) | e_14))) | e_14) & e_0) & e_2) & e_9)) & e_13) | e_12) | e_15) & e_14) & e_11) & e_3) & e_2) | e_13) | e_7) | e_0) | e_11) & e_5) & e_10) & e_9) & e_0) | e_3)) & e_3) | e_8) & e_5) | e_1) & e_11) & e_12))) | e_8) & e_2) & e_9) & e_15) | e_14)
932	10130	0	e_14
933	11008	1	((!(!(!(!(!(!(!((((!((!(!(!(!(!(!((!(((((!(!(!(!(!(!(((!(!(!(((((!(!((((!(!(!(!((!((!(((!e_7 & e_6) & e_16) | e_13) | e_7) & e_8) | e_5) | e_16) | e_1) | e_11) | e_6) & e_5) & e_4) & e_3) | e_2)) & e_4) | e_1) & e_13) & e_5) | e_15) & e_1)) & e_2) | e_12) | e_2)) & e_13)) | e_6)) & e_16) & e_9) | e_15) | e_12) & e_16) | e_2) | e_3)))))) | e_2) | e_13) & e_2) & e_14) | e_0) | e_1) & e_9) & e_4)))) | e_8) & e_1) | e_6) | e_4
934	10251	1	 !(!((((!(!(!(((((!(!(!(((((!(!((e_13 & e_13) | e_0)) | e_3) | e_0) | e_15) | e_16) | e_10))) | e_11) & e_10) & e_3) & e_6) | e_0) | e_15)) & e_1) & e_2) & e_12) & e_2) & e_4)
935	11008	1	(((((!(!(!(!(!(!((((!(!((!(!(((!((((!(!((!(!((!(!((((!(!(!(!(((!((((!(!(((!((((((!(!(!((e_16 & e_12) & e_13))) | e_15) & e_11) | e_0) & e_10) | e_15) & e_12) & e_7) & e_8) | e_11) & e_11) | e_13) & e_15) & e_12) & e_14) | e_11) | e_3) | e_15)) & e_9)) & e_16) | e_8) & e_1) & e_16)) | e_9) | e_7) & e_15) | e_6) & e_3)) | e_6) | e_5) & e_9) | e_1) & e_4) | e_13) | e_16)) & e_6) | e_9)) & e_5) | e_8) & e_13) & e_3)) | e_15) & e_6))) & e_6) & e_10) | e_7) | e_4) | e_1) | e_4
936	11012	1	 !(((((!(!(((((((!(!(!(((((!(!(!(!(!(!(!((!((!((!((((((!(!((!(!(((((!((((((!(!((((!(!((!((e_3 & e_11) & e_12) & e_16) | e_7) | e_12) & e_2) | e_8) & e_4) & e_0)) & e_2) | e_6) & e_11) | e_11) | e_4) | e_11) & e_9) | e_10) | e_15) & e_7) & e_9)) & e_5) | e_2)) & e_1) | e_14) & e_15) & e_11) | e_16) | e_7) & e_7) | e_9) & e_12) | e_1) | e_6) | e_16) & e_0)) | e_0)))) | e_11) | e_6) | e_16) & e_1) & e_15)) & e_10) & e_2) & e_15) & e_5) & e_7) | e_3) | e_0) & e_13)) & e_10) | e_2) & e_12) & e_10) | e_8)
937	1711	0	 !(((((!(((e_12 & e_11) | e_15) | e_17) & e_8) & e_2) | e_17) & e_9) | e_14) | e_14
938	1119	0	 !((((!(!(!(!e_14))) & e_7) & e_13) | e_11) | e_5) & e_7
939	11005	1	 !(!(!((!(!(((!(((!(((!(!(!((((((!(!(!(!(!(!(!(!(((!(!(!(!(!(!(!(!(!e_6 & e_8) | e_8))) | e_5)))) | e_16) & e_15) & e_5))))) | e_12) | e_6)) | e_3) | e_7) & e_14) & e_0) & e_17) | e_3))) & e_6) | e_1) | e_0) | e_7) | e_6) & e_14) & e_2) | e_15) | e_15) & e_12) & e_12) | e_1) & e_10) & e_3)
940	4592	0	 !(!(!(!(!(!(!(((((!(!e_3) | e_15) | e_11) | e_10) & e_6) | e_9)))))))
941	2729	0	 !(!(!(((!((!(!(!(!(!(e_12 & e_16)) & e_9) & e_8) & e_0) & e_1) | e_6) | e_11) & e_14) | e_7)) | e_4)
942	1684	0	 !(!(!(!((e_17 | e_4) | e_0) & e_3) & e_6) & e_5)
943	11009	1	(!(!(!(((!((!(!(!((((!(!(!(((!(((!(!((!(!(!(!(!(!(!(!((((!(!(!((e_10 | e_4) | e_12) & e_8)) & e_13) | e_10) & e_15) & e_5) | e_16) & e_15)) | e_0))) & e_6) | e_8) | e_17) & e_10) | e_12) & e_16) & e_0) | e_4) & e_12) | e_13) & e_15) & e_16) & e_15) & e_12) & e_16) | e_16))) | e_5) & e_16) | e_14) | e_12) & e_7) & e_0)) & e_13) | e_16
944	11009	1	 !(!(((!(!(!(!(!(!(!(!(!(!((!(!(!(!(!(((!(!(!(!((!(!(((((!(!(!(!((!((((!e_13 | e_14) & e_17) & e_9) & e_10) | e_2) | e_14) | e_12) | e_11)) | e_8) & e_7) & e_16) & e_8) | e_14)) | e_5) | e_7)))) | e_9) & e_10) | e_5) | e_1))) | e_17) | e_11) | e_11)) | e_6)) | e_5) & e_7)) | e_15)) | e_3) & e_9) | e_13) & e_5) | e_9) & e_2
945	2683	0	 !((!(!(!(((((!(!(e_9 | e_4)) | e_13) | e_4) & e_10) | e_0) & e_6) | e_12)) & e_6) | e_5)
946	3611	0	 !((!(!((!(!(!(((e_2 | e_11) | e_5) & e_12)) & e_4) | e_11) | e_0)) | e_15) & e_8)
947	4058	0	 !(((!(!(((!(!(!(!(!(!(e_10 & e_5) | e_4) | e_0) & e_2) | e_1)) & e_7) | e_0) | e_14)) & e_16) & e_5) & e_12)
948	10195	1	(((!((((((!(!((e_9 | e_11) & e_13) | e_17) | e_16) & e_7) | e_1) | e_12) | e_3) & e_10) | e_11) | e_6) | e_0) | e_7
949	6577	0	 !(!(!((!(e_6 & e_4) | e_2) | e_14) | e_17))
950	11008	1	 !(!(!(!(!(!((!(!(!(!(!(!((((((!(((((!((!(!(((((((((((((((!(!(((((!(!(!(((!(!(!(e_10 | e_5))) & e_15) | e_14) | e_12) | e_8)) | e_8) & e_17) | e_8) & e_12) & e_9) & e_13) | e_4) & e_4) & e_16) | e_4) | e_8) | e_10) & e_7) & e_12) | e_5) & e_17) | e_2) | e_8) & e_8) | e_5) & e_15) & e_8) & e_10) & e_4) & e_15) | e_14) | e_0) & e_8) | e_7) | e_12) & e_1) | e_2) & e_11) | e_5) & e_14))) & e_11))) | e_4) & e_9))))))
951	1720	0	 !e_4 | e_3
952	8226	0	 !((!(!(!(((!(!(!((!e_8 | e_11) | e_17)) | e_15) | e_10) & e_4) & e_0) | e_3)) & e_13) & e_4)
953	11010	1	(!(((((!(!(((!((!(!(!(!(((((!(!(((!(!((!(!((!(!(!(!((((!((((!(!(!((!(!(!(!(!((((((!(!e_5) | e_9) | e_3) & e_6) & e_5) | e_8) | e_2))))) | e_17) & e_6))) & e_6) | e_7) | e_2) | e_8) & e_14) & e_16) & e_0) | e_10)) & e_17) | e_8) & e_5) | e_1)) & e_7) | e_17)) | e_11) & e_14) & e_5)) & e_8) & e_14) | e_1) | e_1) & e_14)))) & e_13) & e_13) | e_14) & e_3) | e_8)) & e_16) & e_8) | e_0) & e_4) | e_16) | e_8) & e_17
954	11005	1	((((!(!(!(!(!((!(!((!(((!(!(((!(((((!(((!(!(((((!(((!(!(!(!((((!(!((!(!(!((((((e_0 & e_14) & e_7) | e_1) & e_0) & e_1) | e_6))) | e_9) | e_6)) & e_8) & e_2) | e_14) | e_3) & e_9) & e_1) & e_13) & e_12) & e_12) & e_1) & e_17) & e_11) & e_8) & e_13) | e_17)) | e_7) | e_7) & e_12) | e_5) & e_8) | e_15) & e_7) | e_4) | e_17) | e_8) & e_9) & e_1) & e_4) | e_1) & e_5) & e_0) | e_3)) | e_3) | e_15)))) | e_12) | e_3) & e_15) & e_7) | e_12) & e_2
955	11006	1	 !(!(!(!(!(!(!(((((!(!(!(!(!(!(!(!((!(!((!(!((!(!(!(!(!(!((((((((!(((((!((((((((((!(e_11 | e_10) & e_16) | e_15) | e_6) | e_15) | e_8) | e_14) | e_12) & e_3) & e_16) | e_4) | e_9) & e_11) | e_0) | e_7) & e_11) & e_0) | e_11) & e_14) & e_15) & e_4) | e_15) & e_9) | e_7)) | e_2) & e_3) | e_0)) & e_8) | e_9)) & e_1) & e_8) & e_13) | e_16) & e_7)) | e_17) | e_9) | e_15))) & e_11) & e_4) | e_2) & e_12) & e_0) | e_9)) & e_12)) & e_0) & e_2))
956	11008	1	 !(((!((((!((!(((!(!(!((((!(((!(!(!(!(!(((((!(!(!((((((((!(!(!(!(!(!(((!((((!(((((!(!((e_17 | e_7) & e_7)) & e_13) | e_8) & e_7) | e_14) & e_11) | e_14) | e_12) | e_16) | e_0) & e_11) | e_11) & e_5) | e_11) & e_10))) | e_8) | e_8) | e_13) & e_4) | e_9) | e_17) & e_6) | e_3) & e_13))) | e_6) & e_8) & e_1) | e_0) | e_15) & e_10))) & e_0) & e_6) & e_11) | e_17) & e_4) | e_0) | e_10) | e_11) | e_12)) & e_1) | e_2) | e_0) | e_11) & e_17) & e_9) | e_6) & e_8) & e_8) & e_6) & e_7) | e_6)
957	11008	1	 !((((((!((((((((((!(!(!(!(!((((((((((!(!(!(((!(!(((((((!((((((!(!(!(!(!((!(!(!(!(!(!(!(!e_10 | e_7) & e_16))) & e_5)) & e_1) & e_11) | e_14))))) & e_10) | e_1) & e_14) & e_5) & e_5) & e_14) & e_16) & e_8) & e_8) & e_13) & e_2) | e_0) & e_17)) & e_5) & e_5) | e_8)) & e_10) | e_8) & e_13) | e_7) & e_2) & e_0) & e_0) & e_12) | e_9) & e_15) | e_12) | e_0) & e_14) | e_6)) | e_13) & e_4) & e_4) | e_12) | e_12) & e_15) | e_3) | e_0) | e_16) & e_4) | e_14) & e_11) & e_17) | e_7) | e_9) & e_3)
958	7673	0	(e_12 | e_6) & e_8
959	1057	0	 !(((!(((!(e_0 | e_10) | e_2) & e_8) & e_5) & e_3) | e_1) & e_17) | e_12
960	1626	0	(!(!(!(e_6 & e_15) | e_0) & e_3) | e_0) & e_7
961	1192	0	 !(e_4 & e_12) & e_16
962	1307	0	 !((((((!(!(!(e_14 & e_12)) & e_7) & e_8) | e_0) & e_11) & e_9) | e_6) & e_2) & e_13
963	2342	0	 !(!e_7)
964	11004	1	(!(!(((!(((!(((!(!((!(!(!((!(((!(!(!(!(!(!(!((!(!(!(!(!(!(((!(!(e_7 | e_8) & e_0) & e_6) | e_17) | e_2) | e_12))) & e_9)) | e_8) | e_11)))) & e_4))) | e_15) | e_18) | e_14) & e_7) | e_16))) | e_8) & e_16) & e_16) & e_2) | e_14) & e_13) & e_18) & e_13) & e_8) | e_3) & e_1) & e_15)) | e_11) & e_11
965	1520	0	 !(!(((e_4 & e_14) | e_17) & e_1)) & e_6
966	1533	0	((!(!(!(!e_0) & e_10) | e_1) | e_2) & e_16) | e_4
967	11004	1	 !((!(!((!(!(((!(!(!(!(!(!(!(!(!(!(((!((((((!(!(!(!(!(!(((((((!(!(!(!(!(!(!(((!(((e_5 & e_11) & e_3) | e_7) & e_4) & e_7) | e_6) | e_17))) | e_8)) | e_16) | e_10) & e_11) | e_12) | e_15) & e_1) & e_2) | e_14) & e_1)) | e_6)) | e_16) | e_17) & e_6) | e_4) | e_17) | e_7) | e_4) & e_11) & e_14) & e_17)) | e_11)))))))) & e_2) & e_2) & e_8) & e_8) | e_2) | e_6)) | e_8) & e_1)
968	11010	1	 !(!((!(((!(!(((!(!((!(!((((!((!((!(!(!(!(((!(!(!((((((((!(!(!(!(((!(!((!(!(e_6 | e_4)) & e_14) & e_15) | e_3) | e_18) & e_9) | e_0) & e_14))) | e_12) | e_8) & e_3) | e_13) | e_6) & e_14) | e_2) | e_12))) | e_7) & e_8) & e_18) | e_15))) | e_7) | e_4) | e_13) & e_0) & e_7) & e_17) & e_12) | e_0)) | e_6) & e_13) & e_15) & e_17) & e_18) & e_9) & e_1) & e_1) | e_2) & e_4) | e_16) & e_1) | e_0)
969	5707	0	 !((!(e_13 & e_8) & e_0) | e_14) & e_12
970	11008	1	 !(!(((!((!(((!(!(((!((!((((!((!(((((!(!(!(((((((((!(!(!(!(!(!(!(!((!(!(!(!(!(!((((e_12 & e_3) | e_0) & e_6) & e_4)) & e_2) | e_16))) | e_4) & e_8)) & e_5))))) | e_6) | e_17) | e_12) & e_8) | e_12) | e_8) & e_8) & e_13) & e_8) | e_3))) & e_16) & e_18) & e_18) & e_2) & e_6) & e_5) & e_16) | e_13) | e_17) & e_15) | e_11) & e_1) & e_12) | e_9) & e_5) & e_18)) | e_5) | e_18) & e_5) & e_2) | e_2) | e_3) | e_10) | e_6))
971	11011	1	((!(!(!(!(((!((!(!(!(((!((!(!(!(((!((((!((((((!((!(!(!(!(!((!(!((!((((((((((((e_12 & e_8) & e_5) & e_11) & e_13) & e_4) | e_9) & e_18) & e_12) & e_6) | e_17) & e_11) | e_10) & e_13) | e_0)) | e_10) & e_7))) | e_0) & e_4) | e_5) | e_5) & e_1) & e_10) | e_4) & e_15) & e_11) & e_14) | e_5) & e_2) | e_2) | e_17) & e_10) & e_9) | e_9) | e_12) | e_12) | e_1) & e_6) & e_16) & e_15) | e_4))) | e_10) | e_6) | e_15) | e_4) | e_6) & e_16))) | e_11) & e_3) & e_15
972	4767	0	(!e_4 | e_9) | e_10
973	1856	0	 !(((((((e_14 & e_13) | e_9) & e_10) & e_15) & e_0) & e_15) & e_7)
974	11008	1	 !((((!((!(!((!(!(!(!((!(!(!(!(!(!(((!(!(((((((((!(((((((((!(((!(((!(!(!(!(!(((!((!(!(!e_12)) & e_3) | e_18) | e_5) | e_4) | e_13) & e_9))) & e_13) & e_8) | e_9) | e_1) | e_15) | e_14) & e_1) & e_3) & e_9) | e_9) & e_17) | e_7) | e_0) & e_6) & e_3) | e_1) & e_13) & e_9) | e_12) & e_1) | e_10) & e_3) | e_12) & e_17) & e_8)) & e_3) | e_1) | e_15) | e_15))) & e_18)) & e_13) | e_8)) | e_13)) | e_11) | e_13) | e_16) & e_5) | e_7) | e_13) & e_12) | e_0) | e_11)
975	11006	1	((!(!(!(!(!((!((((((!(!(!(((((((!(((((!(!(!(!(!(!(!(!(!(((!(!(!(!(!(((!(!((((!((((!(!(((!(e_18 & e_10) & e_8) & e_10) & e_0)) & e_17) & e_10) | e_2) & e_17) & e_13) | e_1) & e_13) | e_10)) | e_5) & e_16) | e_18)) & e_4))) & e_0) & e_7) & e_6))))) & e_1))) | e_2) & e_16) & e_3) & e_5) & e_9) & e_0) | e_9) | e_3) | e_13) & e_5) | e_2) | e_5) | e_10)) | e_14) | e_2) & e_11) | e_10) & e_9) | e_9) & e_11) & e_7) | e_10))) & e_17)) & e_16) | e_7) & e_14
976	11009	1	 !(!(!(!(!(!((!(((!(!(!(!(((!(!(!(!(((((!(!(!(!(!(!((!(((((((!(((((!((!(!(!(!((!(!((!((!(!(e_16 & e_9) & e_4) & e_17) & e_11) & e_0) | e_7)) | e_6) | e_10) | e_17)) | e_8) & e_1) | e_0) & e_2) & e_4) | e_15) & e_8) | e_6) | e_15) & e_11) | e_17) | e_6) & e_6) | e_2) & e_1) & e_5) & e_8) & e_1)) | e_3))) | e_11) & e_4) & e_10) | e_8) | e_9) & e_3))) | e_5) | e_18) & e_11)) | e_4) & e_4) & e_16) | e_10) | e_7) & e_8) | e_5))))))
977	11010	1	 !(!(((!(!(!(((!(!(!((!(!(((((((!((((!(!(!(!(((!(((!(!((((!(((!(!((((!((!(((((((!(!e_16) | e_16) & e_0) | e_6) & e_18) | e_5) & e_1) & e_0) | e_13) | e_0) & e_12) | e_8) & e_5) & e_3) | e_7) | e_8) & e_3) | e_0) | e_4) | e_3) | e_5) | e_10) & e_10) | e_0) | e_11) | e_8) & e_5) & e_2) & e_13))) | e_9) & e_3) | e_11) | e_18) | e_18) & e_12) | e_13) & e_13) | e_17) | e_0) & e_12) & e_11)) & e_15) & e_14) & e_6) | e_14) | e_11) | e_8) | e_16))) | e_15) & e_8) & e_18) & e_10) | e_2
978	935	0	 !(!(!((!(((((!((!((((((((e_11 | e_7) & e_17) | e_0) & e_9) & e_6) & e_17) | e_10) & e_9) | e_7) | e_10) & e_8) | e_2) & e_4) | e_15) | e_18) | e_2) & e_13) & e_12) | e_7)
979	1115	0	 !(!(((((e_8 | e_6) & e_19) & e_1) | e_11) | e_13) | e_2)
980	11009	1	 !(!(!(!(!(!(!(!((!(!(!(((!(!(!(((!((!(!((!((!(!((!(((!((((((!(!(e_19 | e_17)) | e_7) & e_19) | e_12) & e_17) & e_6) | e_19) & e_4) | e_9) & e_8) | e_4) | e_6)) & e_0) | e_17) | e_15) | e_8) | e_17) | e_9) & e_6) & e_1) | e_18) & e_18) & e_15) & e_9) & e_12) | e_14) | e_19) | e_0)) & e_10) & e_10))) | e_9))))) | e_16
981	1370	0	 !(!((((((((!(!(!e_12 | e_5) & e_14) | e_10) & e_7) | e_8) & e_0) & e_11) & e_4) | e_6) | e_19))
982	1020	0	(e_6 & e_5) & e_0
983	8717	0	 !(!(!(((!(!(!(!(!((e_9 | e_4) | e_1))))) | e_14) & e_18) & e_10) & e_8) | e_7) & e_3
984	8393	0	 !(((((((((!(!(!e_2 | e_12) & e_7) & e_1) & e_8) | e_6) & e_17) & e_0) | e_16) & e_14) | e_5) & e_7)
985	11007	1	 !((!(!(!(!((((!(!(!(!(!(!(!(!(!(!((((!((((!((!(!((!(!(!(!((((!(((((!(!(!(!(!((!(!e_0 | e_19) & e_12) & e_2))))) & e_14) & e_6) & e_2) & e_17) & e_5) | e_13) & e_12) | e_15) & e_1))) | e_5) | e_10) | e_12) & e_3) & e_10) & e_18) | e_11) & e_18) & e_12) & e_8) & e_4) & e_17) & e_5) & e_14))))) | e_18)) & e_12)) | e_19) & e_18) & e_6) & e_2) | e_8) & e_9)) | e_1) & e_18) & e_8)
986	3727	0	 !(!(!((((!(((e_16 | e_18) | e_4) & e_8) | e_1) | e_5) & e_14) | e_13) | e_6) & e_12) & e_11
987	11010	1	 !((!(!(!((!(!((((!(!(!(!(!(!(((((((!(!(!(!(!(((!(!(((!(((!(!(((!(!(!(((((((!(((e_12 & e_9) & e_18) & e_2) & e_18) | e_1) & e_0) | e_18) | e_6) | e_15) & e_5)) & e_2) & e_2) | e_12) | e_19) | e_17) & e_17) & e_7) & e_0) & e_17) & e_12) & e_14)) | e_7) | e_7) | e_9)) & e_13))) | e_0) & e_8) | e_0) | e_5) | e_18) | e_12) | e_13))) & e_16)) | e_9) & e_9) & e_11) & e_1) & e_19) & e_19) | e_11) & e_18) & e_18) | e_19) | e_8) | e_7)
988	8712	0	((((((e_6 | e_15) | e_18) | e_5) | e_18) | e_2) & e_19) & e_9
989	3168	0	((e_5 | e_3) & e_10) | e_9
990	8018	0	(((((!e_15 & e_9) & e_11) | e_10) & e_12) & e_11) | e_1
991	11004	1	((((!(!(!((!(!(!((((!(!(!((!(!(((((((((!(((((!(!(!(!(!(!(!((((((!(!(!((!(!((!(!(((e_19 | e_17) & e_6) & e_11)) & e_8) | e_12) & e_7) & e_11) & e_7) & e_6) | e_11) | e_0) & e_10) | e_5) | e_14) | e_3) | e_15) & e_6)) & e_18)))) | e_7) & e_16) & e_12) | e_18) | e_6) | e_6) & e_3) | e_6) | e_16) | e_10) | e_0) | e_8) | e_9) & e_19)) & e_5) & e_9) & e_14)) | e_6) | e_7) | e_18) & e_16)) | e_17) & e_10) & e_3))) | e_1) & e_12) | e_5) & e_13) | e_19
992	2060	0	(((((!(!(!(((((!(!(((e_8 & e_4) & e_11) & e_1)) & e_2) | e_12) | e_17) & e_19) | e_0) | e_7)) | e_13) & e_6) | e_18) & e_19) | e_16) | e_13
993	11007	1	 !(!(!(((((!(!(((((!(!(((((!(!((!(!((!(!(!(!(!((!(!(((((((((!(!((((!(!(!(!(((((!((((e_15 | e_1) | e_12) | e_16) | e_10) | e_15) | e_8) | e_18) & e_19) & e_15)) & e_13)) | e_2) & e_9) | e_17) & e_8)) & e_7) | e_11) | e_9) | e_6) | e_17) & e_14) & e_12) | e_6) & e_1)) & e_17) | e_16) | e_18)))) | e_4) | e_16)) | e_13) | e_2)) & e_5) | e_9) & e_7) | e_13) | e_15) & e_0) & e_1) | e_4) | e_18) | e_13) & e_1) & e_9) & e_5) | e_8) | e_2) & e_1) | e_1) | e_8) | e_12)
994	11008	1	 !(!(!((((!((!(!((((((((!(!(!((((!(!(!(!((!(((!(!(!(((((((!(((!(((((((!((!(!((((((!(!e_16) | e_14) & e_19) | e_3) | e_5) & e_5) | e_10)) & e_17) | e_7) & e_7) | e_7) & e_6) & e_17) & e_7) & e_3) & e_6) & e_12) | e_4) | e_15) | e_14) | e_17) & e_18) & e_0) & e_10) | e_7) & e_15) | e_15) | e_17) | e_3) | e_13) | e_12) & e_11) | e_14)))) | e_1) | e_6) | e_11) & e_14))) | e_1) | e_18) | e_4) | e_13) & e_19) | e_6) & e_11) | e_3) | e_12) | e_5) | e_8) | e_0) | e_1) | e_1) | e_19))) & e_3
995	11009	1	((!(!(!(((((((((!(!(((!(!((!(((!((((((((!(!(((!(((!(!(((!(!(!(!(((!(!(!(((!(!(!(((e_4 | e_19) | e_3) & e_7) | e_6)) & e_8) | e_0) | e_7) | e_0)) & e_17) & e_1) & e_16) & e_7)) & e_14) | e_1) | e_6) | e_9)) | e_10) | e_3) | e_10) | e_1) | e_4) | e_9) & e_1) & e_19) | e_9) & e_12) | e_14) & e_13) & e_16) & e_7) & e_13) | e_14) & e_0) | e_14) & e_2) & e_4)) & e_3) | e_6) | e_7)) & e_11) | e_16) | e_18) & e_10) & e_12) | e_15) & e_8) | e_3) & e_7) & e_10)) & e_14) | e_18) & e_19
996	11008	1	 !((!(!((!(!(!(!(!((!(((!(!(!(!(!(!(!(!(((((!(!(!((!(!((!((!(!((!((((!(!((!(!(!(!(!(!((((!(e_14 | e_13) & e_7) & e_0) & e_15) & e_3)) & e_17) & e_3) | e_5)) & e_5) & e_5) | e_6) & e_13) & e_9) | e_4) & e_2) & e_1) & e_17) | e_0) | e_0) | e_19) & e_15) & e_14) & e_14) | e_1) | e_2))) & e_16) | e_15) & e_7) & e_11) & e_6)))))))) & e_8) & e_5) & e_9) & e_16) & e_3) | e_7) & e_0))) | e_5) | e_18) | e_19) & e_9) & e_8)
997	11004	1	(((!(!(!(!((((((!((((!((!(((!(!(((!(!((!((((!(!((!((!(!(!(!(!((((((((((!((!(!(((!(e_10 | e_3) | e_3) & e_12) | e_6) | e_7) | e_8) | e_4) | e_6) & e_11) | e_18) & e_2) & e_14) & e_17) | e_13) | e_8) & e_8) | e_18)) | e_5))) | e_6) | e_7) & e_16) & e_9) | e_14) | e_14) & e_2) | e_9) & e_3) | e_6) | e_15) | e_16) & e_14) | e_16) | e_17) & e_15) & e_12) | e_6) & e_2) & e_3) | e_9) & e_16) & e_3) | e_9) | e_17) | e_3) & e_1) | e_17) | e_16) & e_18) & e_13)) & e_8)) & e_12) | e_17) & e_11) | e_4
998	11007	1	 !((!(((((!(!(!(!(!(((!(!(!(!(((!(!((!(((((!(((((((((!(!(!(!(!(!(!((((!((!((!(!(!(!(((((!((e_17 & e_9) | e_14) & e_19) & e_9) | e_17) & e_12) & e_14)) & e_1)) | e_19) | e_13) & e_11) | e_7) & e_6) & e_15) | e_17) & e_10) & e_17)))))) & e_11) & e_6) & e_2) & e_18) | e_10) & e_2) & e_13) & e_10) | e_2) & e_1) & e_14) & e_6) & e_16) | e_4) | e_13) & e_0)) | e_2) | e_18) | e_13)))) | e_12) & e_4) & e_9)) & e_14) | e_10)) & e_16) | e_13) | e_16) & e_15) & e_14) & e_0) & e_2) | e_8
999	11010	1	 !((((((((!((!(!(!(!(!(!((!(!(!(!(!((!(((!((((!((!(!(!(!(!(!(!((!((((((((((!(!(((!(!((!(!(!(e_19 & e_17))) | e_15) & e_19)) & e_5) | e_9) | e_3)) | e_8) | e_12) | e_8) & e_5) & e_3) & e_7) & e_4) & e_0) | e_16) & e_6) | e_16) & e_18))) & e_16))) & e_14) & e_3) | e_9) & e_4) & e_7) & e_7) | e_12) | e_9) | e_14) & e_10) & e_7) & e_15))) | e_18) | e_9) | e_19) & e_2) & e_5)) | e_15) | e_4)) & e_7) & e_13) & e_13) | e_10) & e_16) & e_6) | e_16) | e_15) & e_0) | e_4)
1000	11006	1	 !((((((((((((!((((!((!(!(!(!(!(!(!(!(((!((((!((((((!((!(!((!((((((!(((!(!(((!(!(((!((e_3 & e_13) | e_1) | e_1) | e_7) & e_0)) & e_10) & e_0) | e_5)) | e_10) | e_14) | e_16) & e_13) & e_16) | e_18) & e_10) & e_11) | e_13) & e_15) | e_8)) | e_14) | e_12) | e_1) & e_9) | e_3) & e_11) & e_18) & e_1) | e_19) | e_3) & e_8) | e_11) | e_6) | e_15) | e_10) | e_6) | e_17)))) | e_1)) | e_19) & e_7) & e_19) | e_9) & e_18) & e_9) & e_4) | e_15) | e_0) | e_12) | e_11) & e_11) | e_6) & e_0) | e_10) | e_12) & e_11) & e_14) | e_8
